19-Nov-2015 07:51:34.332 INFO [Thread-5] org.apache.coyote.AbstractProtocol.pause Pausing ProtocolHandler ["http-nio-8080"]
19-Nov-2015 07:51:34.388 INFO [Thread-5] org.apache.coyote.AbstractProtocol.pause Pausing ProtocolHandler ["ajp-nio-8009"]
19-Nov-2015 07:51:34.439 INFO [Thread-5] org.apache.catalina.core.StandardService.stopInternal Stopping service Catalina
19-Nov-2015 07:51:34.549 INFO [localhost-startStop-2] org.springframework.web.context.support.XmlWebApplicationContext.doClose Closing WebApplicationContext for namespace 'spring-dispatcher-servlet': startup date [Wed Nov 18 09:23:12 CST 2015]; parent: Root WebApplicationContext
19-Nov-2015 07:51:34.579 INFO [localhost-startStop-2] org.springframework.web.context.support.XmlWebApplicationContext.doClose Closing Root WebApplicationContext: startup date [Wed Nov 18 09:23:10 CST 2015]; root of context hierarchy
19-Nov-2015 07:51:34.611 WARNING [localhost-startStop-2] org.apache.catalina.loader.WebappClassLoaderBase.clearReferencesJdbc The web application [DVDLibraryMVC] registered the JDBC driver [com.mysql.jdbc.Driver] but failed to unregister it when the web application was stopped. To prevent a memory leak, the JDBC Driver has been forcibly unregistered.
19-Nov-2015 07:51:34.612 WARNING [localhost-startStop-2] org.apache.catalina.loader.WebappClassLoaderBase.clearReferencesThreads The web application [DVDLibraryMVC] appears to have started a thread named [MySQL Statement Cancellation Timer] but has failed to stop it. This is very likely to create a memory leak. Stack trace of thread:
 java.lang.Object.wait(Native Method)
 java.lang.Object.wait(Object.java:502)
 java.util.TimerThread.mainLoop(Timer.java:526)
 java.util.TimerThread.run(Timer.java:505)
19-Nov-2015 07:51:34.638 INFO [localhost-startStop-2] org.springframework.web.context.support.XmlWebApplicationContext.doClose Closing Root WebApplicationContext: startup date [Wed Nov 11 15:38:57 CST 2015]; root of context hierarchy
19-Nov-2015 07:51:34.665 INFO [localhost-startStop-2] org.springframework.web.context.support.XmlWebApplicationContext.doClose Closing Root WebApplicationContext: startup date [Wed Nov 11 15:39:01 CST 2015]; root of context hierarchy
19-Nov-2015 07:51:34.684 INFO [Thread-5] org.apache.coyote.AbstractProtocol.stop Stopping ProtocolHandler ["http-nio-8080"]
19-Nov-2015 07:51:34.688 INFO [Thread-5] org.apache.coyote.AbstractProtocol.stop Stopping ProtocolHandler ["ajp-nio-8009"]
19-Nov-2015 07:51:34.706 INFO [Thread-5] org.apache.coyote.AbstractProtocol.destroy Destroying ProtocolHandler ["http-nio-8080"]
19-Nov-2015 07:51:34.708 INFO [Thread-5] org.apache.coyote.AbstractProtocol.destroy Destroying ProtocolHandler ["ajp-nio-8009"]
19-Nov-2015 08:53:03.455 INFO [main] org.apache.catalina.startup.VersionLoggerListener.log Server version:        Apache Tomcat/8.0.27
19-Nov-2015 08:53:03.457 INFO [main] org.apache.catalina.startup.VersionLoggerListener.log Server built:          Sep 28 2015 08:17:25 UTC
19-Nov-2015 08:53:03.457 INFO [main] org.apache.catalina.startup.VersionLoggerListener.log Server number:         8.0.27.0
19-Nov-2015 08:53:03.457 INFO [main] org.apache.catalina.startup.VersionLoggerListener.log OS Name:               Linux
19-Nov-2015 08:53:03.457 INFO [main] org.apache.catalina.startup.VersionLoggerListener.log OS Version:            3.19.0-33-generic
19-Nov-2015 08:53:03.457 INFO [main] org.apache.catalina.startup.VersionLoggerListener.log Architecture:          amd64
19-Nov-2015 08:53:03.458 INFO [main] org.apache.catalina.startup.VersionLoggerListener.log Java Home:             /usr/lib/jvm/java-8-oracle/jre
19-Nov-2015 08:53:03.458 INFO [main] org.apache.catalina.startup.VersionLoggerListener.log JVM Version:           1.8.0_66-b17
19-Nov-2015 08:53:03.458 INFO [main] org.apache.catalina.startup.VersionLoggerListener.log JVM Vendor:            Oracle Corporation
19-Nov-2015 08:53:03.458 INFO [main] org.apache.catalina.startup.VersionLoggerListener.log CATALINA_BASE:         /home/apprentice/Desktop/Bitbucket/csp-repository-sh/apache-tomcat-8.0.27
19-Nov-2015 08:53:03.458 INFO [main] org.apache.catalina.startup.VersionLoggerListener.log CATALINA_HOME:         /home/apprentice/Desktop/Bitbucket/csp-repository-sh/apache-tomcat-8.0.27
19-Nov-2015 08:53:03.458 INFO [main] org.apache.catalina.startup.VersionLoggerListener.log Command line argument: -Djava.util.logging.config.file=/home/apprentice/Desktop/Bitbucket/csp-repository-sh/apache-tomcat-8.0.27/conf/logging.properties
19-Nov-2015 08:53:03.459 INFO [main] org.apache.catalina.startup.VersionLoggerListener.log Command line argument: -Djava.util.logging.manager=org.apache.juli.ClassLoaderLogManager
19-Nov-2015 08:53:03.459 INFO [main] org.apache.catalina.startup.VersionLoggerListener.log Command line argument: -Dhttp.nonProxyHosts=localhost|127.0.0.1|apprentice
19-Nov-2015 08:53:03.459 INFO [main] org.apache.catalina.startup.VersionLoggerListener.log Command line argument: -Djava.endorsed.dirs=/home/apprentice/Desktop/Bitbucket/csp-repository-sh/apache-tomcat-8.0.27/endorsed
19-Nov-2015 08:53:03.459 INFO [main] org.apache.catalina.startup.VersionLoggerListener.log Command line argument: -Dcatalina.base=/home/apprentice/Desktop/Bitbucket/csp-repository-sh/apache-tomcat-8.0.27
19-Nov-2015 08:53:03.459 INFO [main] org.apache.catalina.startup.VersionLoggerListener.log Command line argument: -Dcatalina.home=/home/apprentice/Desktop/Bitbucket/csp-repository-sh/apache-tomcat-8.0.27
19-Nov-2015 08:53:03.459 INFO [main] org.apache.catalina.startup.VersionLoggerListener.log Command line argument: -Djava.io.tmpdir=/home/apprentice/Desktop/Bitbucket/csp-repository-sh/apache-tomcat-8.0.27/temp
19-Nov-2015 08:53:03.460 INFO [main] org.apache.catalina.core.AprLifecycleListener.lifecycleEvent The APR based Apache Tomcat Native library which allows optimal performance in production environments was not found on the java.library.path: /usr/lib/jvm/java-8-oracle/jre/lib/amd64:/usr/lib/jvm/java-8-oracle/jre/lib/i386::/usr/java/packages/lib/amd64:/usr/lib64:/lib64:/lib:/usr/lib
19-Nov-2015 08:53:03.661 INFO [main] org.apache.coyote.AbstractProtocol.init Initializing ProtocolHandler ["http-nio-8080"]
19-Nov-2015 08:53:03.690 INFO [main] org.apache.tomcat.util.net.NioSelectorPool.getSharedSelector Using a shared selector for servlet write/read
19-Nov-2015 08:53:03.694 INFO [main] org.apache.coyote.AbstractProtocol.init Initializing ProtocolHandler ["ajp-nio-8009"]
19-Nov-2015 08:53:03.696 INFO [main] org.apache.tomcat.util.net.NioSelectorPool.getSharedSelector Using a shared selector for servlet write/read
19-Nov-2015 08:53:03.701 INFO [main] org.apache.catalina.startup.Catalina.load Initialization processed in 834 ms
19-Nov-2015 08:53:03.745 INFO [main] org.apache.catalina.core.StandardService.startInternal Starting service Catalina
19-Nov-2015 08:53:03.746 INFO [main] org.apache.catalina.core.StandardEngine.startInternal Starting Servlet Engine: Apache Tomcat/8.0.27
19-Nov-2015 08:53:03.771 INFO [localhost-startStop-1] org.apache.catalina.startup.HostConfig.deployDescriptor Deploying configuration descriptor /home/apprentice/Desktop/Bitbucket/csp-repository-sh/apache-tomcat-8.0.27/conf/Catalina/localhost/PracticeJSP.xml
19-Nov-2015 08:53:03.876 WARNING [localhost-startStop-1] org.apache.catalina.startup.SetContextPropertiesRule.begin [SetContextPropertiesRule]{Context} Setting property 'antiJARLocking' to 'true' did not find a matching property.
19-Nov-2015 08:53:04.295 INFO [localhost-startStop-1] org.apache.catalina.startup.HostConfig.deployDescriptor Deployment of configuration descriptor /home/apprentice/Desktop/Bitbucket/csp-repository-sh/apache-tomcat-8.0.27/conf/Catalina/localhost/PracticeJSP.xml has finished in 524 ms
19-Nov-2015 08:53:04.296 INFO [localhost-startStop-1] org.apache.catalina.startup.HostConfig.deployDescriptor Deploying configuration descriptor /home/apprentice/Desktop/Bitbucket/csp-repository-sh/apache-tomcat-8.0.27/conf/Catalina/localhost/DVDLibraryMVC.xml
19-Nov-2015 08:53:04.299 WARNING [localhost-startStop-1] org.apache.catalina.startup.SetContextPropertiesRule.begin [SetContextPropertiesRule]{Context} Setting property 'antiJARLocking' to 'true' did not find a matching property.
19-Nov-2015 08:53:05.387 INFO [localhost-startStop-1] org.apache.jasper.servlet.TldScanner.scanJars At least one JAR was scanned for TLDs yet contained no TLDs. Enable debug logging for this logger for a complete list of JARs that were scanned but no TLDs were found in them. Skipping unneeded JARs during scanning can improve startup time and JSP compilation time.
19-Nov-2015 08:53:05.425 INFO [localhost-startStop-1] org.springframework.web.context.ContextLoader.initWebApplicationContext Root WebApplicationContext: initialization started
19-Nov-2015 08:53:05.562 INFO [localhost-startStop-1] org.springframework.web.context.support.XmlWebApplicationContext.prepareRefresh Refreshing Root WebApplicationContext: startup date [Thu Nov 19 08:53:05 CST 2015]; root of context hierarchy
19-Nov-2015 08:53:05.631 INFO [localhost-startStop-1] org.springframework.beans.factory.xml.XmlBeanDefinitionReader.loadBeanDefinitions Loading XML bean definitions from ServletContext resource [/WEB-INF/spring-dispatcher-servlet.xml]
19-Nov-2015 08:53:05.954 INFO [localhost-startStop-1] org.springframework.beans.factory.xml.XmlBeanDefinitionReader.loadBeanDefinitions Loading XML bean definitions from class path resource [spring-persistence.xml]
19-Nov-2015 08:53:06.184 INFO [localhost-startStop-1] org.springframework.beans.factory.annotation.AutowiredAnnotationBeanPostProcessor.<init> JSR-330 'javax.inject.Inject' annotation found and supported for autowiring
19-Nov-2015 08:53:06.628 INFO [localhost-startStop-1] org.springframework.web.servlet.mvc.method.annotation.RequestMappingHandlerMapping.registerHandlerMethod Mapped "{[/ || /home],methods=[GET],params=[],headers=[],consumes=[],produces=[],custom=[]}" onto public java.lang.String com.mycompany.dvdmvc.Controller.HomeController.displayHomePage()
19-Nov-2015 08:53:06.628 INFO [localhost-startStop-1] org.springframework.web.servlet.mvc.method.annotation.RequestMappingHandlerMapping.registerHandlerMethod Mapped "{[/dvd],methods=[POST],params=[],headers=[],consumes=[],produces=[],custom=[]}" onto public com.mycompany.dvdmvc.model.DVD com.mycompany.dvdmvc.Controller.HomeController.createDVD(com.mycompany.dvdmvc.model.DVD)
19-Nov-2015 08:53:06.630 INFO [localhost-startStop-1] org.springframework.web.servlet.mvc.method.annotation.RequestMappingHandlerMapping.registerHandlerMethod Mapped "{[/list],methods=[GET],params=[],headers=[],consumes=[],produces=[],custom=[]}" onto public java.lang.String com.mycompany.dvdmvc.Controller.ListController.displayListPage()
19-Nov-2015 08:53:06.631 INFO [localhost-startStop-1] org.springframework.web.servlet.mvc.method.annotation.RequestMappingHandlerMapping.registerHandlerMethod Mapped "{[/dvd/{id}],methods=[GET],params=[],headers=[],consumes=[],produces=[],custom=[]}" onto public com.mycompany.dvdmvc.model.DVD com.mycompany.dvdmvc.Controller.ListController.getDVD(int)
19-Nov-2015 08:53:06.631 INFO [localhost-startStop-1] org.springframework.web.servlet.mvc.method.annotation.RequestMappingHandlerMapping.registerHandlerMethod Mapped "{[/dvd/{id}],methods=[DELETE],params=[],headers=[],consumes=[],produces=[],custom=[]}" onto public void com.mycompany.dvdmvc.Controller.ListController.deleteDVD(int)
19-Nov-2015 08:53:06.631 INFO [localhost-startStop-1] org.springframework.web.servlet.mvc.method.annotation.RequestMappingHandlerMapping.registerHandlerMethod Mapped "{[/dvd/{id}],methods=[PUT],params=[],headers=[],consumes=[],produces=[],custom=[]}" onto public void com.mycompany.dvdmvc.Controller.ListController.putDVD(int,com.mycompany.dvdmvc.model.DVD)
19-Nov-2015 08:53:06.632 INFO [localhost-startStop-1] org.springframework.web.servlet.mvc.method.annotation.RequestMappingHandlerMapping.registerHandlerMethod Mapped "{[/dvds],methods=[GET],params=[],headers=[],consumes=[],produces=[],custom=[]}" onto public java.util.List<com.mycompany.dvdmvc.model.DVD> com.mycompany.dvdmvc.Controller.ListController.getAllDVDs()
19-Nov-2015 08:53:06.633 INFO [localhost-startStop-1] org.springframework.web.servlet.mvc.method.annotation.RequestMappingHandlerMapping.registerHandlerMethod Mapped "{[/search],methods=[GET],params=[],headers=[],consumes=[],produces=[],custom=[]}" onto public java.lang.String com.mycompany.dvdmvc.Controller.SearchController.displaySearchPage()
19-Nov-2015 08:53:06.633 INFO [localhost-startStop-1] org.springframework.web.servlet.mvc.method.annotation.RequestMappingHandlerMapping.registerHandlerMethod Mapped "{[/search/dvds],methods=[POST],params=[],headers=[],consumes=[],produces=[],custom=[]}" onto public java.util.List<com.mycompany.dvdmvc.model.DVD> com.mycompany.dvdmvc.Controller.SearchController.searchDVDs(java.util.Map<java.lang.String, java.lang.String>)
19-Nov-2015 08:53:06.635 INFO [localhost-startStop-1] org.springframework.web.servlet.mvc.method.annotation.RequestMappingHandlerMapping.registerHandlerMethod Mapped "{[/error],methods=[],params=[],headers=[],consumes=[],produces=[],custom=[]}" onto public java.lang.String com.mycompany.dvdmvc.Controller.ErrorController.customError(javax.servlet.http.HttpServletRequest,javax.servlet.http.HttpServletResponse,org.springframework.ui.Model)
19-Nov-2015 08:53:06.679 INFO [localhost-startStop-1] org.hibernate.validator.internal.util.Version.<clinit> HV000001: Hibernate Validator 5.1.0.Final
19-Nov-2015 08:53:07.323 INFO [localhost-startStop-1] org.springframework.web.context.ContextLoader.initWebApplicationContext Root WebApplicationContext: initialization completed in 1897 ms
19-Nov-2015 08:53:07.332 INFO [localhost-startStop-1] org.apache.catalina.startup.HostConfig.deployDescriptor Deployment of configuration descriptor /home/apprentice/Desktop/Bitbucket/csp-repository-sh/apache-tomcat-8.0.27/conf/Catalina/localhost/DVDLibraryMVC.xml has finished in 3,036 ms
19-Nov-2015 08:53:07.333 INFO [localhost-startStop-1] org.apache.catalina.startup.HostConfig.deployDescriptor Deploying configuration descriptor /home/apprentice/Desktop/Bitbucket/csp-repository-sh/apache-tomcat-8.0.27/conf/Catalina/localhost/VendingMachineMVC.xml
19-Nov-2015 08:53:07.345 WARNING [localhost-startStop-1] org.apache.catalina.startup.SetContextPropertiesRule.begin [SetContextPropertiesRule]{Context} Setting property 'antiJARLocking' to 'true' did not find a matching property.
19-Nov-2015 08:53:08.788 INFO [localhost-startStop-1] org.apache.jasper.servlet.TldScanner.scanJars At least one JAR was scanned for TLDs yet contained no TLDs. Enable debug logging for this logger for a complete list of JARs that were scanned but no TLDs were found in them. Skipping unneeded JARs during scanning can improve startup time and JSP compilation time.
19-Nov-2015 08:53:08.823 INFO [localhost-startStop-1] org.springframework.web.context.ContextLoader.initWebApplicationContext Root WebApplicationContext: initialization started
19-Nov-2015 08:53:08.962 INFO [localhost-startStop-1] org.springframework.web.context.support.XmlWebApplicationContext.prepareRefresh Refreshing Root WebApplicationContext: startup date [Thu Nov 19 08:53:08 CST 2015]; root of context hierarchy
19-Nov-2015 08:53:09.057 INFO [localhost-startStop-1] org.springframework.beans.factory.xml.XmlBeanDefinitionReader.loadBeanDefinitions Loading XML bean definitions from ServletContext resource [/WEB-INF/spring-dispatcher-servlet.xml]
19-Nov-2015 08:53:09.304 INFO [localhost-startStop-1] org.springframework.beans.factory.xml.XmlBeanDefinitionReader.loadBeanDefinitions Loading XML bean definitions from class path resource [spring-persistence.xml]
19-Nov-2015 08:53:09.454 INFO [localhost-startStop-1] org.springframework.beans.factory.annotation.AutowiredAnnotationBeanPostProcessor.<init> JSR-330 'javax.inject.Inject' annotation found and supported for autowiring
19-Nov-2015 08:53:09.648 INFO [localhost-startStop-1] org.springframework.web.servlet.mvc.method.annotation.RequestMappingHandlerMapping.registerHandlerMethod Mapped "{[/additem],methods=[POST],params=[],headers=[],consumes=[],produces=[],custom=[]}" onto public com.mycompany.vendingmachinemvc.model.Vending com.mycompany.vendingmachinemvc.controller.AddItemController.createItem(com.mycompany.vendingmachinemvc.model.Vending)
19-Nov-2015 08:53:09.648 INFO [localhost-startStop-1] org.springframework.web.servlet.mvc.method.annotation.RequestMappingHandlerMapping.registerHandlerMethod Mapped "{[/additem],methods=[GET],params=[],headers=[],consumes=[],produces=[],custom=[]}" onto public java.lang.String com.mycompany.vendingmachinemvc.controller.AddItemController.displayHomePage()
19-Nov-2015 08:53:09.650 INFO [localhost-startStop-1] org.springframework.web.servlet.mvc.method.annotation.RequestMappingHandlerMapping.registerHandlerMethod Mapped "{[/vending/{id}],methods=[PUT],params=[],headers=[],consumes=[],produces=[],custom=[]}" onto public void com.mycompany.vendingmachinemvc.controller.HomeController.putVending(int,com.mycompany.vendingmachinemvc.model.Vending)
19-Nov-2015 08:53:09.650 INFO [localhost-startStop-1] org.springframework.web.servlet.mvc.method.annotation.RequestMappingHandlerMapping.registerHandlerMethod Mapped "{[/vendings],methods=[GET],params=[],headers=[],consumes=[],produces=[],custom=[]}" onto public java.util.List<com.mycompany.vendingmachinemvc.model.Vending> com.mycompany.vendingmachinemvc.controller.HomeController.getAllItems()
19-Nov-2015 08:53:09.651 INFO [localhost-startStop-1] org.springframework.web.servlet.mvc.method.annotation.RequestMappingHandlerMapping.registerHandlerMethod Mapped "{[/vending/{id}],methods=[GET],params=[],headers=[],consumes=[],produces=[],custom=[]}" onto public com.mycompany.vendingmachinemvc.model.Vending com.mycompany.vendingmachinemvc.controller.HomeController.getVending(int)
19-Nov-2015 08:53:09.651 INFO [localhost-startStop-1] org.springframework.web.servlet.mvc.method.annotation.RequestMappingHandlerMapping.registerHandlerMethod Mapped "{[/ || /home],methods=[GET],params=[],headers=[],consumes=[],produces=[],custom=[]}" onto public java.lang.String com.mycompany.vendingmachinemvc.controller.HomeController.displayHomePage()
19-Nov-2015 08:53:09.688 INFO [localhost-startStop-1] org.hibernate.validator.internal.util.Version.<clinit> HV000001: Hibernate Validator 5.1.0.Final
19-Nov-2015 08:53:10.073 INFO [localhost-startStop-1] org.springframework.web.servlet.mvc.method.annotation.ExceptionHandlerExceptionResolver.initExceptionHandlerAdviceCache Detected @ExceptionHandler methods in restValidationHandler
19-Nov-2015 08:53:10.320 INFO [localhost-startStop-1] org.springframework.web.context.ContextLoader.initWebApplicationContext Root WebApplicationContext: initialization completed in 1497 ms
19-Nov-2015 08:53:10.329 INFO [localhost-startStop-1] org.apache.catalina.startup.HostConfig.deployDescriptor Deployment of configuration descriptor /home/apprentice/Desktop/Bitbucket/csp-repository-sh/apache-tomcat-8.0.27/conf/Catalina/localhost/VendingMachineMVC.xml has finished in 2,996 ms
19-Nov-2015 08:53:10.329 INFO [localhost-startStop-1] org.apache.catalina.startup.HostConfig.deployDescriptor Deploying configuration descriptor /home/apprentice/Desktop/Bitbucket/csp-repository-sh/apache-tomcat-8.0.27/conf/Catalina/localhost/UnitConverter.xml
19-Nov-2015 08:53:10.336 WARNING [localhost-startStop-1] org.apache.catalina.startup.SetContextPropertiesRule.begin [SetContextPropertiesRule]{Context} Setting property 'antiJARLocking' to 'true' did not find a matching property.
19-Nov-2015 08:53:10.355 INFO [localhost-startStop-1] org.apache.catalina.startup.HostConfig.deployDescriptor Deployment of configuration descriptor /home/apprentice/Desktop/Bitbucket/csp-repository-sh/apache-tomcat-8.0.27/conf/Catalina/localhost/UnitConverter.xml has finished in 25 ms
19-Nov-2015 08:53:10.355 INFO [localhost-startStop-1] org.apache.catalina.startup.HostConfig.deployDescriptor Deploying configuration descriptor /home/apprentice/Desktop/Bitbucket/csp-repository-sh/apache-tomcat-8.0.27/conf/Catalina/localhost/CapstoneProject.xml
19-Nov-2015 08:53:10.358 WARNING [localhost-startStop-1] org.apache.catalina.startup.SetContextPropertiesRule.begin [SetContextPropertiesRule]{Context} Setting property 'antiJARLocking' to 'true' did not find a matching property.
19-Nov-2015 08:53:11.069 INFO [localhost-startStop-1] org.apache.jasper.servlet.TldScanner.scanJars At least one JAR was scanned for TLDs yet contained no TLDs. Enable debug logging for this logger for a complete list of JARs that were scanned but no TLDs were found in them. Skipping unneeded JARs during scanning can improve startup time and JSP compilation time.
19-Nov-2015 08:53:11.095 INFO [localhost-startStop-1] org.springframework.web.context.ContextLoader.initWebApplicationContext Root WebApplicationContext: initialization started
19-Nov-2015 08:53:11.207 INFO [localhost-startStop-1] org.springframework.web.context.support.XmlWebApplicationContext.prepareRefresh Refreshing Root WebApplicationContext: startup date [Thu Nov 19 08:53:11 CST 2015]; root of context hierarchy
19-Nov-2015 08:53:11.272 INFO [localhost-startStop-1] org.springframework.beans.factory.xml.XmlBeanDefinitionReader.loadBeanDefinitions Loading XML bean definitions from ServletContext resource [/WEB-INF/spring-dispatcher-servlet.xml]
19-Nov-2015 08:53:11.513 INFO [localhost-startStop-1] org.springframework.beans.factory.xml.XmlBeanDefinitionReader.loadBeanDefinitions Loading XML bean definitions from ServletContext resource [/WEB-INF/spring-security.xml]
19-Nov-2015 08:53:11.545 INFO [localhost-startStop-1] org.springframework.security.core.SpringSecurityCoreVersion.<clinit> You are running with Spring Security Core 3.1.4.RELEASE
19-Nov-2015 08:53:11.545 SEVERE [localhost-startStop-1] org.springframework.security.core.SpringSecurityCoreVersion.<clinit> *** Spring Major version '3' expected, but you are running with version: 4.0.3.RELEASE. Please check your classpath for unwanted jar files.
19-Nov-2015 08:53:11.545 INFO [localhost-startStop-1] org.springframework.security.config.SecurityNamespaceHandler.<init> Spring Security 'config' module version is 3.1.4.RELEASE
19-Nov-2015 08:53:11.620 INFO [localhost-startStop-1] org.springframework.security.config.http.HttpSecurityBeanDefinitionParser.checkFilterChainOrder Checking sorted filter chain: [Root bean: class [org.springframework.security.web.context.SecurityContextPersistenceFilter]; scope=; abstract=false; lazyInit=false; autowireMode=0; dependencyCheck=0; autowireCandidate=true; primary=false; factoryBeanName=null; factoryMethodName=null; initMethodName=null; destroyMethodName=null, order = 200, Root bean: class [org.springframework.security.web.authentication.logout.LogoutFilter]; scope=; abstract=false; lazyInit=false; autowireMode=0; dependencyCheck=0; autowireCandidate=true; primary=false; factoryBeanName=null; factoryMethodName=null; initMethodName=null; destroyMethodName=null, order = 400, <org.springframework.security.web.authentication.UsernamePasswordAuthenticationFilter#0>, order = 800, Root bean: class [org.springframework.security.web.authentication.www.BasicAuthenticationFilter]; scope=; abstract=false; lazyInit=false; autowireMode=0; dependencyCheck=0; autowireCandidate=true; primary=false; factoryBeanName=null; factoryMethodName=null; initMethodName=null; destroyMethodName=null, order = 1200, Root bean: class [org.springframework.security.web.savedrequest.RequestCacheAwareFilter]; scope=; abstract=false; lazyInit=false; autowireMode=0; dependencyCheck=0; autowireCandidate=true; primary=false; factoryBeanName=null; factoryMethodName=null; initMethodName=null; destroyMethodName=null, order = 1300, Root bean: class [org.springframework.security.web.servletapi.SecurityContextHolderAwareRequestFilter]; scope=; abstract=false; lazyInit=false; autowireMode=0; dependencyCheck=0; autowireCandidate=true; primary=false; factoryBeanName=null; factoryMethodName=null; initMethodName=null; destroyMethodName=null, order = 1400, Root bean: class [org.springframework.security.web.authentication.AnonymousAuthenticationFilter]; scope=; abstract=false; lazyInit=false; autowireMode=0; dependencyCheck=0; autowireCandidate=true; primary=false; factoryBeanName=null; factoryMethodName=null; initMethodName=null; destroyMethodName=null, order = 1700, Root bean: class [org.springframework.security.web.session.SessionManagementFilter]; scope=; abstract=false; lazyInit=false; autowireMode=0; dependencyCheck=0; autowireCandidate=true; primary=false; factoryBeanName=null; factoryMethodName=null; initMethodName=null; destroyMethodName=null, order = 1800, Root bean: class [org.springframework.security.web.access.ExceptionTranslationFilter]; scope=; abstract=false; lazyInit=false; autowireMode=0; dependencyCheck=0; autowireCandidate=true; primary=false; factoryBeanName=null; factoryMethodName=null; initMethodName=null; destroyMethodName=null, order = 1900, <org.springframework.security.web.access.intercept.FilterSecurityInterceptor#0>, order = 2000]
19-Nov-2015 08:53:11.627 INFO [localhost-startStop-1] org.springframework.beans.factory.xml.XmlBeanDefinitionReader.loadBeanDefinitions Loading XML bean definitions from class path resource [spring-persistence.xml]
19-Nov-2015 08:53:11.867 INFO [localhost-startStop-1] org.springframework.beans.factory.annotation.AutowiredAnnotationBeanPostProcessor.<init> JSR-330 'javax.inject.Inject' annotation found and supported for autowiring
19-Nov-2015 08:53:12.109 INFO [localhost-startStop-1] org.springframework.web.servlet.mvc.method.annotation.RequestMappingHandlerMapping.registerHandlerMethod Mapped "{[/contact],methods=[GET],params=[],headers=[],consumes=[],produces=[],custom=[]}" onto public java.lang.String com.swcguild.capstoneproject.controller.ContactController.displayContactPage()
19-Nov-2015 08:53:12.110 INFO [localhost-startStop-1] org.springframework.web.servlet.mvc.method.annotation.RequestMappingHandlerMapping.registerHandlerMethod Mapped "{[/ || /home],methods=[GET],params=[],headers=[],consumes=[],produces=[],custom=[]}" onto public java.lang.String com.swcguild.capstoneproject.controller.HomeController.displayHomePage()
19-Nov-2015 08:53:12.117 INFO [localhost-startStop-1] org.springframework.web.servlet.mvc.method.annotation.RequestMappingHandlerMapping.registerHandlerMethod Mapped "{[/activepins],methods=[GET],params=[],headers=[],consumes=[],produces=[],custom=[]}" onto public java.util.List<com.swcguild.capstoneproject.model.PinPost> com.swcguild.capstoneproject.controller.PinnedPostController.getActivePinPosts()
19-Nov-2015 08:53:12.117 INFO [localhost-startStop-1] org.springframework.web.servlet.mvc.method.annotation.RequestMappingHandlerMapping.registerHandlerMethod Mapped "{[/pinpost/{id}],methods=[PATCH],params=[],headers=[],consumes=[],produces=[],custom=[]}" onto public void com.swcguild.capstoneproject.controller.PinnedPostController.publishPinPost(int,com.swcguild.capstoneproject.model.PinPost)
19-Nov-2015 08:53:12.117 INFO [localhost-startStop-1] org.springframework.web.servlet.mvc.method.annotation.RequestMappingHandlerMapping.registerHandlerMethod Mapped "{[/pinned],methods=[GET],params=[],headers=[],consumes=[],produces=[],custom=[]}" onto public java.lang.String com.swcguild.capstoneproject.controller.PinnedPostController.displayPinnedPage()
19-Nov-2015 08:53:12.118 INFO [localhost-startStop-1] org.springframework.web.servlet.mvc.method.annotation.RequestMappingHandlerMapping.registerHandlerMethod Mapped "{[/pinpost],methods=[POST],params=[],headers=[],consumes=[],produces=[],custom=[]}" onto public com.swcguild.capstoneproject.model.PinPost com.swcguild.capstoneproject.controller.PinnedPostController.createPinPost(com.swcguild.capstoneproject.model.PinPost)
19-Nov-2015 08:53:12.118 INFO [localhost-startStop-1] org.springframework.web.servlet.mvc.method.annotation.RequestMappingHandlerMapping.registerHandlerMethod Mapped "{[/pinpost/{id}],methods=[GET],params=[],headers=[],consumes=[],produces=[],custom=[]}" onto public com.swcguild.capstoneproject.model.PinPost com.swcguild.capstoneproject.controller.PinnedPostController.getPinPost(int)
19-Nov-2015 08:53:12.118 INFO [localhost-startStop-1] org.springframework.web.servlet.mvc.method.annotation.RequestMappingHandlerMapping.registerHandlerMethod Mapped "{[/pinpost/{id}],methods=[DELETE],params=[],headers=[],consumes=[],produces=[],custom=[]}" onto public void com.swcguild.capstoneproject.controller.PinnedPostController.deletePinPost(int)
19-Nov-2015 08:53:12.118 INFO [localhost-startStop-1] org.springframework.web.servlet.mvc.method.annotation.RequestMappingHandlerMapping.registerHandlerMethod Mapped "{[/pinpost/{id}],methods=[PUT],params=[],headers=[],consumes=[],produces=[],custom=[]}" onto public void com.swcguild.capstoneproject.controller.PinnedPostController.putPost(int,com.swcguild.capstoneproject.model.PinPost)
19-Nov-2015 08:53:12.119 INFO [localhost-startStop-1] org.springframework.web.servlet.mvc.method.annotation.RequestMappingHandlerMapping.registerHandlerMethod Mapped "{[/pinposts],methods=[GET],params=[],headers=[],consumes=[],produces=[],custom=[]}" onto public java.util.List<com.swcguild.capstoneproject.model.PinPost> com.swcguild.capstoneproject.controller.PinnedPostController.getAllPinPosts()
19-Nov-2015 08:53:12.119 INFO [localhost-startStop-1] org.springframework.web.servlet.mvc.method.annotation.RequestMappingHandlerMapping.registerHandlerMethod Mapped "{[/login],methods=[GET],params=[],headers=[],consumes=[],produces=[],custom=[]}" onto public java.lang.String com.swcguild.capstoneproject.controller.LoginController.showLoginForm()
19-Nov-2015 08:53:12.120 INFO [localhost-startStop-1] org.springframework.web.servlet.mvc.method.annotation.RequestMappingHandlerMapping.registerHandlerMethod Mapped "{[/disclaimer],methods=[GET],params=[],headers=[],consumes=[],produces=[],custom=[]}" onto public java.lang.String com.swcguild.capstoneproject.controller.DisclaimerController.displayDisclaimerPage()
19-Nov-2015 08:53:12.124 INFO [localhost-startStop-1] org.springframework.web.servlet.mvc.method.annotation.RequestMappingHandlerMapping.registerHandlerMethod Mapped "{[/admin],methods=[GET],params=[],headers=[],consumes=[],produces=[],custom=[]}" onto public java.lang.String com.swcguild.capstoneproject.controller.AdminController.displayAdminPage()
19-Nov-2015 08:53:12.124 INFO [localhost-startStop-1] org.springframework.web.servlet.mvc.method.annotation.RequestMappingHandlerMapping.registerHandlerMethod Mapped "{[/post/{id}],methods=[PUT],params=[],headers=[],consumes=[],produces=[],custom=[]}" onto public void com.swcguild.capstoneproject.controller.AdminController.putPost(int,com.swcguild.capstoneproject.model.Post)
19-Nov-2015 08:53:12.124 INFO [localhost-startStop-1] org.springframework.web.servlet.mvc.method.annotation.RequestMappingHandlerMapping.registerHandlerMethod Mapped "{[/post],methods=[POST],params=[],headers=[],consumes=[],produces=[],custom=[]}" onto public com.swcguild.capstoneproject.model.Post com.swcguild.capstoneproject.controller.AdminController.createPost(com.swcguild.capstoneproject.model.Post)
19-Nov-2015 08:53:12.124 INFO [localhost-startStop-1] org.springframework.web.servlet.mvc.method.annotation.RequestMappingHandlerMapping.registerHandlerMethod Mapped "{[/post/{id}],methods=[GET],params=[],headers=[],consumes=[],produces=[],custom=[]}" onto public com.swcguild.capstoneproject.model.Post com.swcguild.capstoneproject.controller.AdminController.getPost(int)
19-Nov-2015 08:53:12.125 INFO [localhost-startStop-1] org.springframework.web.servlet.mvc.method.annotation.RequestMappingHandlerMapping.registerHandlerMethod Mapped "{[/post/{id}],methods=[DELETE],params=[],headers=[],consumes=[],produces=[],custom=[]}" onto public void com.swcguild.capstoneproject.controller.AdminController.deletePost(int)
19-Nov-2015 08:53:12.125 INFO [localhost-startStop-1] org.springframework.web.servlet.mvc.method.annotation.RequestMappingHandlerMapping.registerHandlerMethod Mapped "{[/posts],methods=[GET],params=[],headers=[],consumes=[],produces=[],custom=[]}" onto public java.util.List<com.swcguild.capstoneproject.model.Post> com.swcguild.capstoneproject.controller.AdminController.getAllPosts()
19-Nov-2015 08:53:12.125 INFO [localhost-startStop-1] org.springframework.web.servlet.mvc.method.annotation.RequestMappingHandlerMapping.registerHandlerMethod Mapped "{[/activeposts],methods=[GET],params=[],headers=[],consumes=[],produces=[],custom=[]}" onto public java.util.List<com.swcguild.capstoneproject.model.Post> com.swcguild.capstoneproject.controller.AdminController.getActivePosts()
19-Nov-2015 08:53:12.125 INFO [localhost-startStop-1] org.springframework.web.servlet.mvc.method.annotation.RequestMappingHandlerMapping.registerHandlerMethod Mapped "{[/tag/{tag}],methods=[GET],params=[],headers=[],consumes=[],produces=[],custom=[]}" onto public java.util.List<com.swcguild.capstoneproject.model.Post> com.swcguild.capstoneproject.controller.AdminController.getSearchPosts(java.lang.String)
19-Nov-2015 08:53:12.126 INFO [localhost-startStop-1] org.springframework.web.servlet.mvc.method.annotation.RequestMappingHandlerMapping.registerHandlerMethod Mapped "{[/activetags],methods=[GET],params=[],headers=[],consumes=[],produces=[],custom=[]}" onto public java.util.List<com.swcguild.capstoneproject.model.Tag> com.swcguild.capstoneproject.controller.AdminController.getActiveTags()
19-Nov-2015 08:53:12.128 INFO [localhost-startStop-1] org.springframework.web.servlet.mvc.method.annotation.RequestMappingHandlerMapping.registerHandlerMethod Mapped "{[/post/{id}],methods=[PATCH],params=[],headers=[],consumes=[],produces=[],custom=[]}" onto public void com.swcguild.capstoneproject.controller.AdminController.publishPost(int,com.swcguild.capstoneproject.model.Post)
19-Nov-2015 08:53:12.128 INFO [localhost-startStop-1] org.springframework.web.servlet.mvc.method.annotation.RequestMappingHandlerMapping.registerHandlerMethod Mapped "{[/tags/{id}],methods=[GET],params=[],headers=[],consumes=[],produces=[],custom=[]}" onto public java.lang.String com.swcguild.capstoneproject.controller.AdminController.getTags(int)
19-Nov-2015 08:53:12.128 INFO [localhost-startStop-1] org.springframework.web.servlet.mvc.method.annotation.RequestMappingHandlerMapping.registerHandlerMethod Mapped "{[/alltags],methods=[GET],params=[],headers=[],consumes=[],produces=[],custom=[]}" onto public java.util.List<com.swcguild.capstoneproject.model.Tag> com.swcguild.capstoneproject.controller.AdminController.getTags()
19-Nov-2015 08:53:12.129 INFO [localhost-startStop-1] org.springframework.web.servlet.mvc.method.annotation.RequestMappingHandlerMapping.registerHandlerMethod Mapped "{[/about],methods=[GET],params=[],headers=[],consumes=[],produces=[],custom=[]}" onto public java.lang.String com.swcguild.capstoneproject.controller.AboutController.displayAboutPage()
19-Nov-2015 08:53:12.130 INFO [localhost-startStop-1] org.springframework.web.servlet.mvc.method.annotation.RequestMappingHandlerMapping.registerHandlerMethod Mapped "{[/employee],methods=[GET],params=[],headers=[],consumes=[],produces=[],custom=[]}" onto public java.lang.String com.swcguild.capstoneproject.controller.EmployeeController.displayEmployeePage()
19-Nov-2015 08:53:12.134 INFO [localhost-startStop-1] org.springframework.web.servlet.mvc.method.annotation.RequestMappingHandlerMapping.registerHandlerMethod Mapped "{[/error],methods=[],params=[],headers=[],consumes=[],produces=[],custom=[]}" onto public java.lang.String com.swcguild.capstoneproject.controller.ErrorController.customError(javax.servlet.http.HttpServletRequest,javax.servlet.http.HttpServletResponse,org.springframework.ui.Model)
19-Nov-2015 08:53:12.137 INFO [localhost-startStop-1] org.springframework.web.servlet.mvc.method.annotation.RequestMappingHandlerMapping.registerHandlerMethod Mapped "{[/user],methods=[POST],params=[],headers=[],consumes=[],produces=[],custom=[]}" onto public com.swcguild.capstoneproject.model.User com.swcguild.capstoneproject.controller.UserManagment.createNewUserForm(com.swcguild.capstoneproject.model.User)
19-Nov-2015 08:53:12.137 INFO [localhost-startStop-1] org.springframework.web.servlet.mvc.method.annotation.RequestMappingHandlerMapping.registerHandlerMethod Mapped "{[/authority],methods=[POST],params=[],headers=[],consumes=[],produces=[],custom=[]}" onto public com.swcguild.capstoneproject.model.Authority com.swcguild.capstoneproject.controller.UserManagment.createNewAuthority(com.swcguild.capstoneproject.model.Authority)
19-Nov-2015 08:53:12.138 INFO [localhost-startStop-1] org.springframework.web.servlet.mvc.method.annotation.RequestMappingHandlerMapping.registerHandlerMethod Mapped "{[/authority/{username}],methods=[DELETE],params=[],headers=[],consumes=[],produces=[],custom=[]}" onto public void com.swcguild.capstoneproject.controller.UserManagment.deleteAuthority(java.lang.String)
19-Nov-2015 08:53:12.138 INFO [localhost-startStop-1] org.springframework.web.servlet.mvc.method.annotation.RequestMappingHandlerMapping.registerHandlerMethod Mapped "{[/authority/{username}],methods=[GET],params=[],headers=[],consumes=[],produces=[],custom=[]}" onto public java.util.List<com.swcguild.capstoneproject.model.Authority> com.swcguild.capstoneproject.controller.UserManagment.getAuthorities(java.lang.String)
19-Nov-2015 08:53:12.138 INFO [localhost-startStop-1] org.springframework.web.servlet.mvc.method.annotation.RequestMappingHandlerMapping.registerHandlerMethod Mapped "{[/user/{id}],methods=[PUT],params=[],headers=[],consumes=[],produces=[],custom=[]}" onto public void com.swcguild.capstoneproject.controller.UserManagment.putUser(int,com.swcguild.capstoneproject.model.User)
19-Nov-2015 08:53:12.138 INFO [localhost-startStop-1] org.springframework.web.servlet.mvc.method.annotation.RequestMappingHandlerMapping.registerHandlerMethod Mapped "{[/user/{id}],methods=[GET],params=[],headers=[],consumes=[],produces=[],custom=[]}" onto public com.swcguild.capstoneproject.model.User com.swcguild.capstoneproject.controller.UserManagment.getUser(int)
19-Nov-2015 08:53:12.138 INFO [localhost-startStop-1] org.springframework.web.servlet.mvc.method.annotation.RequestMappingHandlerMapping.registerHandlerMethod Mapped "{[/user/{id}],methods=[DELETE],params=[],headers=[],consumes=[],produces=[],custom=[]}" onto public void com.swcguild.capstoneproject.controller.UserManagment.deleteUser(int)
19-Nov-2015 08:53:12.139 INFO [localhost-startStop-1] org.springframework.web.servlet.mvc.method.annotation.RequestMappingHandlerMapping.registerHandlerMethod Mapped "{[/users],methods=[GET],params=[],headers=[],consumes=[],produces=[],custom=[]}" onto public java.util.List<com.swcguild.capstoneproject.model.User> com.swcguild.capstoneproject.controller.UserManagment.getAllUsers()
19-Nov-2015 08:53:12.139 INFO [localhost-startStop-1] org.springframework.web.servlet.mvc.method.annotation.RequestMappingHandlerMapping.registerHandlerMethod Mapped "{[/userManagement],methods=[GET],params=[],headers=[],consumes=[],produces=[],custom=[]}" onto public java.lang.String com.swcguild.capstoneproject.controller.UserManagment.displayCreateNewUserPage()
19-Nov-2015 08:53:12.222 INFO [localhost-startStop-1] org.hibernate.validator.internal.util.Version.<clinit> HV000001: Hibernate Validator 5.1.0.Final
19-Nov-2015 08:53:12.682 INFO [localhost-startStop-1] org.springframework.web.servlet.mvc.method.annotation.ExceptionHandlerExceptionResolver.initExceptionHandlerAdviceCache Detected @ExceptionHandler methods in restValidationHandler
19-Nov-2015 08:53:12.870 INFO [localhost-startStop-1] org.springframework.security.web.DefaultSecurityFilterChain.<init> Creating filter chain: Ant [pattern='/login'], []
19-Nov-2015 08:53:12.873 INFO [localhost-startStop-1] org.springframework.security.web.DefaultSecurityFilterChain.<init> Creating filter chain: Ant [pattern='/home'], []
19-Nov-2015 08:53:12.875 INFO [localhost-startStop-1] org.springframework.security.web.DefaultSecurityFilterChain.<init> Creating filter chain: Ant [pattern='/css/**'], []
19-Nov-2015 08:53:12.877 INFO [localhost-startStop-1] org.springframework.security.web.DefaultSecurityFilterChain.<init> Creating filter chain: Ant [pattern='/js/**'], []
19-Nov-2015 08:53:12.879 INFO [localhost-startStop-1] org.springframework.security.web.DefaultSecurityFilterChain.<init> Creating filter chain: Ant [pattern='/img/**'], []
19-Nov-2015 08:53:12.953 INFO [localhost-startStop-1] org.springframework.security.provisioning.JdbcUserDetailsManager.initDao No authentication manager set. Reauthentication of users when changing passwords will not be performed.
19-Nov-2015 08:53:13.101 INFO [localhost-startStop-1] org.springframework.security.web.DefaultSecurityFilterChain.<init> Creating filter chain: org.springframework.security.web.util.AnyRequestMatcher@1, [org.springframework.security.web.context.SecurityContextPersistenceFilter@625ce38a, org.springframework.security.web.authentication.logout.LogoutFilter@7613fc90, org.springframework.security.web.authentication.UsernamePasswordAuthenticationFilter@b092148, org.springframework.security.web.authentication.www.BasicAuthenticationFilter@536478dc, org.springframework.security.web.savedrequest.RequestCacheAwareFilter@56a19189, org.springframework.security.web.servletapi.SecurityContextHolderAwareRequestFilter@3f3f10b1, org.springframework.security.web.authentication.AnonymousAuthenticationFilter@7d7e757f, org.springframework.security.web.session.SessionManagementFilter@d2c4094, org.springframework.security.web.access.ExceptionTranslationFilter@575ba561, org.springframework.security.web.access.intercept.FilterSecurityInterceptor@10269da3]
19-Nov-2015 08:53:13.114 INFO [localhost-startStop-1] org.springframework.security.config.http.DefaultFilterChainValidator.checkLoginPageIsntProtected Checking whether login URL '/login' is accessible with your configuration
19-Nov-2015 08:53:13.145 INFO [localhost-startStop-1] org.springframework.web.context.ContextLoader.initWebApplicationContext Root WebApplicationContext: initialization completed in 2050 ms
19-Nov-2015 08:53:13.158 INFO [localhost-startStop-1] org.apache.catalina.startup.HostConfig.deployDescriptor Deployment of configuration descriptor /home/apprentice/Desktop/Bitbucket/csp-repository-sh/apache-tomcat-8.0.27/conf/Catalina/localhost/CapstoneProject.xml has finished in 2,803 ms
19-Nov-2015 08:53:13.158 INFO [localhost-startStop-1] org.apache.catalina.startup.HostConfig.deployDescriptor Deploying configuration descriptor /home/apprentice/Desktop/Bitbucket/csp-repository-sh/apache-tomcat-8.0.27/conf/Catalina/localhost/LuckySevenJSP.xml
19-Nov-2015 08:53:13.166 WARNING [localhost-startStop-1] org.apache.catalina.startup.SetContextPropertiesRule.begin [SetContextPropertiesRule]{Context} Setting property 'antiJARLocking' to 'true' did not find a matching property.
19-Nov-2015 08:53:13.225 INFO [localhost-startStop-1] org.apache.catalina.startup.HostConfig.deployDescriptor Deployment of configuration descriptor /home/apprentice/Desktop/Bitbucket/csp-repository-sh/apache-tomcat-8.0.27/conf/Catalina/localhost/LuckySevenJSP.xml has finished in 66 ms
19-Nov-2015 08:53:13.225 INFO [localhost-startStop-1] org.apache.catalina.startup.HostConfig.deployDescriptor Deploying configuration descriptor /home/apprentice/Desktop/Bitbucket/csp-repository-sh/apache-tomcat-8.0.27/conf/Catalina/localhost/SiteMapJSP.xml
19-Nov-2015 08:53:13.231 WARNING [localhost-startStop-1] org.apache.catalina.startup.SetContextPropertiesRule.begin [SetContextPropertiesRule]{Context} Setting property 'antiJARLocking' to 'true' did not find a matching property.
19-Nov-2015 08:53:13.275 INFO [localhost-startStop-1] org.apache.catalina.startup.HostConfig.deployDescriptor Deployment of configuration descriptor /home/apprentice/Desktop/Bitbucket/csp-repository-sh/apache-tomcat-8.0.27/conf/Catalina/localhost/SiteMapJSP.xml has finished in 50 ms
19-Nov-2015 08:53:13.275 INFO [localhost-startStop-1] org.apache.catalina.startup.HostConfig.deployDescriptor Deploying configuration descriptor /home/apprentice/Desktop/Bitbucket/csp-repository-sh/apache-tomcat-8.0.27/conf/Catalina/localhost/DVDMvc.xml
19-Nov-2015 08:53:13.285 WARNING [localhost-startStop-1] org.apache.catalina.startup.SetContextPropertiesRule.begin [SetContextPropertiesRule]{Context} Setting property 'antiJARLocking' to 'true' did not find a matching property.
19-Nov-2015 08:53:13.951 INFO [localhost-startStop-1] org.apache.jasper.servlet.TldScanner.scanJars At least one JAR was scanned for TLDs yet contained no TLDs. Enable debug logging for this logger for a complete list of JARs that were scanned but no TLDs were found in them. Skipping unneeded JARs during scanning can improve startup time and JSP compilation time.
19-Nov-2015 08:53:13.972 INFO [localhost-startStop-1] org.springframework.web.context.ContextLoader.initWebApplicationContext Root WebApplicationContext: initialization started
19-Nov-2015 08:53:14.055 INFO [localhost-startStop-1] org.springframework.web.context.support.XmlWebApplicationContext.prepareRefresh Refreshing Root WebApplicationContext: startup date [Thu Nov 19 08:53:14 CST 2015]; root of context hierarchy
19-Nov-2015 08:53:14.104 INFO [localhost-startStop-1] org.springframework.beans.factory.xml.XmlBeanDefinitionReader.loadBeanDefinitions Loading XML bean definitions from ServletContext resource [/WEB-INF/spring-dispatcher-servlet.xml]
19-Nov-2015 08:53:14.271 INFO [localhost-startStop-1] org.springframework.beans.factory.xml.XmlBeanDefinitionReader.loadBeanDefinitions Loading XML bean definitions from class path resource [spring-persistence.xml]
19-Nov-2015 08:53:14.412 INFO [localhost-startStop-1] org.springframework.beans.factory.annotation.AutowiredAnnotationBeanPostProcessor.<init> JSR-330 'javax.inject.Inject' annotation found and supported for autowiring
19-Nov-2015 08:53:14.614 INFO [localhost-startStop-1] org.hibernate.validator.internal.util.Version.<clinit> HV000001: Hibernate Validator 5.1.0.Final
19-Nov-2015 08:53:15.006 INFO [localhost-startStop-1] org.springframework.web.context.ContextLoader.initWebApplicationContext Root WebApplicationContext: initialization completed in 1034 ms
19-Nov-2015 08:53:15.019 INFO [localhost-startStop-1] org.apache.catalina.startup.HostConfig.deployDescriptor Deployment of configuration descriptor /home/apprentice/Desktop/Bitbucket/csp-repository-sh/apache-tomcat-8.0.27/conf/Catalina/localhost/DVDMvc.xml has finished in 1,744 ms
19-Nov-2015 08:53:15.019 INFO [localhost-startStop-1] org.apache.catalina.startup.HostConfig.deployDescriptor Deploying configuration descriptor /home/apprentice/Desktop/Bitbucket/csp-repository-sh/apache-tomcat-8.0.27/conf/Catalina/localhost/FlooringCalculatorJSP.xml
19-Nov-2015 08:53:15.096 WARNING [localhost-startStop-1] org.apache.catalina.startup.SetContextPropertiesRule.begin [SetContextPropertiesRule]{Context} Setting property 'antiJARLocking' to 'true' did not find a matching property.
19-Nov-2015 08:53:15.131 INFO [localhost-startStop-1] org.apache.catalina.startup.HostConfig.deployDescriptor Deployment of configuration descriptor /home/apprentice/Desktop/Bitbucket/csp-repository-sh/apache-tomcat-8.0.27/conf/Catalina/localhost/FlooringCalculatorJSP.xml has finished in 112 ms
19-Nov-2015 08:53:15.131 INFO [localhost-startStop-1] org.apache.catalina.startup.HostConfig.deployDescriptor Deploying configuration descriptor /home/apprentice/Desktop/Bitbucket/csp-repository-sh/apache-tomcat-8.0.27/conf/Catalina/localhost/TipCalculatorJSP.xml
19-Nov-2015 08:53:15.144 WARNING [localhost-startStop-1] org.apache.catalina.startup.SetContextPropertiesRule.begin [SetContextPropertiesRule]{Context} Setting property 'antiJARLocking' to 'true' did not find a matching property.
19-Nov-2015 08:53:15.182 INFO [localhost-startStop-1] org.apache.catalina.startup.HostConfig.deployDescriptor Deployment of configuration descriptor /home/apprentice/Desktop/Bitbucket/csp-repository-sh/apache-tomcat-8.0.27/conf/Catalina/localhost/TipCalculatorJSP.xml has finished in 51 ms
19-Nov-2015 08:53:15.182 INFO [localhost-startStop-1] org.apache.catalina.startup.HostConfig.deployDescriptor Deploying configuration descriptor /home/apprentice/Desktop/Bitbucket/csp-repository-sh/apache-tomcat-8.0.27/conf/Catalina/localhost/FactorizerJSP.xml
19-Nov-2015 08:53:15.193 WARNING [localhost-startStop-1] org.apache.catalina.startup.SetContextPropertiesRule.begin [SetContextPropertiesRule]{Context} Setting property 'antiJARLocking' to 'true' did not find a matching property.
19-Nov-2015 08:53:15.233 INFO [localhost-startStop-1] org.apache.catalina.startup.HostConfig.deployDescriptor Deployment of configuration descriptor /home/apprentice/Desktop/Bitbucket/csp-repository-sh/apache-tomcat-8.0.27/conf/Catalina/localhost/FactorizerJSP.xml has finished in 51 ms
19-Nov-2015 08:53:15.233 INFO [localhost-startStop-1] org.apache.catalina.startup.HostConfig.deployDescriptor Deploying configuration descriptor /home/apprentice/Desktop/Bitbucket/csp-repository-sh/apache-tomcat-8.0.27/conf/Catalina/localhost/InterestCalculatorJSP.xml
19-Nov-2015 08:53:15.242 WARNING [localhost-startStop-1] org.apache.catalina.startup.SetContextPropertiesRule.begin [SetContextPropertiesRule]{Context} Setting property 'antiJARLocking' to 'true' did not find a matching property.
19-Nov-2015 08:53:15.273 INFO [localhost-startStop-1] org.apache.catalina.startup.HostConfig.deployDescriptor Deployment of configuration descriptor /home/apprentice/Desktop/Bitbucket/csp-repository-sh/apache-tomcat-8.0.27/conf/Catalina/localhost/InterestCalculatorJSP.xml has finished in 40 ms
19-Nov-2015 08:53:15.285 INFO [localhost-startStop-1] org.apache.catalina.startup.HostConfig.deployDirectory Deploying web application directory /home/apprentice/Desktop/Bitbucket/csp-repository-sh/apache-tomcat-8.0.27/webapps/host-manager
19-Nov-2015 08:53:15.340 INFO [localhost-startStop-1] org.apache.catalina.startup.HostConfig.deployDirectory Deployment of web application directory /home/apprentice/Desktop/Bitbucket/csp-repository-sh/apache-tomcat-8.0.27/webapps/host-manager has finished in 55 ms
19-Nov-2015 08:53:15.341 INFO [localhost-startStop-1] org.apache.catalina.startup.HostConfig.deployDirectory Deploying web application directory /home/apprentice/Desktop/Bitbucket/csp-repository-sh/apache-tomcat-8.0.27/webapps/docs
19-Nov-2015 08:53:15.378 INFO [localhost-startStop-1] org.apache.catalina.startup.HostConfig.deployDirectory Deployment of web application directory /home/apprentice/Desktop/Bitbucket/csp-repository-sh/apache-tomcat-8.0.27/webapps/docs has finished in 37 ms
19-Nov-2015 08:53:15.378 INFO [localhost-startStop-1] org.apache.catalina.startup.HostConfig.deployDirectory Deploying web application directory /home/apprentice/Desktop/Bitbucket/csp-repository-sh/apache-tomcat-8.0.27/webapps/ROOT
19-Nov-2015 08:53:15.395 INFO [localhost-startStop-1] org.apache.catalina.startup.HostConfig.deployDirectory Deployment of web application directory /home/apprentice/Desktop/Bitbucket/csp-repository-sh/apache-tomcat-8.0.27/webapps/ROOT has finished in 17 ms
19-Nov-2015 08:53:15.397 INFO [localhost-startStop-1] org.apache.catalina.startup.HostConfig.deployDirectory Deploying web application directory /home/apprentice/Desktop/Bitbucket/csp-repository-sh/apache-tomcat-8.0.27/webapps/manager
19-Nov-2015 08:53:15.454 INFO [localhost-startStop-1] org.apache.catalina.startup.HostConfig.deployDirectory Deployment of web application directory /home/apprentice/Desktop/Bitbucket/csp-repository-sh/apache-tomcat-8.0.27/webapps/manager has finished in 56 ms
19-Nov-2015 08:53:15.455 INFO [localhost-startStop-1] org.apache.catalina.startup.HostConfig.deployDirectory Deploying web application directory /home/apprentice/Desktop/Bitbucket/csp-repository-sh/apache-tomcat-8.0.27/webapps/examples
19-Nov-2015 08:53:15.682 INFO [localhost-startStop-1] org.apache.catalina.startup.HostConfig.deployDirectory Deployment of web application directory /home/apprentice/Desktop/Bitbucket/csp-repository-sh/apache-tomcat-8.0.27/webapps/examples has finished in 228 ms
19-Nov-2015 08:53:15.683 INFO [localhost-startStop-1] org.apache.catalina.startup.HostConfig.deployDirectory Deploying web application directory /home/apprentice/Desktop/Bitbucket/csp-repository-sh/apache-tomcat-8.0.27/webapps/JSPTutorials
19-Nov-2015 08:53:15.729 INFO [localhost-startStop-1] org.apache.catalina.startup.HostConfig.deployDirectory Deployment of web application directory /home/apprentice/Desktop/Bitbucket/csp-repository-sh/apache-tomcat-8.0.27/webapps/JSPTutorials has finished in 45 ms
19-Nov-2015 08:53:15.730 INFO [localhost-startStop-1] org.apache.catalina.startup.HostConfig.deployDirectory Deploying web application directory /home/apprentice/Desktop/Bitbucket/csp-repository-sh/apache-tomcat-8.0.27/webapps/BootstrapLab1
19-Nov-2015 08:53:15.763 INFO [localhost-startStop-1] org.apache.catalina.startup.HostConfig.deployDirectory Deployment of web application directory /home/apprentice/Desktop/Bitbucket/csp-repository-sh/apache-tomcat-8.0.27/webapps/BootstrapLab1 has finished in 33 ms
19-Nov-2015 08:53:15.778 INFO [main] org.apache.coyote.AbstractProtocol.start Starting ProtocolHandler ["http-nio-8080"]
19-Nov-2015 08:53:15.805 INFO [main] org.apache.coyote.AbstractProtocol.start Starting ProtocolHandler ["ajp-nio-8009"]
19-Nov-2015 08:53:15.833 INFO [main] org.apache.catalina.startup.Catalina.start Server startup in 12131 ms
19-Nov-2015 08:53:16.768 INFO [http-nio-8080-exec-9] org.springframework.web.context.support.XmlWebApplicationContext.doClose Closing Root WebApplicationContext: startup date [Thu Nov 19 08:53:11 CST 2015]; root of context hierarchy
19-Nov-2015 08:53:17.337 INFO [http-nio-8080-exec-9] org.apache.catalina.startup.HostConfig.undeploy Undeploying context [/CapstoneProject]
19-Nov-2015 08:53:17.382 INFO [http-nio-8080-exec-8] org.apache.catalina.startup.HostConfig.deployDescriptor Deploying configuration descriptor /home/apprentice/Desktop/Bitbucket/csp-repository-sh/apache-tomcat-8.0.27/conf/Catalina/localhost/CapstoneProject.xml
19-Nov-2015 08:53:17.391 WARNING [http-nio-8080-exec-8] org.apache.catalina.startup.SetContextPropertiesRule.begin [SetContextPropertiesRule]{Context} Setting property 'antiJARLocking' to 'true' did not find a matching property.
19-Nov-2015 08:53:18.209 INFO [http-nio-8080-exec-8] org.apache.jasper.servlet.TldScanner.scanJars At least one JAR was scanned for TLDs yet contained no TLDs. Enable debug logging for this logger for a complete list of JARs that were scanned but no TLDs were found in them. Skipping unneeded JARs during scanning can improve startup time and JSP compilation time.
19-Nov-2015 08:53:18.238 INFO [http-nio-8080-exec-8] org.springframework.web.context.ContextLoader.initWebApplicationContext Root WebApplicationContext: initialization started
19-Nov-2015 08:53:18.323 INFO [http-nio-8080-exec-8] org.springframework.web.context.support.XmlWebApplicationContext.prepareRefresh Refreshing Root WebApplicationContext: startup date [Thu Nov 19 08:53:18 CST 2015]; root of context hierarchy
19-Nov-2015 08:53:18.378 INFO [http-nio-8080-exec-8] org.springframework.beans.factory.xml.XmlBeanDefinitionReader.loadBeanDefinitions Loading XML bean definitions from ServletContext resource [/WEB-INF/spring-dispatcher-servlet.xml]
19-Nov-2015 08:53:18.639 INFO [http-nio-8080-exec-8] org.springframework.beans.factory.xml.XmlBeanDefinitionReader.loadBeanDefinitions Loading XML bean definitions from ServletContext resource [/WEB-INF/spring-security.xml]
19-Nov-2015 08:53:18.664 INFO [http-nio-8080-exec-8] org.springframework.security.core.SpringSecurityCoreVersion.<clinit> You are running with Spring Security Core 3.1.4.RELEASE
19-Nov-2015 08:53:18.664 SEVERE [http-nio-8080-exec-8] org.springframework.security.core.SpringSecurityCoreVersion.<clinit> *** Spring Major version '3' expected, but you are running with version: 4.0.3.RELEASE. Please check your classpath for unwanted jar files.
19-Nov-2015 08:53:18.664 INFO [http-nio-8080-exec-8] org.springframework.security.config.SecurityNamespaceHandler.<init> Spring Security 'config' module version is 3.1.4.RELEASE
19-Nov-2015 08:53:18.784 INFO [http-nio-8080-exec-8] org.springframework.security.config.http.HttpSecurityBeanDefinitionParser.checkFilterChainOrder Checking sorted filter chain: [Root bean: class [org.springframework.security.web.context.SecurityContextPersistenceFilter]; scope=; abstract=false; lazyInit=false; autowireMode=0; dependencyCheck=0; autowireCandidate=true; primary=false; factoryBeanName=null; factoryMethodName=null; initMethodName=null; destroyMethodName=null, order = 200, Root bean: class [org.springframework.security.web.authentication.logout.LogoutFilter]; scope=; abstract=false; lazyInit=false; autowireMode=0; dependencyCheck=0; autowireCandidate=true; primary=false; factoryBeanName=null; factoryMethodName=null; initMethodName=null; destroyMethodName=null, order = 400, <org.springframework.security.web.authentication.UsernamePasswordAuthenticationFilter#0>, order = 800, Root bean: class [org.springframework.security.web.authentication.www.BasicAuthenticationFilter]; scope=; abstract=false; lazyInit=false; autowireMode=0; dependencyCheck=0; autowireCandidate=true; primary=false; factoryBeanName=null; factoryMethodName=null; initMethodName=null; destroyMethodName=null, order = 1200, Root bean: class [org.springframework.security.web.savedrequest.RequestCacheAwareFilter]; scope=; abstract=false; lazyInit=false; autowireMode=0; dependencyCheck=0; autowireCandidate=true; primary=false; factoryBeanName=null; factoryMethodName=null; initMethodName=null; destroyMethodName=null, order = 1300, Root bean: class [org.springframework.security.web.servletapi.SecurityContextHolderAwareRequestFilter]; scope=; abstract=false; lazyInit=false; autowireMode=0; dependencyCheck=0; autowireCandidate=true; primary=false; factoryBeanName=null; factoryMethodName=null; initMethodName=null; destroyMethodName=null, order = 1400, Root bean: class [org.springframework.security.web.authentication.AnonymousAuthenticationFilter]; scope=; abstract=false; lazyInit=false; autowireMode=0; dependencyCheck=0; autowireCandidate=true; primary=false; factoryBeanName=null; factoryMethodName=null; initMethodName=null; destroyMethodName=null, order = 1700, Root bean: class [org.springframework.security.web.session.SessionManagementFilter]; scope=; abstract=false; lazyInit=false; autowireMode=0; dependencyCheck=0; autowireCandidate=true; primary=false; factoryBeanName=null; factoryMethodName=null; initMethodName=null; destroyMethodName=null, order = 1800, Root bean: class [org.springframework.security.web.access.ExceptionTranslationFilter]; scope=; abstract=false; lazyInit=false; autowireMode=0; dependencyCheck=0; autowireCandidate=true; primary=false; factoryBeanName=null; factoryMethodName=null; initMethodName=null; destroyMethodName=null, order = 1900, <org.springframework.security.web.access.intercept.FilterSecurityInterceptor#0>, order = 2000]
19-Nov-2015 08:53:18.794 INFO [http-nio-8080-exec-8] org.springframework.beans.factory.xml.XmlBeanDefinitionReader.loadBeanDefinitions Loading XML bean definitions from class path resource [spring-persistence.xml]
19-Nov-2015 08:53:19.067 INFO [http-nio-8080-exec-8] org.springframework.beans.factory.annotation.AutowiredAnnotationBeanPostProcessor.<init> JSR-330 'javax.inject.Inject' annotation found and supported for autowiring
19-Nov-2015 08:53:19.273 INFO [http-nio-8080-exec-8] org.springframework.web.servlet.mvc.method.annotation.RequestMappingHandlerMapping.registerHandlerMethod Mapped "{[/contact],methods=[GET],params=[],headers=[],consumes=[],produces=[],custom=[]}" onto public java.lang.String com.swcguild.capstoneproject.controller.ContactController.displayContactPage()
19-Nov-2015 08:53:19.276 INFO [http-nio-8080-exec-8] org.springframework.web.servlet.mvc.method.annotation.RequestMappingHandlerMapping.registerHandlerMethod Mapped "{[/ || /home],methods=[GET],params=[],headers=[],consumes=[],produces=[],custom=[]}" onto public java.lang.String com.swcguild.capstoneproject.controller.HomeController.displayHomePage()
19-Nov-2015 08:53:19.281 INFO [http-nio-8080-exec-8] org.springframework.web.servlet.mvc.method.annotation.RequestMappingHandlerMapping.registerHandlerMethod Mapped "{[/activepins],methods=[GET],params=[],headers=[],consumes=[],produces=[],custom=[]}" onto public java.util.List<com.swcguild.capstoneproject.model.PinPost> com.swcguild.capstoneproject.controller.PinnedPostController.getActivePinPosts()
19-Nov-2015 08:53:19.282 INFO [http-nio-8080-exec-8] org.springframework.web.servlet.mvc.method.annotation.RequestMappingHandlerMapping.registerHandlerMethod Mapped "{[/pinpost/{id}],methods=[PATCH],params=[],headers=[],consumes=[],produces=[],custom=[]}" onto public void com.swcguild.capstoneproject.controller.PinnedPostController.publishPinPost(int,com.swcguild.capstoneproject.model.PinPost)
19-Nov-2015 08:53:19.282 INFO [http-nio-8080-exec-8] org.springframework.web.servlet.mvc.method.annotation.RequestMappingHandlerMapping.registerHandlerMethod Mapped "{[/pinned],methods=[GET],params=[],headers=[],consumes=[],produces=[],custom=[]}" onto public java.lang.String com.swcguild.capstoneproject.controller.PinnedPostController.displayPinnedPage()
19-Nov-2015 08:53:19.282 INFO [http-nio-8080-exec-8] org.springframework.web.servlet.mvc.method.annotation.RequestMappingHandlerMapping.registerHandlerMethod Mapped "{[/pinpost],methods=[POST],params=[],headers=[],consumes=[],produces=[],custom=[]}" onto public com.swcguild.capstoneproject.model.PinPost com.swcguild.capstoneproject.controller.PinnedPostController.createPinPost(com.swcguild.capstoneproject.model.PinPost)
19-Nov-2015 08:53:19.283 INFO [http-nio-8080-exec-8] org.springframework.web.servlet.mvc.method.annotation.RequestMappingHandlerMapping.registerHandlerMethod Mapped "{[/pinpost/{id}],methods=[GET],params=[],headers=[],consumes=[],produces=[],custom=[]}" onto public com.swcguild.capstoneproject.model.PinPost com.swcguild.capstoneproject.controller.PinnedPostController.getPinPost(int)
19-Nov-2015 08:53:19.283 INFO [http-nio-8080-exec-8] org.springframework.web.servlet.mvc.method.annotation.RequestMappingHandlerMapping.registerHandlerMethod Mapped "{[/pinpost/{id}],methods=[DELETE],params=[],headers=[],consumes=[],produces=[],custom=[]}" onto public void com.swcguild.capstoneproject.controller.PinnedPostController.deletePinPost(int)
19-Nov-2015 08:53:19.283 INFO [http-nio-8080-exec-8] org.springframework.web.servlet.mvc.method.annotation.RequestMappingHandlerMapping.registerHandlerMethod Mapped "{[/pinpost/{id}],methods=[PUT],params=[],headers=[],consumes=[],produces=[],custom=[]}" onto public void com.swcguild.capstoneproject.controller.PinnedPostController.putPost(int,com.swcguild.capstoneproject.model.PinPost)
19-Nov-2015 08:53:19.284 INFO [http-nio-8080-exec-8] org.springframework.web.servlet.mvc.method.annotation.RequestMappingHandlerMapping.registerHandlerMethod Mapped "{[/pinposts],methods=[GET],params=[],headers=[],consumes=[],produces=[],custom=[]}" onto public java.util.List<com.swcguild.capstoneproject.model.PinPost> com.swcguild.capstoneproject.controller.PinnedPostController.getAllPinPosts()
19-Nov-2015 08:53:19.284 INFO [http-nio-8080-exec-8] org.springframework.web.servlet.mvc.method.annotation.RequestMappingHandlerMapping.registerHandlerMethod Mapped "{[/login],methods=[GET],params=[],headers=[],consumes=[],produces=[],custom=[]}" onto public java.lang.String com.swcguild.capstoneproject.controller.LoginController.showLoginForm()
19-Nov-2015 08:53:19.285 INFO [http-nio-8080-exec-8] org.springframework.web.servlet.mvc.method.annotation.RequestMappingHandlerMapping.registerHandlerMethod Mapped "{[/disclaimer],methods=[GET],params=[],headers=[],consumes=[],produces=[],custom=[]}" onto public java.lang.String com.swcguild.capstoneproject.controller.DisclaimerController.displayDisclaimerPage()
19-Nov-2015 08:53:19.288 INFO [http-nio-8080-exec-8] org.springframework.web.servlet.mvc.method.annotation.RequestMappingHandlerMapping.registerHandlerMethod Mapped "{[/admin],methods=[GET],params=[],headers=[],consumes=[],produces=[],custom=[]}" onto public java.lang.String com.swcguild.capstoneproject.controller.AdminController.displayAdminPage()
19-Nov-2015 08:53:19.288 INFO [http-nio-8080-exec-8] org.springframework.web.servlet.mvc.method.annotation.RequestMappingHandlerMapping.registerHandlerMethod Mapped "{[/post/{id}],methods=[PUT],params=[],headers=[],consumes=[],produces=[],custom=[]}" onto public void com.swcguild.capstoneproject.controller.AdminController.putPost(int,com.swcguild.capstoneproject.model.Post)
19-Nov-2015 08:53:19.289 INFO [http-nio-8080-exec-8] org.springframework.web.servlet.mvc.method.annotation.RequestMappingHandlerMapping.registerHandlerMethod Mapped "{[/post],methods=[POST],params=[],headers=[],consumes=[],produces=[],custom=[]}" onto public com.swcguild.capstoneproject.model.Post com.swcguild.capstoneproject.controller.AdminController.createPost(com.swcguild.capstoneproject.model.Post)
19-Nov-2015 08:53:19.289 INFO [http-nio-8080-exec-8] org.springframework.web.servlet.mvc.method.annotation.RequestMappingHandlerMapping.registerHandlerMethod Mapped "{[/post/{id}],methods=[GET],params=[],headers=[],consumes=[],produces=[],custom=[]}" onto public com.swcguild.capstoneproject.model.Post com.swcguild.capstoneproject.controller.AdminController.getPost(int)
19-Nov-2015 08:53:19.290 INFO [http-nio-8080-exec-8] org.springframework.web.servlet.mvc.method.annotation.RequestMappingHandlerMapping.registerHandlerMethod Mapped "{[/post/{id}],methods=[DELETE],params=[],headers=[],consumes=[],produces=[],custom=[]}" onto public void com.swcguild.capstoneproject.controller.AdminController.deletePost(int)
19-Nov-2015 08:53:19.290 INFO [http-nio-8080-exec-8] org.springframework.web.servlet.mvc.method.annotation.RequestMappingHandlerMapping.registerHandlerMethod Mapped "{[/posts],methods=[GET],params=[],headers=[],consumes=[],produces=[],custom=[]}" onto public java.util.List<com.swcguild.capstoneproject.model.Post> com.swcguild.capstoneproject.controller.AdminController.getAllPosts()
19-Nov-2015 08:53:19.290 INFO [http-nio-8080-exec-8] org.springframework.web.servlet.mvc.method.annotation.RequestMappingHandlerMapping.registerHandlerMethod Mapped "{[/activeposts],methods=[GET],params=[],headers=[],consumes=[],produces=[],custom=[]}" onto public java.util.List<com.swcguild.capstoneproject.model.Post> com.swcguild.capstoneproject.controller.AdminController.getActivePosts()
19-Nov-2015 08:53:19.291 INFO [http-nio-8080-exec-8] org.springframework.web.servlet.mvc.method.annotation.RequestMappingHandlerMapping.registerHandlerMethod Mapped "{[/tag/{tag}],methods=[GET],params=[],headers=[],consumes=[],produces=[],custom=[]}" onto public java.util.List<com.swcguild.capstoneproject.model.Post> com.swcguild.capstoneproject.controller.AdminController.getSearchPosts(java.lang.String)
19-Nov-2015 08:53:19.292 INFO [http-nio-8080-exec-8] org.springframework.web.servlet.mvc.method.annotation.RequestMappingHandlerMapping.registerHandlerMethod Mapped "{[/activetags],methods=[GET],params=[],headers=[],consumes=[],produces=[],custom=[]}" onto public java.util.List<com.swcguild.capstoneproject.model.Tag> com.swcguild.capstoneproject.controller.AdminController.getActiveTags()
19-Nov-2015 08:53:19.292 INFO [http-nio-8080-exec-8] org.springframework.web.servlet.mvc.method.annotation.RequestMappingHandlerMapping.registerHandlerMethod Mapped "{[/post/{id}],methods=[PATCH],params=[],headers=[],consumes=[],produces=[],custom=[]}" onto public void com.swcguild.capstoneproject.controller.AdminController.publishPost(int,com.swcguild.capstoneproject.model.Post)
19-Nov-2015 08:53:19.293 INFO [http-nio-8080-exec-8] org.springframework.web.servlet.mvc.method.annotation.RequestMappingHandlerMapping.registerHandlerMethod Mapped "{[/tags/{id}],methods=[GET],params=[],headers=[],consumes=[],produces=[],custom=[]}" onto public java.lang.String com.swcguild.capstoneproject.controller.AdminController.getTags(int)
19-Nov-2015 08:53:19.293 INFO [http-nio-8080-exec-8] org.springframework.web.servlet.mvc.method.annotation.RequestMappingHandlerMapping.registerHandlerMethod Mapped "{[/alltags],methods=[GET],params=[],headers=[],consumes=[],produces=[],custom=[]}" onto public java.util.List<com.swcguild.capstoneproject.model.Tag> com.swcguild.capstoneproject.controller.AdminController.getTags()
19-Nov-2015 08:53:19.294 INFO [http-nio-8080-exec-8] org.springframework.web.servlet.mvc.method.annotation.RequestMappingHandlerMapping.registerHandlerMethod Mapped "{[/about],methods=[GET],params=[],headers=[],consumes=[],produces=[],custom=[]}" onto public java.lang.String com.swcguild.capstoneproject.controller.AboutController.displayAboutPage()
19-Nov-2015 08:53:19.295 INFO [http-nio-8080-exec-8] org.springframework.web.servlet.mvc.method.annotation.RequestMappingHandlerMapping.registerHandlerMethod Mapped "{[/employee],methods=[GET],params=[],headers=[],consumes=[],produces=[],custom=[]}" onto public java.lang.String com.swcguild.capstoneproject.controller.EmployeeController.displayEmployeePage()
19-Nov-2015 08:53:19.296 INFO [http-nio-8080-exec-8] org.springframework.web.servlet.mvc.method.annotation.RequestMappingHandlerMapping.registerHandlerMethod Mapped "{[/error],methods=[],params=[],headers=[],consumes=[],produces=[],custom=[]}" onto public java.lang.String com.swcguild.capstoneproject.controller.ErrorController.customError(javax.servlet.http.HttpServletRequest,javax.servlet.http.HttpServletResponse,org.springframework.ui.Model)
19-Nov-2015 08:53:19.299 INFO [http-nio-8080-exec-8] org.springframework.web.servlet.mvc.method.annotation.RequestMappingHandlerMapping.registerHandlerMethod Mapped "{[/user],methods=[POST],params=[],headers=[],consumes=[],produces=[],custom=[]}" onto public com.swcguild.capstoneproject.model.User com.swcguild.capstoneproject.controller.UserManagment.createNewUserForm(com.swcguild.capstoneproject.model.User)
19-Nov-2015 08:53:19.300 INFO [http-nio-8080-exec-8] org.springframework.web.servlet.mvc.method.annotation.RequestMappingHandlerMapping.registerHandlerMethod Mapped "{[/authority],methods=[POST],params=[],headers=[],consumes=[],produces=[],custom=[]}" onto public com.swcguild.capstoneproject.model.Authority com.swcguild.capstoneproject.controller.UserManagment.createNewAuthority(com.swcguild.capstoneproject.model.Authority)
19-Nov-2015 08:53:19.300 INFO [http-nio-8080-exec-8] org.springframework.web.servlet.mvc.method.annotation.RequestMappingHandlerMapping.registerHandlerMethod Mapped "{[/authority/{username}],methods=[DELETE],params=[],headers=[],consumes=[],produces=[],custom=[]}" onto public void com.swcguild.capstoneproject.controller.UserManagment.deleteAuthority(java.lang.String)
19-Nov-2015 08:53:19.301 INFO [http-nio-8080-exec-8] org.springframework.web.servlet.mvc.method.annotation.RequestMappingHandlerMapping.registerHandlerMethod Mapped "{[/authority/{username}],methods=[GET],params=[],headers=[],consumes=[],produces=[],custom=[]}" onto public java.util.List<com.swcguild.capstoneproject.model.Authority> com.swcguild.capstoneproject.controller.UserManagment.getAuthorities(java.lang.String)
19-Nov-2015 08:53:19.302 INFO [http-nio-8080-exec-8] org.springframework.web.servlet.mvc.method.annotation.RequestMappingHandlerMapping.registerHandlerMethod Mapped "{[/user/{id}],methods=[PUT],params=[],headers=[],consumes=[],produces=[],custom=[]}" onto public void com.swcguild.capstoneproject.controller.UserManagment.putUser(int,com.swcguild.capstoneproject.model.User)
19-Nov-2015 08:53:19.302 INFO [http-nio-8080-exec-8] org.springframework.web.servlet.mvc.method.annotation.RequestMappingHandlerMapping.registerHandlerMethod Mapped "{[/user/{id}],methods=[GET],params=[],headers=[],consumes=[],produces=[],custom=[]}" onto public com.swcguild.capstoneproject.model.User com.swcguild.capstoneproject.controller.UserManagment.getUser(int)
19-Nov-2015 08:53:19.303 INFO [http-nio-8080-exec-8] org.springframework.web.servlet.mvc.method.annotation.RequestMappingHandlerMapping.registerHandlerMethod Mapped "{[/user/{id}],methods=[DELETE],params=[],headers=[],consumes=[],produces=[],custom=[]}" onto public void com.swcguild.capstoneproject.controller.UserManagment.deleteUser(int)
19-Nov-2015 08:53:19.303 INFO [http-nio-8080-exec-8] org.springframework.web.servlet.mvc.method.annotation.RequestMappingHandlerMapping.registerHandlerMethod Mapped "{[/users],methods=[GET],params=[],headers=[],consumes=[],produces=[],custom=[]}" onto public java.util.List<com.swcguild.capstoneproject.model.User> com.swcguild.capstoneproject.controller.UserManagment.getAllUsers()
19-Nov-2015 08:53:19.304 INFO [http-nio-8080-exec-8] org.springframework.web.servlet.mvc.method.annotation.RequestMappingHandlerMapping.registerHandlerMethod Mapped "{[/userManagement],methods=[GET],params=[],headers=[],consumes=[],produces=[],custom=[]}" onto public java.lang.String com.swcguild.capstoneproject.controller.UserManagment.displayCreateNewUserPage()
19-Nov-2015 08:53:19.372 INFO [http-nio-8080-exec-8] org.hibernate.validator.internal.util.Version.<clinit> HV000001: Hibernate Validator 5.1.0.Final
19-Nov-2015 08:53:19.973 INFO [http-nio-8080-exec-8] org.springframework.web.servlet.mvc.method.annotation.ExceptionHandlerExceptionResolver.initExceptionHandlerAdviceCache Detected @ExceptionHandler methods in restValidationHandler
19-Nov-2015 08:53:20.110 INFO [http-nio-8080-exec-8] org.springframework.security.web.DefaultSecurityFilterChain.<init> Creating filter chain: Ant [pattern='/login'], []
19-Nov-2015 08:53:20.114 INFO [http-nio-8080-exec-8] org.springframework.security.web.DefaultSecurityFilterChain.<init> Creating filter chain: Ant [pattern='/home'], []
19-Nov-2015 08:53:20.116 INFO [http-nio-8080-exec-8] org.springframework.security.web.DefaultSecurityFilterChain.<init> Creating filter chain: Ant [pattern='/css/**'], []
19-Nov-2015 08:53:20.118 INFO [http-nio-8080-exec-8] org.springframework.security.web.DefaultSecurityFilterChain.<init> Creating filter chain: Ant [pattern='/js/**'], []
19-Nov-2015 08:53:20.120 INFO [http-nio-8080-exec-8] org.springframework.security.web.DefaultSecurityFilterChain.<init> Creating filter chain: Ant [pattern='/img/**'], []
19-Nov-2015 08:53:20.212 INFO [http-nio-8080-exec-8] org.springframework.security.provisioning.JdbcUserDetailsManager.initDao No authentication manager set. Reauthentication of users when changing passwords will not be performed.
19-Nov-2015 08:53:20.335 INFO [http-nio-8080-exec-8] org.springframework.security.web.DefaultSecurityFilterChain.<init> Creating filter chain: org.springframework.security.web.util.AnyRequestMatcher@1, [org.springframework.security.web.context.SecurityContextPersistenceFilter@28b309d9, org.springframework.security.web.authentication.logout.LogoutFilter@7b169dc8, org.springframework.security.web.authentication.UsernamePasswordAuthenticationFilter@524d7a23, org.springframework.security.web.authentication.www.BasicAuthenticationFilter@2d1e0d56, org.springframework.security.web.savedrequest.RequestCacheAwareFilter@1d5334ed, org.springframework.security.web.servletapi.SecurityContextHolderAwareRequestFilter@52e40252, org.springframework.security.web.authentication.AnonymousAuthenticationFilter@6bc1e64f, org.springframework.security.web.session.SessionManagementFilter@366822dc, org.springframework.security.web.access.ExceptionTranslationFilter@32989ca0, org.springframework.security.web.access.intercept.FilterSecurityInterceptor@409cee33]
19-Nov-2015 08:53:20.351 INFO [http-nio-8080-exec-8] org.springframework.security.config.http.DefaultFilterChainValidator.checkLoginPageIsntProtected Checking whether login URL '/login' is accessible with your configuration
19-Nov-2015 08:53:20.393 INFO [http-nio-8080-exec-8] org.springframework.web.context.ContextLoader.initWebApplicationContext Root WebApplicationContext: initialization completed in 2154 ms
19-Nov-2015 08:53:20.405 INFO [http-nio-8080-exec-8] org.apache.catalina.startup.HostConfig.deployDescriptor Deployment of configuration descriptor /home/apprentice/Desktop/Bitbucket/csp-repository-sh/apache-tomcat-8.0.27/conf/Catalina/localhost/CapstoneProject.xml has finished in 3,023 ms
19-Nov-2015 08:53:20.425 INFO [http-nio-8080-exec-3] org.apache.catalina.util.LifecycleBase.start The start() method was called on component [StandardEngine[Catalina].StandardHost[localhost].StandardContext[/CapstoneProject]] after start() had already been called. The second call will be ignored.
19-Nov-2015 08:53:21.557 INFO [http-nio-8080-exec-4] org.springframework.web.servlet.DispatcherServlet.initServletBean FrameworkServlet 'spring-dispatcher': initialization started
19-Nov-2015 08:53:21.564 INFO [http-nio-8080-exec-4] org.springframework.web.context.support.XmlWebApplicationContext.prepareRefresh Refreshing WebApplicationContext for namespace 'spring-dispatcher-servlet': startup date [Thu Nov 19 08:53:21 CST 2015]; parent: Root WebApplicationContext
19-Nov-2015 08:53:21.566 INFO [http-nio-8080-exec-4] org.springframework.beans.factory.xml.XmlBeanDefinitionReader.loadBeanDefinitions Loading XML bean definitions from ServletContext resource [/WEB-INF/spring-dispatcher-servlet.xml]
19-Nov-2015 08:53:21.625 INFO [http-nio-8080-exec-4] org.springframework.beans.factory.annotation.AutowiredAnnotationBeanPostProcessor.<init> JSR-330 'javax.inject.Inject' annotation found and supported for autowiring
19-Nov-2015 08:53:21.686 INFO [http-nio-8080-exec-4] org.springframework.web.servlet.mvc.method.annotation.RequestMappingHandlerMapping.registerHandlerMethod Mapped "{[/contact],methods=[GET],params=[],headers=[],consumes=[],produces=[],custom=[]}" onto public java.lang.String com.swcguild.capstoneproject.controller.ContactController.displayContactPage()
19-Nov-2015 08:53:21.705 INFO [http-nio-8080-exec-4] org.springframework.web.servlet.mvc.method.annotation.RequestMappingHandlerMapping.registerHandlerMethod Mapped "{[/ || /home],methods=[GET],params=[],headers=[],consumes=[],produces=[],custom=[]}" onto public java.lang.String com.swcguild.capstoneproject.controller.HomeController.displayHomePage()
19-Nov-2015 08:53:21.710 INFO [http-nio-8080-exec-4] org.springframework.web.servlet.mvc.method.annotation.RequestMappingHandlerMapping.registerHandlerMethod Mapped "{[/activepins],methods=[GET],params=[],headers=[],consumes=[],produces=[],custom=[]}" onto public java.util.List<com.swcguild.capstoneproject.model.PinPost> com.swcguild.capstoneproject.controller.PinnedPostController.getActivePinPosts()
19-Nov-2015 08:53:21.710 INFO [http-nio-8080-exec-4] org.springframework.web.servlet.mvc.method.annotation.RequestMappingHandlerMapping.registerHandlerMethod Mapped "{[/pinpost/{id}],methods=[PATCH],params=[],headers=[],consumes=[],produces=[],custom=[]}" onto public void com.swcguild.capstoneproject.controller.PinnedPostController.publishPinPost(int,com.swcguild.capstoneproject.model.PinPost)
19-Nov-2015 08:53:21.710 INFO [http-nio-8080-exec-4] org.springframework.web.servlet.mvc.method.annotation.RequestMappingHandlerMapping.registerHandlerMethod Mapped "{[/pinned],methods=[GET],params=[],headers=[],consumes=[],produces=[],custom=[]}" onto public java.lang.String com.swcguild.capstoneproject.controller.PinnedPostController.displayPinnedPage()
19-Nov-2015 08:53:21.716 INFO [http-nio-8080-exec-4] org.springframework.web.servlet.mvc.method.annotation.RequestMappingHandlerMapping.registerHandlerMethod Mapped "{[/pinpost],methods=[POST],params=[],headers=[],consumes=[],produces=[],custom=[]}" onto public com.swcguild.capstoneproject.model.PinPost com.swcguild.capstoneproject.controller.PinnedPostController.createPinPost(com.swcguild.capstoneproject.model.PinPost)
19-Nov-2015 08:53:21.716 INFO [http-nio-8080-exec-4] org.springframework.web.servlet.mvc.method.annotation.RequestMappingHandlerMapping.registerHandlerMethod Mapped "{[/pinpost/{id}],methods=[GET],params=[],headers=[],consumes=[],produces=[],custom=[]}" onto public com.swcguild.capstoneproject.model.PinPost com.swcguild.capstoneproject.controller.PinnedPostController.getPinPost(int)
19-Nov-2015 08:53:21.717 INFO [http-nio-8080-exec-4] org.springframework.web.servlet.mvc.method.annotation.RequestMappingHandlerMapping.registerHandlerMethod Mapped "{[/pinpost/{id}],methods=[DELETE],params=[],headers=[],consumes=[],produces=[],custom=[]}" onto public void com.swcguild.capstoneproject.controller.PinnedPostController.deletePinPost(int)
19-Nov-2015 08:53:21.717 INFO [http-nio-8080-exec-4] org.springframework.web.servlet.mvc.method.annotation.RequestMappingHandlerMapping.registerHandlerMethod Mapped "{[/pinpost/{id}],methods=[PUT],params=[],headers=[],consumes=[],produces=[],custom=[]}" onto public void com.swcguild.capstoneproject.controller.PinnedPostController.putPost(int,com.swcguild.capstoneproject.model.PinPost)
19-Nov-2015 08:53:21.717 INFO [http-nio-8080-exec-4] org.springframework.web.servlet.mvc.method.annotation.RequestMappingHandlerMapping.registerHandlerMethod Mapped "{[/pinposts],methods=[GET],params=[],headers=[],consumes=[],produces=[],custom=[]}" onto public java.util.List<com.swcguild.capstoneproject.model.PinPost> com.swcguild.capstoneproject.controller.PinnedPostController.getAllPinPosts()
19-Nov-2015 08:53:21.721 INFO [http-nio-8080-exec-4] org.springframework.web.servlet.mvc.method.annotation.RequestMappingHandlerMapping.registerHandlerMethod Mapped "{[/login],methods=[GET],params=[],headers=[],consumes=[],produces=[],custom=[]}" onto public java.lang.String com.swcguild.capstoneproject.controller.LoginController.showLoginForm()
19-Nov-2015 08:53:21.724 INFO [http-nio-8080-exec-4] org.springframework.web.servlet.mvc.method.annotation.RequestMappingHandlerMapping.registerHandlerMethod Mapped "{[/disclaimer],methods=[GET],params=[],headers=[],consumes=[],produces=[],custom=[]}" onto public java.lang.String com.swcguild.capstoneproject.controller.DisclaimerController.displayDisclaimerPage()
19-Nov-2015 08:53:21.725 INFO [http-nio-8080-exec-4] org.springframework.web.servlet.mvc.method.annotation.RequestMappingHandlerMapping.registerHandlerMethod Mapped "{[/admin],methods=[GET],params=[],headers=[],consumes=[],produces=[],custom=[]}" onto public java.lang.String com.swcguild.capstoneproject.controller.AdminController.displayAdminPage()
19-Nov-2015 08:53:21.726 INFO [http-nio-8080-exec-4] org.springframework.web.servlet.mvc.method.annotation.RequestMappingHandlerMapping.registerHandlerMethod Mapped "{[/post/{id}],methods=[PUT],params=[],headers=[],consumes=[],produces=[],custom=[]}" onto public void com.swcguild.capstoneproject.controller.AdminController.putPost(int,com.swcguild.capstoneproject.model.Post)
19-Nov-2015 08:53:21.726 INFO [http-nio-8080-exec-4] org.springframework.web.servlet.mvc.method.annotation.RequestMappingHandlerMapping.registerHandlerMethod Mapped "{[/post],methods=[POST],params=[],headers=[],consumes=[],produces=[],custom=[]}" onto public com.swcguild.capstoneproject.model.Post com.swcguild.capstoneproject.controller.AdminController.createPost(com.swcguild.capstoneproject.model.Post)
19-Nov-2015 08:53:21.726 INFO [http-nio-8080-exec-4] org.springframework.web.servlet.mvc.method.annotation.RequestMappingHandlerMapping.registerHandlerMethod Mapped "{[/post/{id}],methods=[GET],params=[],headers=[],consumes=[],produces=[],custom=[]}" onto public com.swcguild.capstoneproject.model.Post com.swcguild.capstoneproject.controller.AdminController.getPost(int)
19-Nov-2015 08:53:21.726 INFO [http-nio-8080-exec-4] org.springframework.web.servlet.mvc.method.annotation.RequestMappingHandlerMapping.registerHandlerMethod Mapped "{[/post/{id}],methods=[DELETE],params=[],headers=[],consumes=[],produces=[],custom=[]}" onto public void com.swcguild.capstoneproject.controller.AdminController.deletePost(int)
19-Nov-2015 08:53:21.727 INFO [http-nio-8080-exec-4] org.springframework.web.servlet.mvc.method.annotation.RequestMappingHandlerMapping.registerHandlerMethod Mapped "{[/posts],methods=[GET],params=[],headers=[],consumes=[],produces=[],custom=[]}" onto public java.util.List<com.swcguild.capstoneproject.model.Post> com.swcguild.capstoneproject.controller.AdminController.getAllPosts()
19-Nov-2015 08:53:21.727 INFO [http-nio-8080-exec-4] org.springframework.web.servlet.mvc.method.annotation.RequestMappingHandlerMapping.registerHandlerMethod Mapped "{[/activeposts],methods=[GET],params=[],headers=[],consumes=[],produces=[],custom=[]}" onto public java.util.List<com.swcguild.capstoneproject.model.Post> com.swcguild.capstoneproject.controller.AdminController.getActivePosts()
19-Nov-2015 08:53:21.727 INFO [http-nio-8080-exec-4] org.springframework.web.servlet.mvc.method.annotation.RequestMappingHandlerMapping.registerHandlerMethod Mapped "{[/tag/{tag}],methods=[GET],params=[],headers=[],consumes=[],produces=[],custom=[]}" onto public java.util.List<com.swcguild.capstoneproject.model.Post> com.swcguild.capstoneproject.controller.AdminController.getSearchPosts(java.lang.String)
19-Nov-2015 08:53:21.727 INFO [http-nio-8080-exec-4] org.springframework.web.servlet.mvc.method.annotation.RequestMappingHandlerMapping.registerHandlerMethod Mapped "{[/activetags],methods=[GET],params=[],headers=[],consumes=[],produces=[],custom=[]}" onto public java.util.List<com.swcguild.capstoneproject.model.Tag> com.swcguild.capstoneproject.controller.AdminController.getActiveTags()
19-Nov-2015 08:53:21.728 INFO [http-nio-8080-exec-4] org.springframework.web.servlet.mvc.method.annotation.RequestMappingHandlerMapping.registerHandlerMethod Mapped "{[/post/{id}],methods=[PATCH],params=[],headers=[],consumes=[],produces=[],custom=[]}" onto public void com.swcguild.capstoneproject.controller.AdminController.publishPost(int,com.swcguild.capstoneproject.model.Post)
19-Nov-2015 08:53:21.728 INFO [http-nio-8080-exec-4] org.springframework.web.servlet.mvc.method.annotation.RequestMappingHandlerMapping.registerHandlerMethod Mapped "{[/tags/{id}],methods=[GET],params=[],headers=[],consumes=[],produces=[],custom=[]}" onto public java.lang.String com.swcguild.capstoneproject.controller.AdminController.getTags(int)
19-Nov-2015 08:53:21.728 INFO [http-nio-8080-exec-4] org.springframework.web.servlet.mvc.method.annotation.RequestMappingHandlerMapping.registerHandlerMethod Mapped "{[/alltags],methods=[GET],params=[],headers=[],consumes=[],produces=[],custom=[]}" onto public java.util.List<com.swcguild.capstoneproject.model.Tag> com.swcguild.capstoneproject.controller.AdminController.getTags()
19-Nov-2015 08:53:21.729 INFO [http-nio-8080-exec-4] org.springframework.web.servlet.mvc.method.annotation.RequestMappingHandlerMapping.registerHandlerMethod Mapped "{[/about],methods=[GET],params=[],headers=[],consumes=[],produces=[],custom=[]}" onto public java.lang.String com.swcguild.capstoneproject.controller.AboutController.displayAboutPage()
19-Nov-2015 08:53:21.729 INFO [http-nio-8080-exec-4] org.springframework.web.servlet.mvc.method.annotation.RequestMappingHandlerMapping.registerHandlerMethod Mapped "{[/employee],methods=[GET],params=[],headers=[],consumes=[],produces=[],custom=[]}" onto public java.lang.String com.swcguild.capstoneproject.controller.EmployeeController.displayEmployeePage()
19-Nov-2015 08:53:21.729 INFO [http-nio-8080-exec-4] org.springframework.web.servlet.mvc.method.annotation.RequestMappingHandlerMapping.registerHandlerMethod Mapped "{[/error],methods=[],params=[],headers=[],consumes=[],produces=[],custom=[]}" onto public java.lang.String com.swcguild.capstoneproject.controller.ErrorController.customError(javax.servlet.http.HttpServletRequest,javax.servlet.http.HttpServletResponse,org.springframework.ui.Model)
19-Nov-2015 08:53:21.730 INFO [http-nio-8080-exec-4] org.springframework.web.servlet.mvc.method.annotation.RequestMappingHandlerMapping.registerHandlerMethod Mapped "{[/user],methods=[POST],params=[],headers=[],consumes=[],produces=[],custom=[]}" onto public com.swcguild.capstoneproject.model.User com.swcguild.capstoneproject.controller.UserManagment.createNewUserForm(com.swcguild.capstoneproject.model.User)
19-Nov-2015 08:53:21.731 INFO [http-nio-8080-exec-4] org.springframework.web.servlet.mvc.method.annotation.RequestMappingHandlerMapping.registerHandlerMethod Mapped "{[/authority],methods=[POST],params=[],headers=[],consumes=[],produces=[],custom=[]}" onto public com.swcguild.capstoneproject.model.Authority com.swcguild.capstoneproject.controller.UserManagment.createNewAuthority(com.swcguild.capstoneproject.model.Authority)
19-Nov-2015 08:53:21.731 INFO [http-nio-8080-exec-4] org.springframework.web.servlet.mvc.method.annotation.RequestMappingHandlerMapping.registerHandlerMethod Mapped "{[/authority/{username}],methods=[DELETE],params=[],headers=[],consumes=[],produces=[],custom=[]}" onto public void com.swcguild.capstoneproject.controller.UserManagment.deleteAuthority(java.lang.String)
19-Nov-2015 08:53:21.731 INFO [http-nio-8080-exec-4] org.springframework.web.servlet.mvc.method.annotation.RequestMappingHandlerMapping.registerHandlerMethod Mapped "{[/authority/{username}],methods=[GET],params=[],headers=[],consumes=[],produces=[],custom=[]}" onto public java.util.List<com.swcguild.capstoneproject.model.Authority> com.swcguild.capstoneproject.controller.UserManagment.getAuthorities(java.lang.String)
19-Nov-2015 08:53:21.731 INFO [http-nio-8080-exec-4] org.springframework.web.servlet.mvc.method.annotation.RequestMappingHandlerMapping.registerHandlerMethod Mapped "{[/user/{id}],methods=[PUT],params=[],headers=[],consumes=[],produces=[],custom=[]}" onto public void com.swcguild.capstoneproject.controller.UserManagment.putUser(int,com.swcguild.capstoneproject.model.User)
19-Nov-2015 08:53:21.732 INFO [http-nio-8080-exec-4] org.springframework.web.servlet.mvc.method.annotation.RequestMappingHandlerMapping.registerHandlerMethod Mapped "{[/user/{id}],methods=[GET],params=[],headers=[],consumes=[],produces=[],custom=[]}" onto public com.swcguild.capstoneproject.model.User com.swcguild.capstoneproject.controller.UserManagment.getUser(int)
19-Nov-2015 08:53:21.732 INFO [http-nio-8080-exec-4] org.springframework.web.servlet.mvc.method.annotation.RequestMappingHandlerMapping.registerHandlerMethod Mapped "{[/user/{id}],methods=[DELETE],params=[],headers=[],consumes=[],produces=[],custom=[]}" onto public void com.swcguild.capstoneproject.controller.UserManagment.deleteUser(int)
19-Nov-2015 08:53:21.732 INFO [http-nio-8080-exec-4] org.springframework.web.servlet.mvc.method.annotation.RequestMappingHandlerMapping.registerHandlerMethod Mapped "{[/users],methods=[GET],params=[],headers=[],consumes=[],produces=[],custom=[]}" onto public java.util.List<com.swcguild.capstoneproject.model.User> com.swcguild.capstoneproject.controller.UserManagment.getAllUsers()
19-Nov-2015 08:53:21.732 INFO [http-nio-8080-exec-4] org.springframework.web.servlet.mvc.method.annotation.RequestMappingHandlerMapping.registerHandlerMethod Mapped "{[/userManagement],methods=[GET],params=[],headers=[],consumes=[],produces=[],custom=[]}" onto public java.lang.String com.swcguild.capstoneproject.controller.UserManagment.displayCreateNewUserPage()
19-Nov-2015 08:53:21.794 INFO [http-nio-8080-exec-4] org.springframework.web.servlet.mvc.method.annotation.ExceptionHandlerExceptionResolver.initExceptionHandlerAdviceCache Detected @ExceptionHandler methods in restValidationHandler
19-Nov-2015 08:53:21.856 INFO [http-nio-8080-exec-4] org.springframework.web.servlet.DispatcherServlet.initServletBean FrameworkServlet 'spring-dispatcher': initialization completed in 299 ms
