127.0.0.1 - - [07/Nov/2015:13:56:00 -0600] "HEAD /netbeans-tomcat-status-test HTTP/1.1" 404 -
127.0.0.1 - - [07/Nov/2015:13:56:00 -0600] "HEAD /netbeans-tomcat-status-test HTTP/1.1" 404 -
127.0.0.1 - - [07/Nov/2015:13:56:00 -0600] "HEAD /netbeans-tomcat-status-test HTTP/1.1" 404 -
127.0.0.1 - - [07/Nov/2015:13:56:00 -0600] "HEAD /netbeans-tomcat-status-test HTTP/1.1" 404 -
127.0.0.1 - apprentice [07/Nov/2015:13:56:00 -0600] "GET /manager/text/list HTTP/1.1" 200 1333
127.0.0.1 - apprentice [07/Nov/2015:13:56:00 -0600] "GET /manager/text/list HTTP/1.1" 200 1333
127.0.0.1 - apprentice [07/Nov/2015:13:56:01 -0600] "GET /manager/text/undeploy?path=/CapstoneProject HTTP/1.1" 200 72
127.0.0.1 - apprentice [07/Nov/2015:13:56:03 -0600] "GET /manager/text/deploy?config=file%3A%2Ftmp%2Fcontext6192567595126251070.xml&path=/CapstoneProject HTTP/1.1" 200 70
127.0.0.1 - apprentice [07/Nov/2015:13:56:03 -0600] "GET /manager/text/start?path=/CapstoneProject HTTP/1.1" 200 69
127.0.0.1 - - [07/Nov/2015:13:56:03 -0600] "GET /CapstoneProject HTTP/1.1" 302 -
127.0.0.1 - - [07/Nov/2015:13:56:04 -0600] "GET /CapstoneProject/ HTTP/1.1" 200 4292
127.0.0.1 - - [07/Nov/2015:13:56:04 -0600] "GET /CapstoneProject/css/bootstrap.min.css HTTP/1.1" 304 -
127.0.0.1 - - [07/Nov/2015:13:56:04 -0600] "GET /CapstoneProject/img/profilepic.jpg HTTP/1.1" 304 -
127.0.0.1 - - [07/Nov/2015:13:56:04 -0600] "GET /CapstoneProject/css/homepage.css HTTP/1.1" 304 -
127.0.0.1 - - [07/Nov/2015:13:56:04 -0600] "GET /CapstoneProject/js/bootstrap.min.js HTTP/1.1" 304 -
127.0.0.1 - - [07/Nov/2015:13:56:04 -0600] "GET /CapstoneProject/js/jquery-1.11.1.min.js HTTP/1.1" 304 -
127.0.0.1 - - [07/Nov/2015:13:56:04 -0600] "GET /CapstoneProject/js/admin.js HTTP/1.1" 200 6060
127.0.0.1 - - [07/Nov/2015:13:56:04 -0600] "GET /CapstoneProject/fonts/CutiePop.ttf HTTP/1.1" 304 -
127.0.0.1 - - [07/Nov/2015:13:56:04 -0600] "GET /CapstoneProject/fonts/LadylikeBB.ttf HTTP/1.1" 304 -
127.0.0.1 - - [07/Nov/2015:13:56:04 -0600] "GET /CapstoneProject/posts HTTP/1.1" 200 307
127.0.0.1 - - [07/Nov/2015:13:57:26 -0600] "GET /CapstoneProject/contact HTTP/1.1" 200 2625
127.0.0.1 - - [07/Nov/2015:13:57:26 -0600] "GET /CapstoneProject/css/contactStyles.css HTTP/1.1" 304 -
127.0.0.1 - - [07/Nov/2015:13:57:26 -0600] "GET /CapstoneProject/img/likeusonfacebook.jpg HTTP/1.1" 304 -
127.0.0.1 - - [07/Nov/2015:13:57:27 -0600] "GET /CapstoneProject/about HTTP/1.1" 200 2230
127.0.0.1 - - [07/Nov/2015:13:57:27 -0600] "GET /CapstoneProject/css/aboutStyles.css HTTP/1.1" 304 -
127.0.0.1 - - [07/Nov/2015:13:57:28 -0600] "GET /CapstoneProject/disclaimer HTTP/1.1" 200 2944
127.0.0.1 - - [07/Nov/2015:13:57:28 -0600] "GET /CapstoneProject/css/disclaimerStyles.css HTTP/1.1" 304 -
127.0.0.1 - - [07/Nov/2015:13:57:29 -0600] "GET /CapstoneProject/home HTTP/1.1" 200 4292
127.0.0.1 - - [07/Nov/2015:13:57:29 -0600] "GET /CapstoneProject/posts HTTP/1.1" 200 307
