127.0.0.1 - - [05/Nov/2015:09:15:00 -0600] "HEAD /netbeans-tomcat-status-test HTTP/1.1" 404 -
127.0.0.1 - - [05/Nov/2015:09:15:00 -0600] "HEAD /netbeans-tomcat-status-test HTTP/1.1" 404 -
127.0.0.1 - - [05/Nov/2015:09:15:00 -0600] "HEAD /netbeans-tomcat-status-test HTTP/1.1" 404 -
127.0.0.1 - - [05/Nov/2015:09:15:00 -0600] "HEAD /netbeans-tomcat-status-test HTTP/1.1" 404 -
127.0.0.1 - - [05/Nov/2015:09:15:00 -0600] "HEAD /netbeans-tomcat-status-test HTTP/1.1" 404 -
127.0.0.1 - - [05/Nov/2015:09:15:00 -0600] "HEAD /netbeans-tomcat-status-test HTTP/1.1" 404 -
127.0.0.1 - - [05/Nov/2015:09:15:00 -0600] "HEAD /netbeans-tomcat-status-test HTTP/1.1" 404 -
127.0.0.1 - - [05/Nov/2015:09:15:00 -0600] "HEAD /netbeans-tomcat-status-test HTTP/1.1" 404 -
127.0.0.1 - apprentice [05/Nov/2015:09:15:00 -0600] "GET /manager/text/list HTTP/1.1" 200 1552
127.0.0.1 - apprentice [05/Nov/2015:09:15:00 -0600] "GET /manager/text/list HTTP/1.1" 200 1552
127.0.0.1 - apprentice [05/Nov/2015:09:15:01 -0600] "GET /manager/text/undeploy?path=/CapstoneProject HTTP/1.1" 200 72
127.0.0.1 - apprentice [05/Nov/2015:09:15:02 -0600] "GET /manager/text/deploy?config=file%3A%2Ftmp%2Fcontext8841172137927984974.xml&path=/CapstoneProject HTTP/1.1" 200 70
127.0.0.1 - apprentice [05/Nov/2015:09:15:02 -0600] "GET /manager/text/start?path=/CapstoneProject HTTP/1.1" 200 69
127.0.0.1 - - [05/Nov/2015:09:15:04 -0600] "GET /CapstoneProject/jsp/admin.jsp HTTP/1.1" 200 3938
127.0.0.1 - - [05/Nov/2015:09:15:04 -0600] "GET /CapstoneProject/js/jquery-1.11.1.min.js HTTP/1.1" 304 -
127.0.0.1 - - [05/Nov/2015:09:15:04 -0600] "GET /CapstoneProject/js/bootstrap.min.js HTTP/1.1" 304 -
127.0.0.1 - - [05/Nov/2015:09:15:04 -0600] "GET /CapstoneProject/js/tinymce/tinymce.min.js HTTP/1.1" 200 328399
127.0.0.1 - - [05/Nov/2015:09:15:04 -0600] "GET /CapstoneProject/css/bootstrap.min.css HTTP/1.1" 304 -
127.0.0.1 - - [05/Nov/2015:09:15:04 -0600] "GET /CapstoneProject/js/ItemList.js HTTP/1.1" 404 1054
127.0.0.1 - - [05/Nov/2015:09:15:05 -0600] "GET /CapstoneProject/js/tinymce/themes/modern/theme.min.js HTTP/1.1" 200 8939
127.0.0.1 - - [05/Nov/2015:09:15:05 -0600] "GET /CapstoneProject/js/tinymce/skins/lightgray/skin.min.css HTTP/1.1" 200 27047
127.0.0.1 - - [05/Nov/2015:09:15:05 -0600] "GET /CapstoneProject/js/tinymce/skins/lightgray/content.min.css HTTP/1.1" 200 2003
127.0.0.1 - - [05/Nov/2015:09:15:05 -0600] "GET /CapstoneProject/js/tinymce/skins/lightgray/fonts/tinymce.woff HTTP/1.1" 200 11956
127.0.0.1 - - [05/Nov/2015:09:18:12 -0600] "HEAD /netbeans-tomcat-status-test HTTP/1.1" 404 -
127.0.0.1 - - [05/Nov/2015:09:18:12 -0600] "HEAD /netbeans-tomcat-status-test HTTP/1.1" 404 -
127.0.0.1 - - [05/Nov/2015:09:18:12 -0600] "HEAD /netbeans-tomcat-status-test HTTP/1.1" 404 -
127.0.0.1 - apprentice [05/Nov/2015:09:18:13 -0600] "GET /manager/text/list HTTP/1.1" 200 1552
127.0.0.1 - - [05/Nov/2015:09:18:13 -0600] "HEAD /netbeans-tomcat-status-test HTTP/1.1" 404 -
127.0.0.1 - - [05/Nov/2015:09:18:19 -0600] "HEAD /netbeans-tomcat-status-test HTTP/1.1" 404 -
127.0.0.1 - - [05/Nov/2015:09:18:19 -0600] "HEAD /netbeans-tomcat-status-test HTTP/1.1" 404 -
127.0.0.1 - - [05/Nov/2015:09:18:19 -0600] "HEAD /netbeans-tomcat-status-test HTTP/1.1" 404 -
127.0.0.1 - - [05/Nov/2015:09:18:19 -0600] "HEAD /netbeans-tomcat-status-test HTTP/1.1" 404 -
127.0.0.1 - apprentice [05/Nov/2015:09:18:19 -0600] "GET /manager/text/list HTTP/1.1" 200 1552
127.0.0.1 - apprentice [05/Nov/2015:09:18:19 -0600] "GET /manager/text/list HTTP/1.1" 200 1552
127.0.0.1 - apprentice [05/Nov/2015:09:18:20 -0600] "GET /manager/text/undeploy?path=/CapstoneProject HTTP/1.1" 200 72
127.0.0.1 - apprentice [05/Nov/2015:09:18:21 -0600] "GET /manager/text/deploy?config=file%3A%2Ftmp%2Fcontext9176078511639992252.xml&path=/CapstoneProject HTTP/1.1" 200 70
127.0.0.1 - apprentice [05/Nov/2015:09:18:21 -0600] "GET /manager/text/start?path=/CapstoneProject HTTP/1.1" 200 69
127.0.0.1 - - [05/Nov/2015:09:18:22 -0600] "GET /CapstoneProject/jsp/disclaimer.jsp HTTP/1.1" 200 7071
127.0.0.1 - - [05/Nov/2015:09:18:22 -0600] "GET /CapstoneProject/fonts/LadylikeBB.ttf HTTP/1.1" 200 52804
127.0.0.1 - - [05/Nov/2015:09:19:32 -0600] "HEAD /netbeans-tomcat-status-test HTTP/1.1" 404 -
127.0.0.1 - - [05/Nov/2015:09:19:32 -0600] "HEAD /netbeans-tomcat-status-test HTTP/1.1" 404 -
127.0.0.1 - - [05/Nov/2015:09:19:32 -0600] "HEAD /netbeans-tomcat-status-test HTTP/1.1" 404 -
127.0.0.1 - apprentice [05/Nov/2015:09:19:32 -0600] "GET /manager/text/list HTTP/1.1" 200 1552
127.0.0.1 - - [05/Nov/2015:09:19:32 -0600] "HEAD /netbeans-tomcat-status-test HTTP/1.1" 404 -
127.0.0.1 - - [05/Nov/2015:09:19:37 -0600] "HEAD /netbeans-tomcat-status-test HTTP/1.1" 404 -
127.0.0.1 - - [05/Nov/2015:09:19:37 -0600] "HEAD /netbeans-tomcat-status-test HTTP/1.1" 404 -
127.0.0.1 - - [05/Nov/2015:09:19:37 -0600] "HEAD /netbeans-tomcat-status-test HTTP/1.1" 404 -
127.0.0.1 - - [05/Nov/2015:09:19:37 -0600] "HEAD /netbeans-tomcat-status-test HTTP/1.1" 404 -
127.0.0.1 - apprentice [05/Nov/2015:09:19:37 -0600] "GET /manager/text/list HTTP/1.1" 200 1552
127.0.0.1 - apprentice [05/Nov/2015:09:19:37 -0600] "GET /manager/text/list HTTP/1.1" 200 1552
127.0.0.1 - apprentice [05/Nov/2015:09:19:38 -0600] "GET /manager/text/undeploy?path=/CapstoneProject HTTP/1.1" 200 72
127.0.0.1 - apprentice [05/Nov/2015:09:19:39 -0600] "GET /manager/text/deploy?config=file%3A%2Ftmp%2Fcontext1363780747353097669.xml&path=/CapstoneProject HTTP/1.1" 200 70
127.0.0.1 - apprentice [05/Nov/2015:09:19:39 -0600] "GET /manager/text/start?path=/CapstoneProject HTTP/1.1" 200 69
127.0.0.1 - - [05/Nov/2015:09:19:40 -0600] "GET /CapstoneProject/jsp/about.jsp HTTP/1.1" 200 6117
127.0.0.1 - - [05/Nov/2015:09:24:30 -0600] "HEAD /netbeans-tomcat-status-test HTTP/1.1" 404 -
127.0.0.1 - - [05/Nov/2015:09:24:30 -0600] "HEAD /netbeans-tomcat-status-test HTTP/1.1" 404 -
127.0.0.1 - - [05/Nov/2015:09:24:30 -0600] "HEAD /netbeans-tomcat-status-test HTTP/1.1" 404 -
127.0.0.1 - - [05/Nov/2015:09:24:30 -0600] "HEAD /netbeans-tomcat-status-test HTTP/1.1" 404 -
127.0.0.1 - apprentice [05/Nov/2015:09:24:30 -0600] "GET /manager/text/list HTTP/1.1" 200 1552
127.0.0.1 - apprentice [05/Nov/2015:09:24:30 -0600] "GET /manager/text/list HTTP/1.1" 200 1552
127.0.0.1 - apprentice [05/Nov/2015:09:24:30 -0600] "GET /manager/text/undeploy?path=/CapstoneProject HTTP/1.1" 200 72
127.0.0.1 - apprentice [05/Nov/2015:09:24:32 -0600] "GET /manager/text/deploy?config=file%3A%2Ftmp%2Fcontext8595169168808892060.xml&path=/CapstoneProject HTTP/1.1" 200 70
127.0.0.1 - apprentice [05/Nov/2015:09:24:32 -0600] "GET /manager/text/start?path=/CapstoneProject HTTP/1.1" 200 69
127.0.0.1 - - [05/Nov/2015:09:24:32 -0600] "GET /CapstoneProject/jsp/home.jsp HTTP/1.1" 200 9318
127.0.0.1 - - [05/Nov/2015:09:24:32 -0600] "GET /CapstoneProject/img/profilepic.jpg HTTP/1.1" 200 69567
127.0.0.1 - - [05/Nov/2015:09:24:32 -0600] "GET /CapstoneProject/fonts/CutiePop.ttf HTTP/1.1" 200 28804
127.0.0.1 - - [05/Nov/2015:09:24:32 -0600] "GET /CapstoneProject/fonts/LadylikeBB.ttf HTTP/1.1" 304 -
127.0.0.1 - - [05/Nov/2015:09:46:13 -0600] "HEAD /netbeans-tomcat-status-test HTTP/1.1" 404 -
127.0.0.1 - - [05/Nov/2015:09:46:13 -0600] "HEAD /netbeans-tomcat-status-test HTTP/1.1" 404 -
127.0.0.1 - - [05/Nov/2015:09:46:13 -0600] "HEAD /netbeans-tomcat-status-test HTTP/1.1" 404 -
127.0.0.1 - - [05/Nov/2015:09:46:13 -0600] "HEAD /netbeans-tomcat-status-test HTTP/1.1" 404 -
127.0.0.1 - apprentice [05/Nov/2015:09:46:13 -0600] "GET /manager/text/list HTTP/1.1" 200 1552
127.0.0.1 - apprentice [05/Nov/2015:09:46:13 -0600] "GET /manager/text/list HTTP/1.1" 200 1552
127.0.0.1 - apprentice [05/Nov/2015:09:46:13 -0600] "GET /manager/text/undeploy?path=/CapstoneProject HTTP/1.1" 200 72
127.0.0.1 - apprentice [05/Nov/2015:09:46:15 -0600] "GET /manager/text/deploy?config=file%3A%2Ftmp%2Fcontext8599014586014306849.xml&path=/CapstoneProject HTTP/1.1" 200 70
127.0.0.1 - apprentice [05/Nov/2015:09:46:15 -0600] "GET /manager/text/start?path=/CapstoneProject HTTP/1.1" 200 69
127.0.0.1 - - [05/Nov/2015:09:46:16 -0600] "GET /CapstoneProject/jsp/disclaimer.jsp HTTP/1.1" 200 7070
127.0.0.1 - - [05/Nov/2015:09:46:16 -0600] "GET /CapstoneProject/fonts/LadylikeBB.ttf HTTP/1.1" 304 -
127.0.0.1 - - [05/Nov/2015:09:48:47 -0600] "HEAD /netbeans-tomcat-status-test HTTP/1.1" 404 -
127.0.0.1 - - [05/Nov/2015:09:48:47 -0600] "HEAD /netbeans-tomcat-status-test HTTP/1.1" 404 -
127.0.0.1 - - [05/Nov/2015:09:48:47 -0600] "HEAD /netbeans-tomcat-status-test HTTP/1.1" 404 -
127.0.0.1 - apprentice [05/Nov/2015:09:48:47 -0600] "GET /manager/text/list HTTP/1.1" 200 1552
127.0.0.1 - - [05/Nov/2015:09:48:47 -0600] "HEAD /netbeans-tomcat-status-test HTTP/1.1" 404 -
127.0.0.1 - - [05/Nov/2015:09:49:04 -0600] "HEAD /netbeans-tomcat-status-test HTTP/1.1" 404 -
127.0.0.1 - - [05/Nov/2015:09:49:04 -0600] "HEAD /netbeans-tomcat-status-test HTTP/1.1" 404 -
127.0.0.1 - - [05/Nov/2015:09:49:04 -0600] "HEAD /netbeans-tomcat-status-test HTTP/1.1" 404 -
127.0.0.1 - apprentice [05/Nov/2015:09:49:04 -0600] "GET /manager/text/list HTTP/1.1" 200 1552
127.0.0.1 - - [05/Nov/2015:09:49:04 -0600] "HEAD /netbeans-tomcat-status-test HTTP/1.1" 404 -
127.0.0.1 - - [05/Nov/2015:09:49:08 -0600] "GET /CapstoneProject/jsp/disclaimer.jsp HTTP/1.1" 200 7070
127.0.0.1 - - [05/Nov/2015:09:49:08 -0600] "GET /CapstoneProject/js/jquery-1.11.1.min.js HTTP/1.1" 304 -
127.0.0.1 - - [05/Nov/2015:09:49:08 -0600] "GET /CapstoneProject/css/bootstrap.min.css HTTP/1.1" 200 113504
127.0.0.1 - - [05/Nov/2015:09:49:08 -0600] "GET /CapstoneProject/js/bootstrap.min.js HTTP/1.1" 304 -
127.0.0.1 - - [05/Nov/2015:09:49:49 -0600] "GET /CapstoneProject/css/bootstrap.min.css HTTP/1.1" 304 -
127.0.0.1 - - [05/Nov/2015:09:50:01 -0600] "GET /CapstoneProject/fonts/LadylikeBB.ttf HTTP/1.1" 304 -
127.0.0.1 - - [05/Nov/2015:09:50:02 -0600] "HEAD /netbeans-tomcat-status-test HTTP/1.1" 404 -
127.0.0.1 - - [05/Nov/2015:09:50:02 -0600] "HEAD /netbeans-tomcat-status-test HTTP/1.1" 404 -
127.0.0.1 - - [05/Nov/2015:09:50:02 -0600] "HEAD /netbeans-tomcat-status-test HTTP/1.1" 404 -
127.0.0.1 - apprentice [05/Nov/2015:09:50:03 -0600] "GET /manager/text/list HTTP/1.1" 200 1552
127.0.0.1 - - [05/Nov/2015:09:50:03 -0600] "HEAD /netbeans-tomcat-status-test HTTP/1.1" 404 -
127.0.0.1 - - [05/Nov/2015:09:50:43 -0600] "HEAD /netbeans-tomcat-status-test HTTP/1.1" 404 -
127.0.0.1 - - [05/Nov/2015:09:50:43 -0600] "HEAD /netbeans-tomcat-status-test HTTP/1.1" 404 -
127.0.0.1 - - [05/Nov/2015:09:50:43 -0600] "HEAD /netbeans-tomcat-status-test HTTP/1.1" 404 -
127.0.0.1 - apprentice [05/Nov/2015:09:50:43 -0600] "GET /manager/text/list HTTP/1.1" 200 1552
127.0.0.1 - - [05/Nov/2015:09:50:43 -0600] "HEAD /netbeans-tomcat-status-test HTTP/1.1" 404 -
127.0.0.1 - - [05/Nov/2015:09:50:48 -0600] "GET /CapstoneProject/jsp/disclaimer.jsp HTTP/1.1" 200 7103
127.0.0.1 - - [05/Nov/2015:09:50:48 -0600] "GET /CapstoneProject/css/bootstrap.min.css HTTP/1.1" 200 113510
127.0.0.1 - - [05/Nov/2015:09:50:48 -0600] "GET /CapstoneProject/js/jquery-1.11.1.min.js HTTP/1.1" 304 -
127.0.0.1 - - [05/Nov/2015:09:50:48 -0600] "GET /CapstoneProject/js/bootstrap.min.js HTTP/1.1" 304 -
127.0.0.1 - - [05/Nov/2015:09:50:48 -0600] "GET /CapstoneProject/fonts/LadylikeBB.ttf HTTP/1.1" 304 -
127.0.0.1 - - [05/Nov/2015:09:52:48 -0600] "HEAD /netbeans-tomcat-status-test HTTP/1.1" 404 -
127.0.0.1 - - [05/Nov/2015:09:52:48 -0600] "HEAD /netbeans-tomcat-status-test HTTP/1.1" 404 -
127.0.0.1 - - [05/Nov/2015:09:52:48 -0600] "HEAD /netbeans-tomcat-status-test HTTP/1.1" 404 -
127.0.0.1 - apprentice [05/Nov/2015:09:52:48 -0600] "GET /manager/text/list HTTP/1.1" 200 1552
127.0.0.1 - - [05/Nov/2015:09:52:48 -0600] "HEAD /netbeans-tomcat-status-test HTTP/1.1" 404 -
127.0.0.1 - - [05/Nov/2015:09:53:42 -0600] "HEAD /netbeans-tomcat-status-test HTTP/1.1" 404 -
127.0.0.1 - - [05/Nov/2015:09:53:42 -0600] "HEAD /netbeans-tomcat-status-test HTTP/1.1" 404 -
127.0.0.1 - - [05/Nov/2015:09:53:42 -0600] "HEAD /netbeans-tomcat-status-test HTTP/1.1" 404 -
127.0.0.1 - apprentice [05/Nov/2015:09:53:42 -0600] "GET /manager/text/list HTTP/1.1" 200 1552
127.0.0.1 - - [05/Nov/2015:09:53:42 -0600] "HEAD /netbeans-tomcat-status-test HTTP/1.1" 404 -
127.0.0.1 - - [05/Nov/2015:09:54:22 -0600] "HEAD /netbeans-tomcat-status-test HTTP/1.1" 404 -
127.0.0.1 - - [05/Nov/2015:09:54:22 -0600] "HEAD /netbeans-tomcat-status-test HTTP/1.1" 404 -
127.0.0.1 - - [05/Nov/2015:09:54:22 -0600] "HEAD /netbeans-tomcat-status-test HTTP/1.1" 404 -
127.0.0.1 - apprentice [05/Nov/2015:09:54:22 -0600] "GET /manager/text/list HTTP/1.1" 200 1552
127.0.0.1 - - [05/Nov/2015:09:54:22 -0600] "HEAD /netbeans-tomcat-status-test HTTP/1.1" 404 -
127.0.0.1 - - [05/Nov/2015:09:54:30 -0600] "HEAD /netbeans-tomcat-status-test HTTP/1.1" 404 -
127.0.0.1 - - [05/Nov/2015:09:54:30 -0600] "HEAD /netbeans-tomcat-status-test HTTP/1.1" 404 -
127.0.0.1 - - [05/Nov/2015:09:54:30 -0600] "HEAD /netbeans-tomcat-status-test HTTP/1.1" 404 -
127.0.0.1 - - [05/Nov/2015:09:54:30 -0600] "HEAD /netbeans-tomcat-status-test HTTP/1.1" 404 -
127.0.0.1 - apprentice [05/Nov/2015:09:54:30 -0600] "GET /manager/text/list HTTP/1.1" 200 1552
127.0.0.1 - apprentice [05/Nov/2015:09:54:30 -0600] "GET /manager/text/list HTTP/1.1" 200 1552
127.0.0.1 - apprentice [05/Nov/2015:09:54:31 -0600] "GET /manager/text/undeploy?path=/CapstoneProject HTTP/1.1" 200 72
127.0.0.1 - apprentice [05/Nov/2015:09:54:32 -0600] "GET /manager/text/deploy?config=file%3A%2Ftmp%2Fcontext1714708927032646371.xml&path=/CapstoneProject HTTP/1.1" 200 70
127.0.0.1 - apprentice [05/Nov/2015:09:54:32 -0600] "GET /manager/text/start?path=/CapstoneProject HTTP/1.1" 200 69
127.0.0.1 - - [05/Nov/2015:09:54:33 -0600] "GET /CapstoneProject/jsp/disclaimer.jsp HTTP/1.1" 200 1969
127.0.0.1 - - [05/Nov/2015:09:54:33 -0600] "GET /CapstoneProject/css/bootstrap.min.css HTTP/1.1" 304 -
127.0.0.1 - - [05/Nov/2015:09:54:33 -0600] "GET /CapstoneProject/css/disclaimerStyles.css HTTP/1.1" 200 1251
127.0.0.1 - - [05/Nov/2015:09:56:25 -0600] "HEAD /netbeans-tomcat-status-test HTTP/1.1" 404 -
127.0.0.1 - - [05/Nov/2015:09:56:25 -0600] "HEAD /netbeans-tomcat-status-test HTTP/1.1" 404 -
127.0.0.1 - - [05/Nov/2015:09:56:25 -0600] "HEAD /netbeans-tomcat-status-test HTTP/1.1" 404 -
127.0.0.1 - apprentice [05/Nov/2015:09:56:25 -0600] "GET /manager/text/list HTTP/1.1" 200 1552
127.0.0.1 - apprentice [05/Nov/2015:09:56:27 -0600] "GET /manager/text/reload?path=/CapstoneProject HTTP/1.1" 200 70
127.0.0.1 - - [05/Nov/2015:09:56:27 -0600] "HEAD /netbeans-tomcat-status-test HTTP/1.1" 404 -
127.0.0.1 - - [05/Nov/2015:09:56:27 -0600] "HEAD /netbeans-tomcat-status-test HTTP/1.1" 404 -
127.0.0.1 - - [05/Nov/2015:09:56:27 -0600] "HEAD /netbeans-tomcat-status-test HTTP/1.1" 404 -
127.0.0.1 - apprentice [05/Nov/2015:09:56:27 -0600] "GET /manager/text/list HTTP/1.1" 200 1552
127.0.0.1 - apprentice [05/Nov/2015:09:56:28 -0600] "GET /manager/text/reload?path=/CapstoneProject HTTP/1.1" 200 70
127.0.0.1 - - [05/Nov/2015:09:56:28 -0600] "HEAD /netbeans-tomcat-status-test HTTP/1.1" 404 -
127.0.0.1 - - [05/Nov/2015:09:59:28 -0600] "HEAD /netbeans-tomcat-status-test HTTP/1.1" 404 -
127.0.0.1 - - [05/Nov/2015:09:59:28 -0600] "HEAD /netbeans-tomcat-status-test HTTP/1.1" 404 -
127.0.0.1 - - [05/Nov/2015:09:59:28 -0600] "HEAD /netbeans-tomcat-status-test HTTP/1.1" 404 -
127.0.0.1 - apprentice [05/Nov/2015:09:59:28 -0600] "GET /manager/text/list HTTP/1.1" 200 1552
127.0.0.1 - apprentice [05/Nov/2015:09:59:28 -0600] "GET /manager/text/reload?path=/CapstoneProject HTTP/1.1" 200 135
127.0.0.1 - - [05/Nov/2015:10:00:54 -0600] "HEAD /netbeans-tomcat-status-test HTTP/1.1" 404 -
127.0.0.1 - - [05/Nov/2015:10:00:54 -0600] "HEAD /netbeans-tomcat-status-test HTTP/1.1" 404 -
127.0.0.1 - - [05/Nov/2015:10:00:54 -0600] "HEAD /netbeans-tomcat-status-test HTTP/1.1" 404 -
127.0.0.1 - - [05/Nov/2015:10:00:54 -0600] "HEAD /netbeans-tomcat-status-test HTTP/1.1" 404 -
127.0.0.1 - apprentice [05/Nov/2015:10:00:54 -0600] "GET /manager/text/list HTTP/1.1" 200 1552
127.0.0.1 - apprentice [05/Nov/2015:10:00:54 -0600] "GET /manager/text/list HTTP/1.1" 200 1552
127.0.0.1 - apprentice [05/Nov/2015:10:00:54 -0600] "GET /manager/text/undeploy?path=/CapstoneProject HTTP/1.1" 200 72
127.0.0.1 - apprentice [05/Nov/2015:10:00:55 -0600] "GET /manager/text/deploy?config=file%3A%2Ftmp%2Fcontext7974545805998893777.xml&path=/CapstoneProject HTTP/1.1" 200 100
127.0.0.1 - - [05/Nov/2015:10:01:00 -0600] "HEAD /netbeans-tomcat-status-test HTTP/1.1" 404 -
127.0.0.1 - - [05/Nov/2015:10:01:00 -0600] "HEAD /netbeans-tomcat-status-test HTTP/1.1" 404 -
127.0.0.1 - - [05/Nov/2015:10:01:00 -0600] "HEAD /netbeans-tomcat-status-test HTTP/1.1" 404 -
127.0.0.1 - - [05/Nov/2015:10:01:00 -0600] "HEAD /netbeans-tomcat-status-test HTTP/1.1" 404 -
127.0.0.1 - apprentice [05/Nov/2015:10:01:00 -0600] "GET /manager/text/list HTTP/1.1" 200 1552
127.0.0.1 - apprentice [05/Nov/2015:10:01:00 -0600] "GET /manager/text/list HTTP/1.1" 200 1552
127.0.0.1 - apprentice [05/Nov/2015:10:01:00 -0600] "GET /manager/text/undeploy?path=/CapstoneProject HTTP/1.1" 200 72
127.0.0.1 - apprentice [05/Nov/2015:10:01:02 -0600] "GET /manager/text/deploy?config=file%3A%2Ftmp%2Fcontext3076553993492240811.xml&path=/CapstoneProject HTTP/1.1" 200 70
127.0.0.1 - apprentice [05/Nov/2015:10:01:02 -0600] "GET /manager/text/start?path=/CapstoneProject HTTP/1.1" 200 69
127.0.0.1 - - [05/Nov/2015:10:01:02 -0600] "GET /CapstoneProject HTTP/1.1" 302 -
127.0.0.1 - - [05/Nov/2015:10:01:02 -0600] "GET /CapstoneProject/ HTTP/1.1" 404 992
127.0.0.1 - - [05/Nov/2015:10:22:01 -0600] "HEAD /netbeans-tomcat-status-test HTTP/1.1" 404 -
127.0.0.1 - - [05/Nov/2015:10:22:01 -0600] "HEAD /netbeans-tomcat-status-test HTTP/1.1" 404 -
127.0.0.1 - - [05/Nov/2015:10:22:01 -0600] "HEAD /netbeans-tomcat-status-test HTTP/1.1" 404 -
127.0.0.1 - - [05/Nov/2015:10:22:01 -0600] "HEAD /netbeans-tomcat-status-test HTTP/1.1" 404 -
127.0.0.1 - apprentice [05/Nov/2015:10:22:01 -0600] "GET /manager/text/list HTTP/1.1" 200 1552
127.0.0.1 - apprentice [05/Nov/2015:10:22:01 -0600] "GET /manager/text/list HTTP/1.1" 200 1552
127.0.0.1 - apprentice [05/Nov/2015:10:22:02 -0600] "GET /manager/text/undeploy?path=/CapstoneProject HTTP/1.1" 200 72
127.0.0.1 - apprentice [05/Nov/2015:10:22:03 -0600] "GET /manager/text/deploy?config=file%3A%2Ftmp%2Fcontext3656558950400959840.xml&path=/CapstoneProject HTTP/1.1" 200 70
127.0.0.1 - apprentice [05/Nov/2015:10:22:03 -0600] "GET /manager/text/start?path=/CapstoneProject HTTP/1.1" 200 69
127.0.0.1 - - [05/Nov/2015:10:22:03 -0600] "HEAD /netbeans-tomcat-status-test HTTP/1.1" 404 -
127.0.0.1 - - [05/Nov/2015:10:22:11 -0600] "HEAD /netbeans-tomcat-status-test HTTP/1.1" 404 -
127.0.0.1 - - [05/Nov/2015:10:22:11 -0600] "HEAD /netbeans-tomcat-status-test HTTP/1.1" 404 -
127.0.0.1 - - [05/Nov/2015:10:22:11 -0600] "HEAD /netbeans-tomcat-status-test HTTP/1.1" 404 -
127.0.0.1 - apprentice [05/Nov/2015:10:22:11 -0600] "GET /manager/text/list HTTP/1.1" 200 1552
127.0.0.1 - - [05/Nov/2015:10:22:11 -0600] "HEAD /netbeans-tomcat-status-test HTTP/1.1" 404 -
127.0.0.1 - - [05/Nov/2015:10:23:18 -0600] "HEAD /netbeans-tomcat-status-test HTTP/1.1" 404 -
127.0.0.1 - - [05/Nov/2015:10:23:18 -0600] "HEAD /netbeans-tomcat-status-test HTTP/1.1" 404 -
127.0.0.1 - - [05/Nov/2015:10:23:18 -0600] "HEAD /netbeans-tomcat-status-test HTTP/1.1" 404 -
127.0.0.1 - apprentice [05/Nov/2015:10:23:18 -0600] "GET /manager/text/list HTTP/1.1" 200 1552
127.0.0.1 - - [05/Nov/2015:10:23:18 -0600] "HEAD /netbeans-tomcat-status-test HTTP/1.1" 404 -
127.0.0.1 - - [05/Nov/2015:10:23:40 -0600] "HEAD /netbeans-tomcat-status-test HTTP/1.1" 404 -
127.0.0.1 - - [05/Nov/2015:10:23:40 -0600] "HEAD /netbeans-tomcat-status-test HTTP/1.1" 404 -
127.0.0.1 - - [05/Nov/2015:10:23:40 -0600] "HEAD /netbeans-tomcat-status-test HTTP/1.1" 404 -
127.0.0.1 - - [05/Nov/2015:10:23:40 -0600] "HEAD /netbeans-tomcat-status-test HTTP/1.1" 404 -
127.0.0.1 - apprentice [05/Nov/2015:10:23:40 -0600] "GET /manager/text/list HTTP/1.1" 200 1552
127.0.0.1 - apprentice [05/Nov/2015:10:23:40 -0600] "GET /manager/text/list HTTP/1.1" 200 1552
127.0.0.1 - apprentice [05/Nov/2015:10:23:41 -0600] "GET /manager/text/undeploy?path=/CapstoneProject HTTP/1.1" 200 72
127.0.0.1 - apprentice [05/Nov/2015:10:23:42 -0600] "GET /manager/text/deploy?config=file%3A%2Ftmp%2Fcontext7884379479913264658.xml&path=/CapstoneProject HTTP/1.1" 200 70
127.0.0.1 - apprentice [05/Nov/2015:10:23:42 -0600] "GET /manager/text/start?path=/CapstoneProject HTTP/1.1" 200 69
127.0.0.1 - - [05/Nov/2015:10:23:43 -0600] "GET /CapstoneProject/jsp/about.jsp HTTP/1.1" 200 1011
127.0.0.1 - - [05/Nov/2015:10:23:43 -0600] "GET /CapstoneProject/css/aboutStyles.css HTTP/1.1" 200 1251
127.0.0.1 - - [05/Nov/2015:10:23:43 -0600] "GET /CapstoneProject/css/bootstrap.min.css HTTP/1.1" 304 -
127.0.0.1 - - [05/Nov/2015:10:23:43 -0600] "GET /CapstoneProject/fonts/LadylikeBB.ttf HTTP/1.1" 304 -
127.0.0.1 - - [05/Nov/2015:10:25:53 -0600] "HEAD /netbeans-tomcat-status-test HTTP/1.1" 404 -
127.0.0.1 - - [05/Nov/2015:10:25:53 -0600] "HEAD /netbeans-tomcat-status-test HTTP/1.1" 404 -
127.0.0.1 - - [05/Nov/2015:10:25:53 -0600] "HEAD /netbeans-tomcat-status-test HTTP/1.1" 404 -
127.0.0.1 - apprentice [05/Nov/2015:10:25:53 -0600] "GET /manager/text/list HTTP/1.1" 200 1552
127.0.0.1 - - [05/Nov/2015:10:25:53 -0600] "HEAD /netbeans-tomcat-status-test HTTP/1.1" 404 -
127.0.0.1 - - [05/Nov/2015:10:25:57 -0600] "HEAD /netbeans-tomcat-status-test HTTP/1.1" 404 -
127.0.0.1 - - [05/Nov/2015:10:25:57 -0600] "HEAD /netbeans-tomcat-status-test HTTP/1.1" 404 -
127.0.0.1 - - [05/Nov/2015:10:25:57 -0600] "HEAD /netbeans-tomcat-status-test HTTP/1.1" 404 -
127.0.0.1 - - [05/Nov/2015:10:25:57 -0600] "HEAD /netbeans-tomcat-status-test HTTP/1.1" 404 -
127.0.0.1 - apprentice [05/Nov/2015:10:25:57 -0600] "GET /manager/text/list HTTP/1.1" 200 1552
127.0.0.1 - apprentice [05/Nov/2015:10:25:57 -0600] "GET /manager/text/list HTTP/1.1" 200 1552
127.0.0.1 - apprentice [05/Nov/2015:10:25:58 -0600] "GET /manager/text/undeploy?path=/CapstoneProject HTTP/1.1" 200 72
127.0.0.1 - apprentice [05/Nov/2015:10:25:59 -0600] "GET /manager/text/deploy?config=file%3A%2Ftmp%2Fcontext3503594424201315513.xml&path=/CapstoneProject HTTP/1.1" 200 70
127.0.0.1 - apprentice [05/Nov/2015:10:25:59 -0600] "GET /manager/text/start?path=/CapstoneProject HTTP/1.1" 200 69
127.0.0.1 - - [05/Nov/2015:10:25:59 -0600] "GET /CapstoneProject HTTP/1.1" 302 -
127.0.0.1 - - [05/Nov/2015:10:25:59 -0600] "GET /CapstoneProject/ HTTP/1.1" 404 992
127.0.0.1 - - [05/Nov/2015:10:26:09 -0600] "HEAD /netbeans-tomcat-status-test HTTP/1.1" 404 -
127.0.0.1 - - [05/Nov/2015:10:26:09 -0600] "HEAD /netbeans-tomcat-status-test HTTP/1.1" 404 -
127.0.0.1 - - [05/Nov/2015:10:26:09 -0600] "HEAD /netbeans-tomcat-status-test HTTP/1.1" 404 -
127.0.0.1 - - [05/Nov/2015:10:26:09 -0600] "HEAD /netbeans-tomcat-status-test HTTP/1.1" 404 -
127.0.0.1 - apprentice [05/Nov/2015:10:26:09 -0600] "GET /manager/text/list HTTP/1.1" 200 1552
127.0.0.1 - apprentice [05/Nov/2015:10:26:09 -0600] "GET /manager/text/list HTTP/1.1" 200 1552
127.0.0.1 - apprentice [05/Nov/2015:10:26:10 -0600] "GET /manager/text/undeploy?path=/CapstoneProject HTTP/1.1" 200 72
127.0.0.1 - apprentice [05/Nov/2015:10:26:11 -0600] "GET /manager/text/deploy?config=file%3A%2Ftmp%2Fcontext4705962742172904588.xml&path=/CapstoneProject HTTP/1.1" 200 70
127.0.0.1 - apprentice [05/Nov/2015:10:26:11 -0600] "GET /manager/text/start?path=/CapstoneProject HTTP/1.1" 200 69
127.0.0.1 - - [05/Nov/2015:10:26:12 -0600] "GET /CapstoneProject/jsp/disclaimer.jsp HTTP/1.1" 200 1959
127.0.0.1 - - [05/Nov/2015:10:26:12 -0600] "GET /CapstoneProject/css/disclaimerStyles.css HTTP/1.1" 304 -
127.0.0.1 - - [05/Nov/2015:10:27:41 -0600] "HEAD /netbeans-tomcat-status-test HTTP/1.1" 404 -
127.0.0.1 - - [05/Nov/2015:10:27:41 -0600] "HEAD /netbeans-tomcat-status-test HTTP/1.1" 404 -
127.0.0.1 - - [05/Nov/2015:10:27:41 -0600] "HEAD /netbeans-tomcat-status-test HTTP/1.1" 404 -
127.0.0.1 - apprentice [05/Nov/2015:10:27:41 -0600] "GET /manager/text/list HTTP/1.1" 200 1552
127.0.0.1 - - [05/Nov/2015:10:27:41 -0600] "HEAD /netbeans-tomcat-status-test HTTP/1.1" 404 -
127.0.0.1 - - [05/Nov/2015:10:27:47 -0600] "HEAD /netbeans-tomcat-status-test HTTP/1.1" 404 -
127.0.0.1 - - [05/Nov/2015:10:27:47 -0600] "HEAD /netbeans-tomcat-status-test HTTP/1.1" 404 -
127.0.0.1 - - [05/Nov/2015:10:27:47 -0600] "HEAD /netbeans-tomcat-status-test HTTP/1.1" 404 -
127.0.0.1 - - [05/Nov/2015:10:27:47 -0600] "HEAD /netbeans-tomcat-status-test HTTP/1.1" 404 -
127.0.0.1 - apprentice [05/Nov/2015:10:27:47 -0600] "GET /manager/text/list HTTP/1.1" 200 1552
127.0.0.1 - apprentice [05/Nov/2015:10:27:47 -0600] "GET /manager/text/list HTTP/1.1" 200 1552
127.0.0.1 - apprentice [05/Nov/2015:10:27:47 -0600] "GET /manager/text/undeploy?path=/CapstoneProject HTTP/1.1" 200 72
127.0.0.1 - apprentice [05/Nov/2015:10:27:49 -0600] "GET /manager/text/deploy?config=file%3A%2Ftmp%2Fcontext3005245143111716237.xml&path=/CapstoneProject HTTP/1.1" 200 70
127.0.0.1 - apprentice [05/Nov/2015:10:27:49 -0600] "GET /manager/text/start?path=/CapstoneProject HTTP/1.1" 200 69
127.0.0.1 - - [05/Nov/2015:10:27:49 -0600] "GET /CapstoneProject/jsp/about.jsp HTTP/1.1" 200 1086
127.0.0.1 - - [05/Nov/2015:10:27:49 -0600] "GET /CapstoneProject/css/bootstrap.min.css HTTP/1.1" 304 -
127.0.0.1 - - [05/Nov/2015:10:27:49 -0600] "GET /CapstoneProject/css/aboutStyles.css HTTP/1.1" 304 -
127.0.0.1 - - [05/Nov/2015:10:29:28 -0600] "HEAD /netbeans-tomcat-status-test HTTP/1.1" 404 -
127.0.0.1 - - [05/Nov/2015:10:29:28 -0600] "HEAD /netbeans-tomcat-status-test HTTP/1.1" 404 -
127.0.0.1 - - [05/Nov/2015:10:29:28 -0600] "HEAD /netbeans-tomcat-status-test HTTP/1.1" 404 -
127.0.0.1 - apprentice [05/Nov/2015:10:29:28 -0600] "GET /manager/text/list HTTP/1.1" 200 1552
127.0.0.1 - - [05/Nov/2015:10:29:28 -0600] "HEAD /netbeans-tomcat-status-test HTTP/1.1" 404 -
127.0.0.1 - - [05/Nov/2015:10:29:33 -0600] "HEAD /netbeans-tomcat-status-test HTTP/1.1" 404 -
127.0.0.1 - - [05/Nov/2015:10:29:33 -0600] "HEAD /netbeans-tomcat-status-test HTTP/1.1" 404 -
127.0.0.1 - - [05/Nov/2015:10:29:33 -0600] "HEAD /netbeans-tomcat-status-test HTTP/1.1" 404 -
127.0.0.1 - - [05/Nov/2015:10:29:33 -0600] "HEAD /netbeans-tomcat-status-test HTTP/1.1" 404 -
127.0.0.1 - apprentice [05/Nov/2015:10:29:33 -0600] "GET /manager/text/list HTTP/1.1" 200 1552
127.0.0.1 - apprentice [05/Nov/2015:10:29:33 -0600] "GET /manager/text/list HTTP/1.1" 200 1552
127.0.0.1 - apprentice [05/Nov/2015:10:29:33 -0600] "GET /manager/text/undeploy?path=/CapstoneProject HTTP/1.1" 200 72
127.0.0.1 - apprentice [05/Nov/2015:10:29:35 -0600] "GET /manager/text/deploy?config=file%3A%2Ftmp%2Fcontext6368596183895858795.xml&path=/CapstoneProject HTTP/1.1" 200 70
127.0.0.1 - apprentice [05/Nov/2015:10:29:35 -0600] "GET /manager/text/start?path=/CapstoneProject HTTP/1.1" 200 69
127.0.0.1 - - [05/Nov/2015:10:29:35 -0600] "GET /CapstoneProject/jsp/about.jsp HTTP/1.1" 200 2018
127.0.0.1 - - [05/Nov/2015:10:29:35 -0600] "GET /CapstoneProject/css/aboutStyles.css HTTP/1.1" 304 -
127.0.0.1 - - [05/Nov/2015:10:29:35 -0600] "GET /CapstoneProject/fonts/CutiePop.ttf HTTP/1.1" 304 -
127.0.0.1 - - [05/Nov/2015:10:30:08 -0600] "HEAD /netbeans-tomcat-status-test HTTP/1.1" 404 -
127.0.0.1 - - [05/Nov/2015:10:30:08 -0600] "HEAD /netbeans-tomcat-status-test HTTP/1.1" 404 -
127.0.0.1 - - [05/Nov/2015:10:30:08 -0600] "HEAD /netbeans-tomcat-status-test HTTP/1.1" 404 -
127.0.0.1 - - [05/Nov/2015:10:30:08 -0600] "HEAD /netbeans-tomcat-status-test HTTP/1.1" 404 -
127.0.0.1 - apprentice [05/Nov/2015:10:30:08 -0600] "GET /manager/text/list HTTP/1.1" 200 1552
127.0.0.1 - apprentice [05/Nov/2015:10:30:08 -0600] "GET /manager/text/list HTTP/1.1" 200 1552
127.0.0.1 - apprentice [05/Nov/2015:10:30:08 -0600] "GET /manager/text/undeploy?path=/CapstoneProject HTTP/1.1" 200 72
127.0.0.1 - apprentice [05/Nov/2015:10:30:09 -0600] "GET /manager/text/deploy?config=file%3A%2Ftmp%2Fcontext4109422273959811255.xml&path=/CapstoneProject HTTP/1.1" 200 70
127.0.0.1 - apprentice [05/Nov/2015:10:30:09 -0600] "GET /manager/text/start?path=/CapstoneProject HTTP/1.1" 200 69
127.0.0.1 - - [05/Nov/2015:10:30:10 -0600] "GET /CapstoneProject/jsp/disclaimer.jsp HTTP/1.1" 200 2943
127.0.0.1 - - [05/Nov/2015:10:30:10 -0600] "GET /CapstoneProject/css/disclaimerStyles.css HTTP/1.1" 304 -
127.0.0.1 - - [05/Nov/2015:10:31:48 -0600] "HEAD /netbeans-tomcat-status-test HTTP/1.1" 404 -
127.0.0.1 - - [05/Nov/2015:10:31:48 -0600] "HEAD /netbeans-tomcat-status-test HTTP/1.1" 404 -
127.0.0.1 - - [05/Nov/2015:10:31:48 -0600] "HEAD /netbeans-tomcat-status-test HTTP/1.1" 404 -
127.0.0.1 - apprentice [05/Nov/2015:10:31:48 -0600] "GET /manager/text/list HTTP/1.1" 200 1552
127.0.0.1 - - [05/Nov/2015:10:31:48 -0600] "HEAD /netbeans-tomcat-status-test HTTP/1.1" 404 -
127.0.0.1 - - [05/Nov/2015:10:31:54 -0600] "HEAD /netbeans-tomcat-status-test HTTP/1.1" 404 -
127.0.0.1 - - [05/Nov/2015:10:31:54 -0600] "HEAD /netbeans-tomcat-status-test HTTP/1.1" 404 -
127.0.0.1 - - [05/Nov/2015:10:31:54 -0600] "HEAD /netbeans-tomcat-status-test HTTP/1.1" 404 -
127.0.0.1 - - [05/Nov/2015:10:31:54 -0600] "HEAD /netbeans-tomcat-status-test HTTP/1.1" 404 -
127.0.0.1 - apprentice [05/Nov/2015:10:31:54 -0600] "GET /manager/text/list HTTP/1.1" 200 1552
127.0.0.1 - apprentice [05/Nov/2015:10:31:54 -0600] "GET /manager/text/list HTTP/1.1" 200 1552
127.0.0.1 - apprentice [05/Nov/2015:10:31:55 -0600] "GET /manager/text/undeploy?path=/CapstoneProject HTTP/1.1" 200 72
127.0.0.1 - apprentice [05/Nov/2015:10:31:56 -0600] "GET /manager/text/deploy?config=file%3A%2Ftmp%2Fcontext5986279864590536335.xml&path=/CapstoneProject HTTP/1.1" 200 70
127.0.0.1 - apprentice [05/Nov/2015:10:31:56 -0600] "GET /manager/text/start?path=/CapstoneProject HTTP/1.1" 200 69
127.0.0.1 - - [05/Nov/2015:10:31:57 -0600] "GET /CapstoneProject/jsp/about.jsp HTTP/1.1" 200 2018
127.0.0.1 - - [05/Nov/2015:10:31:57 -0600] "GET /CapstoneProject/css/bootstrap.min.css HTTP/1.1" 304 -
127.0.0.1 - - [05/Nov/2015:10:31:57 -0600] "GET /CapstoneProject/css/aboutStyles.css HTTP/1.1" 304 -
127.0.0.1 - - [05/Nov/2015:10:31:57 -0600] "GET /CapstoneProject/fonts/LadylikeBB.ttf HTTP/1.1" 304 -
127.0.0.1 - - [05/Nov/2015:10:32:18 -0600] "HEAD /netbeans-tomcat-status-test HTTP/1.1" 404 -
127.0.0.1 - - [05/Nov/2015:10:32:18 -0600] "HEAD /netbeans-tomcat-status-test HTTP/1.1" 404 -
127.0.0.1 - - [05/Nov/2015:10:32:18 -0600] "HEAD /netbeans-tomcat-status-test HTTP/1.1" 404 -
127.0.0.1 - - [05/Nov/2015:10:32:18 -0600] "HEAD /netbeans-tomcat-status-test HTTP/1.1" 404 -
127.0.0.1 - apprentice [05/Nov/2015:10:32:18 -0600] "GET /manager/text/list HTTP/1.1" 200 1552
127.0.0.1 - apprentice [05/Nov/2015:10:32:18 -0600] "GET /manager/text/list HTTP/1.1" 200 1552
127.0.0.1 - apprentice [05/Nov/2015:10:32:19 -0600] "GET /manager/text/undeploy?path=/CapstoneProject HTTP/1.1" 200 72
127.0.0.1 - apprentice [05/Nov/2015:10:32:20 -0600] "GET /manager/text/deploy?config=file%3A%2Ftmp%2Fcontext1166464560711770928.xml&path=/CapstoneProject HTTP/1.1" 200 70
127.0.0.1 - apprentice [05/Nov/2015:10:32:20 -0600] "GET /manager/text/start?path=/CapstoneProject HTTP/1.1" 200 69
127.0.0.1 - - [05/Nov/2015:10:32:21 -0600] "GET /CapstoneProject/jsp/disclaimer.jsp HTTP/1.1" 200 2944
127.0.0.1 - - [05/Nov/2015:10:32:57 -0600] "HEAD /netbeans-tomcat-status-test HTTP/1.1" 404 -
127.0.0.1 - - [05/Nov/2015:10:32:57 -0600] "HEAD /netbeans-tomcat-status-test HTTP/1.1" 404 -
127.0.0.1 - - [05/Nov/2015:10:32:57 -0600] "HEAD /netbeans-tomcat-status-test HTTP/1.1" 404 -
127.0.0.1 - - [05/Nov/2015:10:32:57 -0600] "HEAD /netbeans-tomcat-status-test HTTP/1.1" 404 -
127.0.0.1 - apprentice [05/Nov/2015:10:32:57 -0600] "GET /manager/text/list HTTP/1.1" 200 1552
127.0.0.1 - apprentice [05/Nov/2015:10:32:57 -0600] "GET /manager/text/list HTTP/1.1" 200 1552
127.0.0.1 - apprentice [05/Nov/2015:10:32:58 -0600] "GET /manager/text/undeploy?path=/CapstoneProject HTTP/1.1" 200 72
127.0.0.1 - apprentice [05/Nov/2015:10:32:59 -0600] "GET /manager/text/deploy?config=file%3A%2Ftmp%2Fcontext8130504434620837752.xml&path=/CapstoneProject HTTP/1.1" 200 70
127.0.0.1 - apprentice [05/Nov/2015:10:32:59 -0600] "GET /manager/text/start?path=/CapstoneProject HTTP/1.1" 200 69
127.0.0.1 - - [05/Nov/2015:10:33:00 -0600] "GET /CapstoneProject/jsp/home.jsp HTTP/1.1" 200 9318
127.0.0.1 - - [05/Nov/2015:10:33:00 -0600] "GET /CapstoneProject/img/profilepic.jpg HTTP/1.1" 304 -
127.0.0.1 - - [05/Nov/2015:10:41:24 -0600] "HEAD /netbeans-tomcat-status-test HTTP/1.1" 404 -
127.0.0.1 - - [05/Nov/2015:10:41:24 -0600] "HEAD /netbeans-tomcat-status-test HTTP/1.1" 404 -
127.0.0.1 - - [05/Nov/2015:10:41:24 -0600] "HEAD /netbeans-tomcat-status-test HTTP/1.1" 404 -
127.0.0.1 - apprentice [05/Nov/2015:10:41:24 -0600] "GET /manager/text/list HTTP/1.1" 200 1552
127.0.0.1 - apprentice [05/Nov/2015:10:41:26 -0600] "GET /manager/text/reload?path=/CapstoneProject HTTP/1.1" 200 70
127.0.0.1 - - [05/Nov/2015:10:41:26 -0600] "HEAD /netbeans-tomcat-status-test HTTP/1.1" 404 -
127.0.0.1 - - [05/Nov/2015:10:42:03 -0600] "HEAD /netbeans-tomcat-status-test HTTP/1.1" 404 -
127.0.0.1 - - [05/Nov/2015:10:42:03 -0600] "HEAD /netbeans-tomcat-status-test HTTP/1.1" 404 -
127.0.0.1 - - [05/Nov/2015:10:42:03 -0600] "HEAD /netbeans-tomcat-status-test HTTP/1.1" 404 -
127.0.0.1 - apprentice [05/Nov/2015:10:42:03 -0600] "GET /manager/text/list HTTP/1.1" 200 1552
127.0.0.1 - apprentice [05/Nov/2015:10:42:05 -0600] "GET /manager/text/reload?path=/CapstoneProject HTTP/1.1" 200 70
127.0.0.1 - - [05/Nov/2015:10:42:05 -0600] "HEAD /netbeans-tomcat-status-test HTTP/1.1" 404 -
127.0.0.1 - - [05/Nov/2015:10:42:05 -0600] "HEAD /netbeans-tomcat-status-test HTTP/1.1" 404 -
127.0.0.1 - - [05/Nov/2015:10:42:05 -0600] "HEAD /netbeans-tomcat-status-test HTTP/1.1" 404 -
127.0.0.1 - apprentice [05/Nov/2015:10:42:05 -0600] "GET /manager/text/list HTTP/1.1" 200 1552
127.0.0.1 - apprentice [05/Nov/2015:10:42:06 -0600] "GET /manager/text/reload?path=/CapstoneProject HTTP/1.1" 200 70
127.0.0.1 - - [05/Nov/2015:10:42:06 -0600] "HEAD /netbeans-tomcat-status-test HTTP/1.1" 404 -
127.0.0.1 - - [05/Nov/2015:10:54:55 -0600] "HEAD /netbeans-tomcat-status-test HTTP/1.1" 404 -
127.0.0.1 - - [05/Nov/2015:10:54:55 -0600] "HEAD /netbeans-tomcat-status-test HTTP/1.1" 404 -
127.0.0.1 - - [05/Nov/2015:10:54:55 -0600] "HEAD /netbeans-tomcat-status-test HTTP/1.1" 404 -
127.0.0.1 - - [05/Nov/2015:10:54:55 -0600] "HEAD /netbeans-tomcat-status-test HTTP/1.1" 404 -
127.0.0.1 - apprentice [05/Nov/2015:10:54:55 -0600] "GET /manager/text/list HTTP/1.1" 200 1552
127.0.0.1 - apprentice [05/Nov/2015:10:54:55 -0600] "GET /manager/text/list HTTP/1.1" 200 1552
127.0.0.1 - apprentice [05/Nov/2015:10:54:56 -0600] "GET /manager/text/undeploy?path=/DVDLibraryMVC HTTP/1.1" 200 70
127.0.0.1 - apprentice [05/Nov/2015:10:54:57 -0600] "GET /manager/text/deploy?config=file%3A%2Ftmp%2Fcontext374275155404260847.xml&path=/DVDLibraryMVC HTTP/1.1" 200 68
127.0.0.1 - apprentice [05/Nov/2015:10:54:57 -0600] "GET /manager/text/start?path=/DVDLibraryMVC HTTP/1.1" 200 67
127.0.0.1 - - [05/Nov/2015:10:54:58 -0600] "GET /DVDLibraryMVC/jsp/home.jsp HTTP/1.1" 200 4296
127.0.0.1 - - [05/Nov/2015:10:54:58 -0600] "GET /DVDLibraryMVC/css/bootstrap.min.css HTTP/1.1" 304 -
127.0.0.1 - - [05/Nov/2015:10:54:58 -0600] "GET /DVDLibraryMVC/js/jquery-1.11.1.min.js HTTP/1.1" 304 -
127.0.0.1 - - [05/Nov/2015:10:54:58 -0600] "GET /DVDLibraryMVC/js/dvdList.js HTTP/1.1" 200 6450
127.0.0.1 - - [05/Nov/2015:10:54:58 -0600] "GET /DVDLibraryMVC/js/bootstrap.min.js HTTP/1.1" 304 -
127.0.0.1 - - [05/Nov/2015:10:54:58 -0600] "GET /DVDLibraryMVC/jsp/dvds HTTP/1.1" 404 898
127.0.0.1 - - [05/Nov/2015:10:59:03 -0600] "HEAD /netbeans-tomcat-status-test HTTP/1.1" 404 -
127.0.0.1 - - [05/Nov/2015:10:59:03 -0600] "HEAD /netbeans-tomcat-status-test HTTP/1.1" 404 -
127.0.0.1 - - [05/Nov/2015:10:59:03 -0600] "HEAD /netbeans-tomcat-status-test HTTP/1.1" 404 -
127.0.0.1 - apprentice [05/Nov/2015:10:59:03 -0600] "GET /manager/text/list HTTP/1.1" 200 1552
127.0.0.1 - - [05/Nov/2015:10:59:03 -0600] "HEAD /netbeans-tomcat-status-test HTTP/1.1" 404 -
127.0.0.1 - - [05/Nov/2015:10:59:18 -0600] "HEAD /netbeans-tomcat-status-test HTTP/1.1" 404 -
127.0.0.1 - - [05/Nov/2015:10:59:18 -0600] "HEAD /netbeans-tomcat-status-test HTTP/1.1" 404 -
127.0.0.1 - - [05/Nov/2015:10:59:18 -0600] "HEAD /netbeans-tomcat-status-test HTTP/1.1" 404 -
127.0.0.1 - apprentice [05/Nov/2015:10:59:18 -0600] "GET /manager/text/list HTTP/1.1" 200 1552
127.0.0.1 - - [05/Nov/2015:10:59:18 -0600] "HEAD /netbeans-tomcat-status-test HTTP/1.1" 404 -
127.0.0.1 - - [05/Nov/2015:11:00:24 -0600] "HEAD /netbeans-tomcat-status-test HTTP/1.1" 404 -
127.0.0.1 - - [05/Nov/2015:11:00:24 -0600] "HEAD /netbeans-tomcat-status-test HTTP/1.1" 404 -
127.0.0.1 - - [05/Nov/2015:11:00:24 -0600] "HEAD /netbeans-tomcat-status-test HTTP/1.1" 404 -
127.0.0.1 - apprentice [05/Nov/2015:11:00:24 -0600] "GET /manager/text/list HTTP/1.1" 200 1552
127.0.0.1 - - [05/Nov/2015:11:00:24 -0600] "HEAD /netbeans-tomcat-status-test HTTP/1.1" 404 -
127.0.0.1 - - [05/Nov/2015:11:00:30 -0600] "HEAD /netbeans-tomcat-status-test HTTP/1.1" 404 -
127.0.0.1 - - [05/Nov/2015:11:00:30 -0600] "HEAD /netbeans-tomcat-status-test HTTP/1.1" 404 -
127.0.0.1 - - [05/Nov/2015:11:00:30 -0600] "HEAD /netbeans-tomcat-status-test HTTP/1.1" 404 -
127.0.0.1 - - [05/Nov/2015:11:00:30 -0600] "HEAD /netbeans-tomcat-status-test HTTP/1.1" 404 -
127.0.0.1 - apprentice [05/Nov/2015:11:00:30 -0600] "GET /manager/text/list HTTP/1.1" 200 1552
127.0.0.1 - apprentice [05/Nov/2015:11:00:30 -0600] "GET /manager/text/list HTTP/1.1" 200 1552
127.0.0.1 - apprentice [05/Nov/2015:11:00:31 -0600] "GET /manager/text/undeploy?path=/CapstoneProject HTTP/1.1" 200 72
127.0.0.1 - apprentice [05/Nov/2015:11:00:32 -0600] "GET /manager/text/deploy?config=file%3A%2Ftmp%2Fcontext6276180831993700104.xml&path=/CapstoneProject HTTP/1.1" 200 70
127.0.0.1 - apprentice [05/Nov/2015:11:00:32 -0600] "GET /manager/text/start?path=/CapstoneProject HTTP/1.1" 200 69
127.0.0.1 - - [05/Nov/2015:11:00:32 -0600] "GET /CapstoneProject/jsp/contact.jsp HTTP/1.1" 200 1809
127.0.0.1 - - [05/Nov/2015:11:00:33 -0600] "GET /CapstoneProject/css/contactStyles.css HTTP/1.1" 200 1251
127.0.0.1 - - [05/Nov/2015:11:00:33 -0600] "GET /CapstoneProject/css/bootstrap.min.css HTTP/1.1" 304 -
127.0.0.1 - - [05/Nov/2015:11:00:33 -0600] "GET /CapstoneProject/fonts/CutiePop.ttf HTTP/1.1" 304 -
127.0.0.1 - - [05/Nov/2015:11:00:33 -0600] "GET /CapstoneProject/fonts/LadylikeBB.ttf HTTP/1.1" 304 -
127.0.0.1 - - [05/Nov/2015:11:10:54 -0600] "HEAD /netbeans-tomcat-status-test HTTP/1.1" 404 -
127.0.0.1 - - [05/Nov/2015:11:10:54 -0600] "HEAD /netbeans-tomcat-status-test HTTP/1.1" 404 -
127.0.0.1 - - [05/Nov/2015:11:10:54 -0600] "HEAD /netbeans-tomcat-status-test HTTP/1.1" 404 -
127.0.0.1 - apprentice [05/Nov/2015:11:10:54 -0600] "GET /manager/text/list HTTP/1.1" 200 1552
127.0.0.1 - - [05/Nov/2015:11:10:54 -0600] "HEAD /netbeans-tomcat-status-test HTTP/1.1" 404 -
127.0.0.1 - - [05/Nov/2015:11:11:09 -0600] "HEAD /netbeans-tomcat-status-test HTTP/1.1" 404 -
127.0.0.1 - - [05/Nov/2015:11:11:09 -0600] "HEAD /netbeans-tomcat-status-test HTTP/1.1" 404 -
127.0.0.1 - - [05/Nov/2015:11:11:09 -0600] "HEAD /netbeans-tomcat-status-test HTTP/1.1" 404 -
127.0.0.1 - apprentice [05/Nov/2015:11:11:09 -0600] "GET /manager/text/list HTTP/1.1" 200 1552
127.0.0.1 - - [05/Nov/2015:11:11:09 -0600] "HEAD /netbeans-tomcat-status-test HTTP/1.1" 404 -
127.0.0.1 - - [05/Nov/2015:11:11:16 -0600] "HEAD /netbeans-tomcat-status-test HTTP/1.1" 404 -
127.0.0.1 - - [05/Nov/2015:11:11:16 -0600] "HEAD /netbeans-tomcat-status-test HTTP/1.1" 404 -
127.0.0.1 - - [05/Nov/2015:11:11:16 -0600] "HEAD /netbeans-tomcat-status-test HTTP/1.1" 404 -
127.0.0.1 - - [05/Nov/2015:11:11:16 -0600] "HEAD /netbeans-tomcat-status-test HTTP/1.1" 404 -
127.0.0.1 - apprentice [05/Nov/2015:11:11:16 -0600] "GET /manager/text/list HTTP/1.1" 200 1552
127.0.0.1 - apprentice [05/Nov/2015:11:11:16 -0600] "GET /manager/text/list HTTP/1.1" 200 1552
127.0.0.1 - apprentice [05/Nov/2015:11:11:16 -0600] "GET /manager/text/undeploy?path=/CapstoneProject HTTP/1.1" 200 72
127.0.0.1 - apprentice [05/Nov/2015:11:11:17 -0600] "GET /manager/text/deploy?config=file%3A%2Ftmp%2Fcontext682991574078831871.xml&path=/CapstoneProject HTTP/1.1" 200 70
127.0.0.1 - apprentice [05/Nov/2015:11:11:17 -0600] "GET /manager/text/start?path=/CapstoneProject HTTP/1.1" 200 69
127.0.0.1 - - [05/Nov/2015:11:11:18 -0600] "GET /CapstoneProject/jsp/contact.jsp HTTP/1.1" 200 2121
127.0.0.1 - - [05/Nov/2015:11:11:18 -0600] "GET /CapstoneProject/css/contactStyles.css HTTP/1.1" 304 -
127.0.0.1 - - [05/Nov/2015:11:11:18 -0600] "GET /CapstoneProject/css/bootstrap.min.css HTTP/1.1" 304 -
127.0.0.1 - - [05/Nov/2015:11:12:05 -0600] "HEAD /netbeans-tomcat-status-test HTTP/1.1" 404 -
127.0.0.1 - - [05/Nov/2015:11:12:05 -0600] "HEAD /netbeans-tomcat-status-test HTTP/1.1" 404 -
127.0.0.1 - - [05/Nov/2015:11:12:05 -0600] "HEAD /netbeans-tomcat-status-test HTTP/1.1" 404 -
127.0.0.1 - apprentice [05/Nov/2015:11:12:05 -0600] "GET /manager/text/list HTTP/1.1" 200 1552
127.0.0.1 - - [05/Nov/2015:11:12:05 -0600] "HEAD /netbeans-tomcat-status-test HTTP/1.1" 404 -
127.0.0.1 - - [05/Nov/2015:11:13:16 -0600] "HEAD /netbeans-tomcat-status-test HTTP/1.1" 404 -
127.0.0.1 - - [05/Nov/2015:11:13:16 -0600] "HEAD /netbeans-tomcat-status-test HTTP/1.1" 404 -
127.0.0.1 - - [05/Nov/2015:11:13:16 -0600] "HEAD /netbeans-tomcat-status-test HTTP/1.1" 404 -
127.0.0.1 - apprentice [05/Nov/2015:11:13:16 -0600] "GET /manager/text/list HTTP/1.1" 200 1552
127.0.0.1 - - [05/Nov/2015:11:13:16 -0600] "HEAD /netbeans-tomcat-status-test HTTP/1.1" 404 -
127.0.0.1 - - [05/Nov/2015:11:13:24 -0600] "HEAD /netbeans-tomcat-status-test HTTP/1.1" 404 -
127.0.0.1 - - [05/Nov/2015:11:13:24 -0600] "HEAD /netbeans-tomcat-status-test HTTP/1.1" 404 -
127.0.0.1 - - [05/Nov/2015:11:13:24 -0600] "HEAD /netbeans-tomcat-status-test HTTP/1.1" 404 -
127.0.0.1 - - [05/Nov/2015:11:13:24 -0600] "HEAD /netbeans-tomcat-status-test HTTP/1.1" 404 -
127.0.0.1 - apprentice [05/Nov/2015:11:13:24 -0600] "GET /manager/text/list HTTP/1.1" 200 1552
127.0.0.1 - apprentice [05/Nov/2015:11:13:24 -0600] "GET /manager/text/list HTTP/1.1" 200 1552
127.0.0.1 - apprentice [05/Nov/2015:11:13:24 -0600] "GET /manager/text/undeploy?path=/CapstoneProject HTTP/1.1" 200 72
127.0.0.1 - apprentice [05/Nov/2015:11:13:25 -0600] "GET /manager/text/deploy?config=file%3A%2Ftmp%2Fcontext5197122338109599883.xml&path=/CapstoneProject HTTP/1.1" 200 70
127.0.0.1 - apprentice [05/Nov/2015:11:13:25 -0600] "GET /manager/text/start?path=/CapstoneProject HTTP/1.1" 200 69
127.0.0.1 - - [05/Nov/2015:11:13:26 -0600] "GET /CapstoneProject/jsp/contact.jsp HTTP/1.1" 200 2333
127.0.0.1 - - [05/Nov/2015:11:13:26 -0600] "GET /CapstoneProject/css/contactStyles.css HTTP/1.1" 304 -
127.0.0.1 - - [05/Nov/2015:11:13:26 -0600] "GET /CapstoneProject/fonts/LadylikeBB.ttf HTTP/1.1" 304 -
127.0.0.1 - - [05/Nov/2015:11:13:26 -0600] "GET /CapstoneProject/fonts/CutiePop.ttf HTTP/1.1" 304 -
127.0.0.1 - - [05/Nov/2015:11:14:06 -0600] "HEAD /netbeans-tomcat-status-test HTTP/1.1" 404 -
127.0.0.1 - - [05/Nov/2015:11:14:06 -0600] "HEAD /netbeans-tomcat-status-test HTTP/1.1" 404 -
127.0.0.1 - - [05/Nov/2015:11:14:06 -0600] "HEAD /netbeans-tomcat-status-test HTTP/1.1" 404 -
127.0.0.1 - apprentice [05/Nov/2015:11:14:06 -0600] "GET /manager/text/list HTTP/1.1" 200 1552
127.0.0.1 - - [05/Nov/2015:11:14:06 -0600] "HEAD /netbeans-tomcat-status-test HTTP/1.1" 404 -
127.0.0.1 - - [05/Nov/2015:11:14:12 -0600] "HEAD /netbeans-tomcat-status-test HTTP/1.1" 404 -
127.0.0.1 - - [05/Nov/2015:11:14:12 -0600] "HEAD /netbeans-tomcat-status-test HTTP/1.1" 404 -
127.0.0.1 - - [05/Nov/2015:11:14:12 -0600] "HEAD /netbeans-tomcat-status-test HTTP/1.1" 404 -
127.0.0.1 - - [05/Nov/2015:11:14:12 -0600] "HEAD /netbeans-tomcat-status-test HTTP/1.1" 404 -
127.0.0.1 - apprentice [05/Nov/2015:11:14:12 -0600] "GET /manager/text/list HTTP/1.1" 200 1552
127.0.0.1 - apprentice [05/Nov/2015:11:14:12 -0600] "GET /manager/text/list HTTP/1.1" 200 1552
127.0.0.1 - apprentice [05/Nov/2015:11:14:13 -0600] "GET /manager/text/undeploy?path=/CapstoneProject HTTP/1.1" 200 72
127.0.0.1 - apprentice [05/Nov/2015:11:14:14 -0600] "GET /manager/text/deploy?config=file%3A%2Ftmp%2Fcontext6034629568077627839.xml&path=/CapstoneProject HTTP/1.1" 200 70
127.0.0.1 - apprentice [05/Nov/2015:11:14:14 -0600] "GET /manager/text/start?path=/CapstoneProject HTTP/1.1" 200 69
127.0.0.1 - - [05/Nov/2015:11:14:15 -0600] "GET /CapstoneProject/jsp/contact.jsp HTTP/1.1" 200 2365
127.0.0.1 - - [05/Nov/2015:11:16:37 -0600] "HEAD /netbeans-tomcat-status-test HTTP/1.1" 404 -
127.0.0.1 - - [05/Nov/2015:11:16:37 -0600] "HEAD /netbeans-tomcat-status-test HTTP/1.1" 404 -
127.0.0.1 - - [05/Nov/2015:11:16:37 -0600] "HEAD /netbeans-tomcat-status-test HTTP/1.1" 404 -
127.0.0.1 - apprentice [05/Nov/2015:11:16:37 -0600] "GET /manager/text/list HTTP/1.1" 200 1552
127.0.0.1 - - [05/Nov/2015:11:16:37 -0600] "HEAD /netbeans-tomcat-status-test HTTP/1.1" 404 -
127.0.0.1 - - [05/Nov/2015:11:16:43 -0600] "HEAD /netbeans-tomcat-status-test HTTP/1.1" 404 -
127.0.0.1 - - [05/Nov/2015:11:16:43 -0600] "HEAD /netbeans-tomcat-status-test HTTP/1.1" 404 -
127.0.0.1 - - [05/Nov/2015:11:16:43 -0600] "HEAD /netbeans-tomcat-status-test HTTP/1.1" 404 -
127.0.0.1 - - [05/Nov/2015:11:16:43 -0600] "HEAD /netbeans-tomcat-status-test HTTP/1.1" 404 -
127.0.0.1 - apprentice [05/Nov/2015:11:16:43 -0600] "GET /manager/text/list HTTP/1.1" 200 1552
127.0.0.1 - apprentice [05/Nov/2015:11:16:43 -0600] "GET /manager/text/list HTTP/1.1" 200 1552
127.0.0.1 - apprentice [05/Nov/2015:11:16:43 -0600] "GET /manager/text/undeploy?path=/CapstoneProject HTTP/1.1" 200 72
127.0.0.1 - apprentice [05/Nov/2015:11:16:45 -0600] "GET /manager/text/deploy?config=file%3A%2Ftmp%2Fcontext4517673632114055794.xml&path=/CapstoneProject HTTP/1.1" 200 70
127.0.0.1 - apprentice [05/Nov/2015:11:16:45 -0600] "GET /manager/text/start?path=/CapstoneProject HTTP/1.1" 200 69
127.0.0.1 - - [05/Nov/2015:11:16:46 -0600] "GET /CapstoneProject/jsp/contact.jsp HTTP/1.1" 200 2485
127.0.0.1 - - [05/Nov/2015:11:16:46 -0600] "GET /CapstoneProject/css/contactStyles.css HTTP/1.1" 304 -
127.0.0.1 - - [05/Nov/2015:11:19:10 -0600] "GET /CapstoneProject/home HTTP/1.1" 200 4161
127.0.0.1 - - [05/Nov/2015:11:19:10 -0600] "GET /CapstoneProject/css/homepage.css HTTP/1.1" 200 4346
127.0.0.1 - - [05/Nov/2015:11:19:10 -0600] "GET /CapstoneProject/img/profilepic.jpg HTTP/1.1" 304 -
127.0.0.1 - - [05/Nov/2015:11:19:12 -0600] "GET /CapstoneProject/contact HTTP/1.1" 404 992
127.0.0.1 - - [05/Nov/2015:11:19:19 -0600] "GET /CapstoneProject/about HTTP/1.1" 404 992
127.0.0.1 - - [05/Nov/2015:11:19:23 -0600] "GET /CapstoneProject/disclaimer HTTP/1.1" 404 992
127.0.0.1 - - [05/Nov/2015:11:19:26 -0600] "GET /CapstoneProject/home HTTP/1.1" 200 4161
127.0.0.1 - - [05/Nov/2015:11:19:26 -0600] "GET /CapstoneProject/css/bootstrap.min.css HTTP/1.1" 304 -
127.0.0.1 - - [05/Nov/2015:11:19:29 -0600] "GET /CapstoneProject/contact HTTP/1.1" 404 992
127.0.0.1 - - [05/Nov/2015:11:26:00 -0600] "HEAD /netbeans-tomcat-status-test HTTP/1.1" 404 -
127.0.0.1 - - [05/Nov/2015:11:26:00 -0600] "HEAD /netbeans-tomcat-status-test HTTP/1.1" 404 -
127.0.0.1 - - [05/Nov/2015:11:26:00 -0600] "HEAD /netbeans-tomcat-status-test HTTP/1.1" 404 -
127.0.0.1 - apprentice [05/Nov/2015:11:26:00 -0600] "GET /manager/text/list HTTP/1.1" 200 1552
127.0.0.1 - - [05/Nov/2015:11:26:00 -0600] "HEAD /netbeans-tomcat-status-test HTTP/1.1" 404 -
127.0.0.1 - - [05/Nov/2015:11:27:07 -0600] "HEAD /netbeans-tomcat-status-test HTTP/1.1" 404 -
127.0.0.1 - - [05/Nov/2015:11:27:07 -0600] "HEAD /netbeans-tomcat-status-test HTTP/1.1" 404 -
127.0.0.1 - - [05/Nov/2015:11:27:07 -0600] "HEAD /netbeans-tomcat-status-test HTTP/1.1" 404 -
127.0.0.1 - apprentice [05/Nov/2015:11:27:07 -0600] "GET /manager/text/list HTTP/1.1" 200 1552
127.0.0.1 - - [05/Nov/2015:11:27:07 -0600] "HEAD /netbeans-tomcat-status-test HTTP/1.1" 404 -
127.0.0.1 - - [05/Nov/2015:11:27:13 -0600] "HEAD /netbeans-tomcat-status-test HTTP/1.1" 404 -
127.0.0.1 - - [05/Nov/2015:11:27:13 -0600] "HEAD /netbeans-tomcat-status-test HTTP/1.1" 404 -
127.0.0.1 - - [05/Nov/2015:11:27:13 -0600] "HEAD /netbeans-tomcat-status-test HTTP/1.1" 404 -
127.0.0.1 - - [05/Nov/2015:11:27:13 -0600] "HEAD /netbeans-tomcat-status-test HTTP/1.1" 404 -
127.0.0.1 - apprentice [05/Nov/2015:11:27:13 -0600] "GET /manager/text/list HTTP/1.1" 200 1552
127.0.0.1 - apprentice [05/Nov/2015:11:27:13 -0600] "GET /manager/text/list HTTP/1.1" 200 1552
127.0.0.1 - apprentice [05/Nov/2015:11:27:14 -0600] "GET /manager/text/undeploy?path=/CapstoneProject HTTP/1.1" 200 72
127.0.0.1 - apprentice [05/Nov/2015:11:27:15 -0600] "GET /manager/text/deploy?config=file%3A%2Ftmp%2Fcontext1102159073419104825.xml&path=/CapstoneProject HTTP/1.1" 200 70
127.0.0.1 - apprentice [05/Nov/2015:11:27:15 -0600] "GET /manager/text/start?path=/CapstoneProject HTTP/1.1" 200 69
127.0.0.1 - - [05/Nov/2015:11:27:15 -0600] "GET /CapstoneProject/jsp/contact.jsp HTTP/1.1" 200 2578
127.0.0.1 - - [05/Nov/2015:11:27:15 -0600] "GET /CapstoneProject/img/likeusonfacebook.jpg HTTP/1.1" 200 11199
127.0.0.1 - - [05/Nov/2015:11:27:15 -0600] "GET /CapstoneProject/css/contactStyles.css HTTP/1.1" 304 -
127.0.0.1 - - [05/Nov/2015:11:27:16 -0600] "GET /CapstoneProject/fonts/LadylikeBB.ttf HTTP/1.1" 304 -
127.0.0.1 - - [05/Nov/2015:11:27:16 -0600] "GET /CapstoneProject/fonts/CutiePop.ttf HTTP/1.1" 304 -
127.0.0.1 - - [05/Nov/2015:11:27:40 -0600] "HEAD /netbeans-tomcat-status-test HTTP/1.1" 404 -
127.0.0.1 - - [05/Nov/2015:11:27:40 -0600] "HEAD /netbeans-tomcat-status-test HTTP/1.1" 404 -
127.0.0.1 - - [05/Nov/2015:11:27:40 -0600] "HEAD /netbeans-tomcat-status-test HTTP/1.1" 404 -
127.0.0.1 - apprentice [05/Nov/2015:11:27:40 -0600] "GET /manager/text/list HTTP/1.1" 200 1552
127.0.0.1 - - [05/Nov/2015:11:27:40 -0600] "HEAD /netbeans-tomcat-status-test HTTP/1.1" 404 -
127.0.0.1 - - [05/Nov/2015:11:28:37 -0600] "GET /CapstoneProject/jsp/contact.jsp HTTP/1.1" 200 2540
127.0.0.1 - - [05/Nov/2015:11:28:37 -0600] "GET /CapstoneProject/css/bootstrap.min.css HTTP/1.1" 304 -
127.0.0.1 - - [05/Nov/2015:11:28:37 -0600] "GET /CapstoneProject/js/bootstrap.min.js HTTP/1.1" 304 -
127.0.0.1 - - [05/Nov/2015:11:28:37 -0600] "GET /CapstoneProject/img/likeusonfacebook.jpg HTTP/1.1" 304 -
127.0.0.1 - - [05/Nov/2015:11:28:37 -0600] "GET /CapstoneProject/css/contactStyles.css HTTP/1.1" 304 -
127.0.0.1 - - [05/Nov/2015:11:28:37 -0600] "GET /CapstoneProject/js/jquery-1.11.1.min.js HTTP/1.1" 304 -
127.0.0.1 - - [05/Nov/2015:11:28:37 -0600] "GET /CapstoneProject/fonts/LadylikeBB.ttf HTTP/1.1" 304 -
127.0.0.1 - - [05/Nov/2015:11:28:37 -0600] "GET /CapstoneProject/fonts/CutiePop.ttf HTTP/1.1" 304 -
127.0.0.1 - - [05/Nov/2015:11:28:37 -0600] "GET /favicon.ico HTTP/1.1" 200 21630
127.0.0.1 - - [05/Nov/2015:11:29:39 -0600] "HEAD /netbeans-tomcat-status-test HTTP/1.1" 404 -
127.0.0.1 - - [05/Nov/2015:11:29:39 -0600] "HEAD /netbeans-tomcat-status-test HTTP/1.1" 404 -
127.0.0.1 - - [05/Nov/2015:11:29:39 -0600] "HEAD /netbeans-tomcat-status-test HTTP/1.1" 404 -
127.0.0.1 - apprentice [05/Nov/2015:11:29:39 -0600] "GET /manager/text/list HTTP/1.1" 200 1552
127.0.0.1 - - [05/Nov/2015:11:29:39 -0600] "HEAD /netbeans-tomcat-status-test HTTP/1.1" 404 -
127.0.0.1 - - [05/Nov/2015:11:30:10 -0600] "GET /CapstoneProject/home HTTP/1.1" 200 4161
127.0.0.1 - - [05/Nov/2015:11:30:10 -0600] "GET /CapstoneProject/css/homepage.css HTTP/1.1" 304 -
127.0.0.1 - - [05/Nov/2015:11:31:47 -0600] "HEAD /netbeans-tomcat-status-test HTTP/1.1" 404 -
127.0.0.1 - - [05/Nov/2015:11:31:47 -0600] "HEAD /netbeans-tomcat-status-test HTTP/1.1" 404 -
127.0.0.1 - - [05/Nov/2015:11:31:47 -0600] "HEAD /netbeans-tomcat-status-test HTTP/1.1" 404 -
127.0.0.1 - apprentice [05/Nov/2015:11:31:47 -0600] "GET /manager/text/list HTTP/1.1" 200 1552
127.0.0.1 - - [05/Nov/2015:11:31:47 -0600] "HEAD /netbeans-tomcat-status-test HTTP/1.1" 404 -
127.0.0.1 - - [05/Nov/2015:11:31:56 -0600] "HEAD /netbeans-tomcat-status-test HTTP/1.1" 404 -
127.0.0.1 - - [05/Nov/2015:11:31:56 -0600] "HEAD /netbeans-tomcat-status-test HTTP/1.1" 404 -
127.0.0.1 - - [05/Nov/2015:11:31:56 -0600] "HEAD /netbeans-tomcat-status-test HTTP/1.1" 404 -
127.0.0.1 - - [05/Nov/2015:11:31:56 -0600] "HEAD /netbeans-tomcat-status-test HTTP/1.1" 404 -
127.0.0.1 - apprentice [05/Nov/2015:11:31:56 -0600] "GET /manager/text/list HTTP/1.1" 200 1552
127.0.0.1 - apprentice [05/Nov/2015:11:31:56 -0600] "GET /manager/text/list HTTP/1.1" 200 1552
127.0.0.1 - apprentice [05/Nov/2015:11:31:56 -0600] "GET /manager/text/undeploy?path=/CapstoneProject HTTP/1.1" 200 72
127.0.0.1 - apprentice [05/Nov/2015:11:31:57 -0600] "GET /manager/text/deploy?config=file%3A%2Ftmp%2Fcontext8406561019629690739.xml&path=/CapstoneProject HTTP/1.1" 200 70
127.0.0.1 - apprentice [05/Nov/2015:11:31:57 -0600] "GET /manager/text/start?path=/CapstoneProject HTTP/1.1" 200 69
127.0.0.1 - - [05/Nov/2015:11:31:58 -0600] "GET /CapstoneProject/jsp/contact.jsp HTTP/1.1" 200 2538
127.0.0.1 - - [05/Nov/2015:11:31:58 -0600] "GET /CapstoneProject/css/contactStyles.css HTTP/1.1" 304 -
127.0.0.1 - - [05/Nov/2015:11:31:58 -0600] "GET /CapstoneProject/img/likeusonfacebook.jpg HTTP/1.1" 304 -
127.0.0.1 - - [05/Nov/2015:11:32:20 -0600] "HEAD /netbeans-tomcat-status-test HTTP/1.1" 404 -
127.0.0.1 - - [05/Nov/2015:11:32:20 -0600] "HEAD /netbeans-tomcat-status-test HTTP/1.1" 404 -
127.0.0.1 - - [05/Nov/2015:11:32:20 -0600] "HEAD /netbeans-tomcat-status-test HTTP/1.1" 404 -
127.0.0.1 - apprentice [05/Nov/2015:11:32:20 -0600] "GET /manager/text/list HTTP/1.1" 200 1552
127.0.0.1 - - [05/Nov/2015:11:32:20 -0600] "HEAD /netbeans-tomcat-status-test HTTP/1.1" 404 -
127.0.0.1 - - [05/Nov/2015:11:32:29 -0600] "HEAD /netbeans-tomcat-status-test HTTP/1.1" 404 -
127.0.0.1 - - [05/Nov/2015:11:32:29 -0600] "HEAD /netbeans-tomcat-status-test HTTP/1.1" 404 -
127.0.0.1 - - [05/Nov/2015:11:32:29 -0600] "HEAD /netbeans-tomcat-status-test HTTP/1.1" 404 -
127.0.0.1 - - [05/Nov/2015:11:32:29 -0600] "HEAD /netbeans-tomcat-status-test HTTP/1.1" 404 -
127.0.0.1 - apprentice [05/Nov/2015:11:32:29 -0600] "GET /manager/text/list HTTP/1.1" 200 1552
127.0.0.1 - apprentice [05/Nov/2015:11:32:29 -0600] "GET /manager/text/list HTTP/1.1" 200 1552
127.0.0.1 - apprentice [05/Nov/2015:11:32:30 -0600] "GET /manager/text/undeploy?path=/CapstoneProject HTTP/1.1" 200 72
127.0.0.1 - apprentice [05/Nov/2015:11:32:31 -0600] "GET /manager/text/deploy?config=file%3A%2Ftmp%2Fcontext4453651299098138085.xml&path=/CapstoneProject HTTP/1.1" 200 70
127.0.0.1 - apprentice [05/Nov/2015:11:32:31 -0600] "GET /manager/text/start?path=/CapstoneProject HTTP/1.1" 200 69
127.0.0.1 - - [05/Nov/2015:11:32:31 -0600] "GET /CapstoneProject/jsp/contact.jsp HTTP/1.1" 200 2538
127.0.0.1 - - [05/Nov/2015:11:33:30 -0600] "HEAD /netbeans-tomcat-status-test HTTP/1.1" 404 -
127.0.0.1 - - [05/Nov/2015:11:33:30 -0600] "HEAD /netbeans-tomcat-status-test HTTP/1.1" 404 -
127.0.0.1 - - [05/Nov/2015:11:33:30 -0600] "HEAD /netbeans-tomcat-status-test HTTP/1.1" 404 -
127.0.0.1 - apprentice [05/Nov/2015:11:33:30 -0600] "GET /manager/text/list HTTP/1.1" 200 1552
127.0.0.1 - - [05/Nov/2015:11:33:30 -0600] "HEAD /netbeans-tomcat-status-test HTTP/1.1" 404 -
127.0.0.1 - - [05/Nov/2015:11:33:32 -0600] "HEAD /netbeans-tomcat-status-test HTTP/1.1" 404 -
127.0.0.1 - - [05/Nov/2015:11:33:32 -0600] "HEAD /netbeans-tomcat-status-test HTTP/1.1" 404 -
127.0.0.1 - - [05/Nov/2015:11:33:32 -0600] "HEAD /netbeans-tomcat-status-test HTTP/1.1" 404 -
127.0.0.1 - - [05/Nov/2015:11:33:32 -0600] "HEAD /netbeans-tomcat-status-test HTTP/1.1" 404 -
127.0.0.1 - apprentice [05/Nov/2015:11:33:32 -0600] "GET /manager/text/list HTTP/1.1" 200 1552
127.0.0.1 - apprentice [05/Nov/2015:11:33:32 -0600] "GET /manager/text/list HTTP/1.1" 200 1552
127.0.0.1 - apprentice [05/Nov/2015:11:33:32 -0600] "GET /manager/text/undeploy?path=/CapstoneProject HTTP/1.1" 200 72
127.0.0.1 - apprentice [05/Nov/2015:11:33:33 -0600] "GET /manager/text/deploy?config=file%3A%2Ftmp%2Fcontext8869805630872358771.xml&path=/CapstoneProject HTTP/1.1" 200 70
127.0.0.1 - apprentice [05/Nov/2015:11:33:33 -0600] "GET /manager/text/start?path=/CapstoneProject HTTP/1.1" 200 69
127.0.0.1 - - [05/Nov/2015:11:33:34 -0600] "GET /CapstoneProject HTTP/1.1" 302 -
127.0.0.1 - - [05/Nov/2015:11:33:34 -0600] "GET /CapstoneProject/ HTTP/1.1" 200 4161
127.0.0.1 - - [05/Nov/2015:11:33:34 -0600] "GET /CapstoneProject/img/profilepic.jpg HTTP/1.1" 304 -
127.0.0.1 - - [05/Nov/2015:11:33:48 -0600] "HEAD /netbeans-tomcat-status-test HTTP/1.1" 404 -
127.0.0.1 - - [05/Nov/2015:11:33:48 -0600] "HEAD /netbeans-tomcat-status-test HTTP/1.1" 404 -
127.0.0.1 - - [05/Nov/2015:11:33:48 -0600] "HEAD /netbeans-tomcat-status-test HTTP/1.1" 404 -
127.0.0.1 - - [05/Nov/2015:11:33:48 -0600] "HEAD /netbeans-tomcat-status-test HTTP/1.1" 404 -
127.0.0.1 - apprentice [05/Nov/2015:11:33:48 -0600] "GET /manager/text/list HTTP/1.1" 200 1552
127.0.0.1 - apprentice [05/Nov/2015:11:33:48 -0600] "GET /manager/text/list HTTP/1.1" 200 1552
127.0.0.1 - apprentice [05/Nov/2015:11:33:48 -0600] "GET /manager/text/undeploy?path=/CapstoneProject HTTP/1.1" 200 72
127.0.0.1 - apprentice [05/Nov/2015:11:33:49 -0600] "GET /manager/text/deploy?config=file%3A%2Ftmp%2Fcontext7026170481428027405.xml&path=/CapstoneProject HTTP/1.1" 200 70
127.0.0.1 - apprentice [05/Nov/2015:11:33:49 -0600] "GET /manager/text/start?path=/CapstoneProject HTTP/1.1" 200 69
127.0.0.1 - - [05/Nov/2015:11:33:50 -0600] "GET /CapstoneProject/jsp/contact.jsp HTTP/1.1" 200 2625
127.0.0.1 - - [05/Nov/2015:11:33:50 -0600] "GET /CapstoneProject/img/likeusonfacebook.jpg HTTP/1.1" 304 -
127.0.0.1 - - [05/Nov/2015:11:34:32 -0600] "GET /CapstoneProject/home HTTP/1.1" 200 4161
127.0.0.1 - - [05/Nov/2015:11:36:47 -0600] "HEAD /netbeans-tomcat-status-test HTTP/1.1" 404 -
127.0.0.1 - - [05/Nov/2015:11:36:47 -0600] "HEAD /netbeans-tomcat-status-test HTTP/1.1" 404 -
127.0.0.1 - - [05/Nov/2015:11:36:47 -0600] "HEAD /netbeans-tomcat-status-test HTTP/1.1" 404 -
127.0.0.1 - apprentice [05/Nov/2015:11:36:47 -0600] "GET /manager/text/list HTTP/1.1" 200 1552
127.0.0.1 - - [05/Nov/2015:11:36:47 -0600] "HEAD /netbeans-tomcat-status-test HTTP/1.1" 404 -
127.0.0.1 - - [05/Nov/2015:11:36:54 -0600] "HEAD /netbeans-tomcat-status-test HTTP/1.1" 404 -
127.0.0.1 - - [05/Nov/2015:11:36:54 -0600] "HEAD /netbeans-tomcat-status-test HTTP/1.1" 404 -
127.0.0.1 - - [05/Nov/2015:11:36:54 -0600] "HEAD /netbeans-tomcat-status-test HTTP/1.1" 404 -
127.0.0.1 - - [05/Nov/2015:11:36:54 -0600] "HEAD /netbeans-tomcat-status-test HTTP/1.1" 404 -
127.0.0.1 - apprentice [05/Nov/2015:11:36:54 -0600] "GET /manager/text/list HTTP/1.1" 200 1552
127.0.0.1 - apprentice [05/Nov/2015:11:36:54 -0600] "GET /manager/text/list HTTP/1.1" 200 1552
127.0.0.1 - apprentice [05/Nov/2015:11:36:55 -0600] "GET /manager/text/undeploy?path=/CapstoneProject HTTP/1.1" 200 72
127.0.0.1 - apprentice [05/Nov/2015:11:36:56 -0600] "GET /manager/text/deploy?config=file%3A%2Ftmp%2Fcontext2510907478597454578.xml&path=/CapstoneProject HTTP/1.1" 200 70
127.0.0.1 - apprentice [05/Nov/2015:11:36:56 -0600] "GET /manager/text/start?path=/CapstoneProject HTTP/1.1" 200 69
127.0.0.1 - - [05/Nov/2015:11:36:57 -0600] "GET /CapstoneProject/jsp/contact.jsp HTTP/1.1" 200 2625
127.0.0.1 - - [05/Nov/2015:11:36:57 -0600] "GET /CapstoneProject/img/likeusonfacebook.jpg HTTP/1.1" 304 -
127.0.0.1 - - [05/Nov/2015:11:36:57 -0600] "GET /CapstoneProject/css/contactStyles.css HTTP/1.1" 304 -
127.0.0.1 - - [05/Nov/2015:11:37:10 -0600] "GET /CapstoneProject/jsp/disclaimer.jsp HTTP/1.1" 200 2944
127.0.0.1 - - [05/Nov/2015:11:37:10 -0600] "GET /CapstoneProject/css/disclaimerStyles.css HTTP/1.1" 304 -
127.0.0.1 - - [05/Nov/2015:11:37:10 -0600] "GET /CapstoneProject/css/bootstrap.min.css HTTP/1.1" 200 113510
127.0.0.1 - - [05/Nov/2015:11:37:10 -0600] "GET /CapstoneProject/js/jquery-1.11.1.min.js HTTP/1.1" 304 -
127.0.0.1 - - [05/Nov/2015:11:37:10 -0600] "GET /CapstoneProject/js/bootstrap.min.js HTTP/1.1" 304 -
127.0.0.1 - - [05/Nov/2015:11:37:10 -0600] "GET /CapstoneProject/fonts/LadylikeBB.ttf HTTP/1.1" 304 -
127.0.0.1 - - [05/Nov/2015:11:37:10 -0600] "GET /favicon.ico HTTP/1.1" 200 21630
127.0.0.1 - - [05/Nov/2015:11:37:14 -0600] "GET /CapstoneProject/jsp/about.jsp HTTP/1.1" 200 2018
127.0.0.1 - - [05/Nov/2015:11:37:14 -0600] "GET /CapstoneProject/js/bootstrap.min.js HTTP/1.1" 304 -
127.0.0.1 - - [05/Nov/2015:11:37:14 -0600] "GET /CapstoneProject/js/jquery-1.11.1.min.js HTTP/1.1" 304 -
127.0.0.1 - - [05/Nov/2015:11:37:14 -0600] "GET /CapstoneProject/css/bootstrap.min.css HTTP/1.1" 200 113510
127.0.0.1 - - [05/Nov/2015:11:37:14 -0600] "GET /CapstoneProject/css/aboutStyles.css HTTP/1.1" 304 -
127.0.0.1 - - [05/Nov/2015:11:37:14 -0600] "GET /CapstoneProject/fonts/LadylikeBB.ttf HTTP/1.1" 304 -
127.0.0.1 - - [05/Nov/2015:11:37:14 -0600] "GET /favicon.ico HTTP/1.1" 200 21630
127.0.0.1 - - [05/Nov/2015:11:40:24 -0600] "GET /CapstoneProject/home HTTP/1.1" 200 4161
127.0.0.1 - - [05/Nov/2015:11:40:24 -0600] "GET /CapstoneProject/css/homepage.css HTTP/1.1" 304 -
127.0.0.1 - - [05/Nov/2015:11:40:24 -0600] "GET /CapstoneProject/img/profilepic.jpg HTTP/1.1" 304 -
127.0.0.1 - - [05/Nov/2015:11:40:24 -0600] "GET /CapstoneProject/fonts/CutiePop.ttf HTTP/1.1" 304 -
127.0.0.1 - - [05/Nov/2015:11:40:24 -0600] "GET /CapstoneProject/fonts/LadylikeBB.ttf HTTP/1.1" 304 -
127.0.0.1 - - [05/Nov/2015:11:51:26 -0600] "HEAD /netbeans-tomcat-status-test HTTP/1.1" 404 -
127.0.0.1 - - [05/Nov/2015:11:51:26 -0600] "HEAD /netbeans-tomcat-status-test HTTP/1.1" 404 -
127.0.0.1 - apprentice [05/Nov/2015:11:51:26 -0600] "GET /manager/text/list HTTP/1.1" 200 1552
127.0.0.1 - apprentice [05/Nov/2015:11:51:26 -0600] "GET /manager/text/undeploy?path=/CapstoneProject HTTP/1.1" 200 72
127.0.0.1 - - [05/Nov/2015:11:56:02 -0600] "HEAD /netbeans-tomcat-status-test HTTP/1.1" 404 -
127.0.0.1 - - [05/Nov/2015:11:56:02 -0600] "HEAD /netbeans-tomcat-status-test HTTP/1.1" 404 -
127.0.0.1 - - [05/Nov/2015:11:56:02 -0600] "HEAD /netbeans-tomcat-status-test HTTP/1.1" 404 -
127.0.0.1 - apprentice [05/Nov/2015:11:56:02 -0600] "GET /manager/text/list HTTP/1.1" 200 1443
127.0.0.1 - - [05/Nov/2015:11:56:04 -0600] "HEAD /netbeans-tomcat-status-test HTTP/1.1" 404 -
127.0.0.1 - - [05/Nov/2015:11:56:04 -0600] "HEAD /netbeans-tomcat-status-test HTTP/1.1" 404 -
127.0.0.1 - - [05/Nov/2015:11:56:04 -0600] "HEAD /netbeans-tomcat-status-test HTTP/1.1" 404 -
127.0.0.1 - - [05/Nov/2015:11:56:04 -0600] "HEAD /netbeans-tomcat-status-test HTTP/1.1" 404 -
127.0.0.1 - apprentice [05/Nov/2015:11:56:04 -0600] "GET /manager/text/list HTTP/1.1" 200 1443
127.0.0.1 - apprentice [05/Nov/2015:11:56:04 -0600] "GET /manager/text/list HTTP/1.1" 200 1443
127.0.0.1 - apprentice [05/Nov/2015:11:56:05 -0600] "GET /manager/text/deploy?config=file%3A%2Ftmp%2Fcontext5594896176343802699.xml&path=/CapstoneProject HTTP/1.1" 200 70
127.0.0.1 - apprentice [05/Nov/2015:11:56:05 -0600] "GET /manager/text/start?path=/CapstoneProject HTTP/1.1" 200 69
127.0.0.1 - - [05/Nov/2015:11:56:05 -0600] "GET /CapstoneProject HTTP/1.1" 302 -
127.0.0.1 - - [05/Nov/2015:11:56:06 -0600] "GET /CapstoneProject/ HTTP/1.1" 200 4161
127.0.0.1 - - [05/Nov/2015:11:56:06 -0600] "GET /CapstoneProject/css/bootstrap.min.css HTTP/1.1" 304 -
127.0.0.1 - - [05/Nov/2015:11:56:06 -0600] "GET /CapstoneProject/img/profilepic.jpg HTTP/1.1" 304 -
127.0.0.1 - - [05/Nov/2015:11:56:06 -0600] "GET /CapstoneProject/css/homepage.css HTTP/1.1" 304 -
127.0.0.1 - - [05/Nov/2015:11:56:06 -0600] "GET /CapstoneProject/fonts/CutiePop.ttf HTTP/1.1" 304 -
127.0.0.1 - - [05/Nov/2015:11:56:06 -0600] "GET /CapstoneProject/fonts/LadylikeBB.ttf HTTP/1.1" 304 -
127.0.0.1 - - [05/Nov/2015:11:56:16 -0600] "HEAD /netbeans-tomcat-status-test HTTP/1.1" 404 -
127.0.0.1 - - [05/Nov/2015:11:56:16 -0600] "HEAD /netbeans-tomcat-status-test HTTP/1.1" 404 -
127.0.0.1 - - [05/Nov/2015:11:56:16 -0600] "HEAD /netbeans-tomcat-status-test HTTP/1.1" 404 -
127.0.0.1 - apprentice [05/Nov/2015:11:56:16 -0600] "GET /manager/text/list HTTP/1.1" 200 1552
127.0.0.1 - apprentice [05/Nov/2015:11:56:16 -0600] "GET /manager/text/list HTTP/1.1" 200 1552
127.0.0.1 - - [05/Nov/2015:11:56:16 -0600] "HEAD /netbeans-tomcat-status-test HTTP/1.1" 404 -
127.0.0.1 - apprentice [05/Nov/2015:11:56:17 -0600] "GET /manager/text/undeploy?path=/CapstoneProject HTTP/1.1" 200 72
127.0.0.1 - apprentice [05/Nov/2015:11:56:18 -0600] "GET /manager/text/deploy?config=file%3A%2Ftmp%2Fcontext1742062697113318315.xml&path=/CapstoneProject HTTP/1.1" 200 70
127.0.0.1 - apprentice [05/Nov/2015:11:56:18 -0600] "GET /manager/text/start?path=/CapstoneProject HTTP/1.1" 200 69
127.0.0.1 - - [05/Nov/2015:11:56:18 -0600] "GET /CapstoneProject/jsp/about.jsp HTTP/1.1" 200 2205
127.0.0.1 - - [05/Nov/2015:11:56:18 -0600] "GET /CapstoneProject/css/aboutStyles.css HTTP/1.1" 304 -
127.0.0.1 - - [05/Nov/2015:11:56:51 -0600] "HEAD /netbeans-tomcat-status-test HTTP/1.1" 404 -
127.0.0.1 - - [05/Nov/2015:11:56:51 -0600] "HEAD /netbeans-tomcat-status-test HTTP/1.1" 404 -
127.0.0.1 - - [05/Nov/2015:11:56:51 -0600] "HEAD /netbeans-tomcat-status-test HTTP/1.1" 404 -
127.0.0.1 - apprentice [05/Nov/2015:11:56:51 -0600] "GET /manager/text/list HTTP/1.1" 200 1552
127.0.0.1 - - [05/Nov/2015:11:56:51 -0600] "HEAD /netbeans-tomcat-status-test HTTP/1.1" 404 -
127.0.0.1 - - [05/Nov/2015:11:56:56 -0600] "HEAD /netbeans-tomcat-status-test HTTP/1.1" 404 -
127.0.0.1 - - [05/Nov/2015:11:56:56 -0600] "HEAD /netbeans-tomcat-status-test HTTP/1.1" 404 -
127.0.0.1 - - [05/Nov/2015:11:56:56 -0600] "HEAD /netbeans-tomcat-status-test HTTP/1.1" 404 -
127.0.0.1 - - [05/Nov/2015:11:56:56 -0600] "HEAD /netbeans-tomcat-status-test HTTP/1.1" 404 -
127.0.0.1 - apprentice [05/Nov/2015:11:56:56 -0600] "GET /manager/text/list HTTP/1.1" 200 1552
127.0.0.1 - apprentice [05/Nov/2015:11:56:56 -0600] "GET /manager/text/list HTTP/1.1" 200 1552
127.0.0.1 - apprentice [05/Nov/2015:11:56:57 -0600] "GET /manager/text/undeploy?path=/CapstoneProject HTTP/1.1" 200 72
127.0.0.1 - apprentice [05/Nov/2015:11:56:58 -0600] "GET /manager/text/deploy?config=file%3A%2Ftmp%2Fcontext5838773012141253646.xml&path=/CapstoneProject HTTP/1.1" 200 70
127.0.0.1 - apprentice [05/Nov/2015:11:56:58 -0600] "GET /manager/text/start?path=/CapstoneProject HTTP/1.1" 200 69
127.0.0.1 - - [05/Nov/2015:11:56:58 -0600] "GET /CapstoneProject/jsp/about.jsp HTTP/1.1" 200 2205
127.0.0.1 - - [05/Nov/2015:11:57:23 -0600] "HEAD /netbeans-tomcat-status-test HTTP/1.1" 404 -
127.0.0.1 - - [05/Nov/2015:11:57:23 -0600] "HEAD /netbeans-tomcat-status-test HTTP/1.1" 404 -
127.0.0.1 - - [05/Nov/2015:11:57:23 -0600] "HEAD /netbeans-tomcat-status-test HTTP/1.1" 404 -
127.0.0.1 - apprentice [05/Nov/2015:11:57:23 -0600] "GET /manager/text/list HTTP/1.1" 200 1552
127.0.0.1 - - [05/Nov/2015:11:57:23 -0600] "HEAD /netbeans-tomcat-status-test HTTP/1.1" 404 -
127.0.0.1 - - [05/Nov/2015:11:57:29 -0600] "HEAD /netbeans-tomcat-status-test HTTP/1.1" 404 -
127.0.0.1 - - [05/Nov/2015:11:57:29 -0600] "HEAD /netbeans-tomcat-status-test HTTP/1.1" 404 -
127.0.0.1 - - [05/Nov/2015:11:57:29 -0600] "HEAD /netbeans-tomcat-status-test HTTP/1.1" 404 -
127.0.0.1 - - [05/Nov/2015:11:57:29 -0600] "HEAD /netbeans-tomcat-status-test HTTP/1.1" 404 -
127.0.0.1 - apprentice [05/Nov/2015:11:57:29 -0600] "GET /manager/text/list HTTP/1.1" 200 1552
127.0.0.1 - apprentice [05/Nov/2015:11:57:29 -0600] "GET /manager/text/list HTTP/1.1" 200 1552
127.0.0.1 - apprentice [05/Nov/2015:11:57:29 -0600] "GET /manager/text/undeploy?path=/CapstoneProject HTTP/1.1" 200 72
127.0.0.1 - apprentice [05/Nov/2015:11:57:31 -0600] "GET /manager/text/deploy?config=file%3A%2Ftmp%2Fcontext751824433831665102.xml&path=/CapstoneProject HTTP/1.1" 200 70
127.0.0.1 - apprentice [05/Nov/2015:11:57:31 -0600] "GET /manager/text/start?path=/CapstoneProject HTTP/1.1" 200 69
127.0.0.1 - - [05/Nov/2015:11:57:31 -0600] "GET /CapstoneProject/jsp/about.jsp HTTP/1.1" 200 2230
127.0.0.1 - - [05/Nov/2015:11:58:29 -0600] "HEAD /netbeans-tomcat-status-test HTTP/1.1" 404 -
127.0.0.1 - - [05/Nov/2015:11:58:29 -0600] "HEAD /netbeans-tomcat-status-test HTTP/1.1" 404 -
127.0.0.1 - - [05/Nov/2015:11:58:29 -0600] "HEAD /netbeans-tomcat-status-test HTTP/1.1" 404 -
127.0.0.1 - apprentice [05/Nov/2015:11:58:29 -0600] "GET /manager/text/list HTTP/1.1" 200 1552
127.0.0.1 - apprentice [05/Nov/2015:11:58:31 -0600] "GET /manager/text/reload?path=/CapstoneProject HTTP/1.1" 200 70
127.0.0.1 - - [05/Nov/2015:11:58:31 -0600] "HEAD /netbeans-tomcat-status-test HTTP/1.1" 404 -
127.0.0.1 - - [05/Nov/2015:13:03:26 -0600] "HEAD /netbeans-tomcat-status-test HTTP/1.1" 404 -
127.0.0.1 - - [05/Nov/2015:13:03:26 -0600] "HEAD /netbeans-tomcat-status-test HTTP/1.1" 404 -
127.0.0.1 - - [05/Nov/2015:13:03:26 -0600] "HEAD /netbeans-tomcat-status-test HTTP/1.1" 404 -
127.0.0.1 - - [05/Nov/2015:13:03:26 -0600] "HEAD /netbeans-tomcat-status-test HTTP/1.1" 404 -
127.0.0.1 - apprentice [05/Nov/2015:13:03:26 -0600] "GET /manager/text/list HTTP/1.1" 200 1552
127.0.0.1 - apprentice [05/Nov/2015:13:03:26 -0600] "GET /manager/text/list HTTP/1.1" 200 1552
127.0.0.1 - apprentice [05/Nov/2015:13:03:26 -0600] "GET /manager/text/undeploy?path=/CapstoneProject HTTP/1.1" 200 72
127.0.0.1 - apprentice [05/Nov/2015:13:03:27 -0600] "GET /manager/text/deploy?config=file%3A%2Ftmp%2Fcontext1999415289103761672.xml&path=/CapstoneProject HTTP/1.1" 200 70
127.0.0.1 - apprentice [05/Nov/2015:13:03:27 -0600] "GET /manager/text/start?path=/CapstoneProject HTTP/1.1" 200 69
127.0.0.1 - - [05/Nov/2015:13:03:28 -0600] "GET /CapstoneProject HTTP/1.1" 302 -
127.0.0.1 - - [05/Nov/2015:13:03:28 -0600] "GET /CapstoneProject/ HTTP/1.1" 200 4161
127.0.0.1 - - [05/Nov/2015:13:03:28 -0600] "GET /CapstoneProject/css/bootstrap.min.css HTTP/1.1" 304 -
127.0.0.1 - - [05/Nov/2015:13:03:28 -0600] "GET /CapstoneProject/css/homepage.css HTTP/1.1" 304 -
127.0.0.1 - - [05/Nov/2015:13:03:28 -0600] "GET /CapstoneProject/img/profilepic.jpg HTTP/1.1" 304 -
127.0.0.1 - - [05/Nov/2015:13:03:28 -0600] "GET /CapstoneProject/fonts/CutiePop.ttf HTTP/1.1" 304 -
127.0.0.1 - - [05/Nov/2015:13:03:28 -0600] "GET /CapstoneProject/fonts/LadylikeBB.ttf HTTP/1.1" 304 -
127.0.0.1 - - [05/Nov/2015:13:03:51 -0600] "HEAD /netbeans-tomcat-status-test HTTP/1.1" 404 -
127.0.0.1 - - [05/Nov/2015:13:03:51 -0600] "HEAD /netbeans-tomcat-status-test HTTP/1.1" 404 -
127.0.0.1 - - [05/Nov/2015:13:03:51 -0600] "HEAD /netbeans-tomcat-status-test HTTP/1.1" 404 -
127.0.0.1 - - [05/Nov/2015:13:03:51 -0600] "HEAD /netbeans-tomcat-status-test HTTP/1.1" 404 -
127.0.0.1 - apprentice [05/Nov/2015:13:03:51 -0600] "GET /manager/text/list HTTP/1.1" 200 1552
127.0.0.1 - apprentice [05/Nov/2015:13:03:51 -0600] "GET /manager/text/list HTTP/1.1" 200 1552
127.0.0.1 - apprentice [05/Nov/2015:13:03:51 -0600] "GET /manager/text/undeploy?path=/CapstoneProject HTTP/1.1" 200 72
127.0.0.1 - apprentice [05/Nov/2015:13:03:52 -0600] "GET /manager/text/deploy?config=file%3A%2Ftmp%2Fcontext2507721787380453223.xml&path=/CapstoneProject HTTP/1.1" 200 70
127.0.0.1 - apprentice [05/Nov/2015:13:03:52 -0600] "GET /manager/text/start?path=/CapstoneProject HTTP/1.1" 200 69
127.0.0.1 - - [05/Nov/2015:13:03:53 -0600] "GET /CapstoneProject/jsp/admin.jsp HTTP/1.1" 200 4363
127.0.0.1 - - [05/Nov/2015:13:03:53 -0600] "GET /CapstoneProject/js/ItemList.js HTTP/1.1" 404 1054
127.0.0.1 - - [05/Nov/2015:13:03:53 -0600] "GET /CapstoneProject/js/tinymce/tinymce.min.js HTTP/1.1" 304 -
127.0.0.1 - - [05/Nov/2015:13:03:53 -0600] "GET /CapstoneProject/js/tinymce/themes/modern/theme.min.js HTTP/1.1" 304 -
127.0.0.1 - - [05/Nov/2015:13:03:53 -0600] "GET /CapstoneProject/js/tinymce/skins/lightgray/skin.min.css HTTP/1.1" 304 -
127.0.0.1 - - [05/Nov/2015:13:03:53 -0600] "GET /CapstoneProject/js/tinymce/skins/lightgray/content.min.css HTTP/1.1" 304 -
127.0.0.1 - - [05/Nov/2015:13:03:53 -0600] "GET /CapstoneProject/js/tinymce/skins/lightgray/fonts/tinymce.woff HTTP/1.1" 304 -
127.0.0.1 - - [05/Nov/2015:13:04:29 -0600] "POST /CapstoneProject/jsp/admin.jsp HTTP/1.1" 200 4363
127.0.0.1 - - [05/Nov/2015:13:04:29 -0600] "GET /CapstoneProject/js/ItemList.js HTTP/1.1" 404 1054
127.0.0.1 - - [05/Nov/2015:13:04:34 -0600] "GET /CapstoneProject/home HTTP/1.1" 200 4161
127.0.0.1 - - [05/Nov/2015:13:05:04 -0600] "POST /CapstoneProject/jsp/admin.jsp HTTP/1.1" 200 4363
127.0.0.1 - - [05/Nov/2015:13:05:04 -0600] "GET /CapstoneProject/js/ItemList.js HTTP/1.1" 404 1054
127.0.0.1 - - [05/Nov/2015:13:05:32 -0600] "GET /CapstoneProject/posts HTTP/1.1" 200 12
127.0.0.1 - - [05/Nov/2015:13:06:30 -0600] "POST /CapstoneProject/jsp/admin.jsp HTTP/1.1" 200 4363
127.0.0.1 - - [05/Nov/2015:13:06:30 -0600] "GET /CapstoneProject/js/ItemList.js HTTP/1.1" 404 1054
127.0.0.1 - - [05/Nov/2015:13:07:07 -0600] "HEAD /netbeans-tomcat-status-test HTTP/1.1" 404 -
127.0.0.1 - - [05/Nov/2015:13:07:07 -0600] "HEAD /netbeans-tomcat-status-test HTTP/1.1" 404 -
127.0.0.1 - - [05/Nov/2015:13:07:07 -0600] "HEAD /netbeans-tomcat-status-test HTTP/1.1" 404 -
127.0.0.1 - apprentice [05/Nov/2015:13:07:07 -0600] "GET /manager/text/list HTTP/1.1" 200 1552
127.0.0.1 - - [05/Nov/2015:13:07:07 -0600] "HEAD /netbeans-tomcat-status-test HTTP/1.1" 404 -
127.0.0.1 - - [05/Nov/2015:13:07:14 -0600] "HEAD /netbeans-tomcat-status-test HTTP/1.1" 404 -
127.0.0.1 - - [05/Nov/2015:13:07:14 -0600] "HEAD /netbeans-tomcat-status-test HTTP/1.1" 404 -
127.0.0.1 - apprentice [05/Nov/2015:13:07:14 -0600] "GET /manager/text/list HTTP/1.1" 200 1552
127.0.0.1 - apprentice [05/Nov/2015:13:07:14 -0600] "GET /manager/text/undeploy?path=/CapstoneProject HTTP/1.1" 200 72
127.0.0.1 - - [05/Nov/2015:13:07:35 -0600] "HEAD /netbeans-tomcat-status-test HTTP/1.1" 404 -
127.0.0.1 - - [05/Nov/2015:13:07:35 -0600] "HEAD /netbeans-tomcat-status-test HTTP/1.1" 404 -
127.0.0.1 - - [05/Nov/2015:13:07:35 -0600] "HEAD /netbeans-tomcat-status-test HTTP/1.1" 404 -
127.0.0.1 - - [05/Nov/2015:13:07:35 -0600] "HEAD /netbeans-tomcat-status-test HTTP/1.1" 404 -
127.0.0.1 - apprentice [05/Nov/2015:13:07:35 -0600] "GET /manager/text/list HTTP/1.1" 200 1443
127.0.0.1 - apprentice [05/Nov/2015:13:07:35 -0600] "GET /manager/text/list HTTP/1.1" 200 1443
127.0.0.1 - apprentice [05/Nov/2015:13:07:36 -0600] "GET /manager/text/deploy?config=file%3A%2Ftmp%2Fcontext3144450042165993332.xml&path=/CapstoneProject HTTP/1.1" 200 70
127.0.0.1 - apprentice [05/Nov/2015:13:07:36 -0600] "GET /manager/text/start?path=/CapstoneProject HTTP/1.1" 200 69
127.0.0.1 - - [05/Nov/2015:13:07:37 -0600] "GET /CapstoneProject/jsp/admin.jsp HTTP/1.1" 200 4360
127.0.0.1 - - [05/Nov/2015:13:07:37 -0600] "GET /CapstoneProject/js/admin.js HTTP/1.1" 200 7653
127.0.0.1 - - [05/Nov/2015:13:07:48 -0600] "POST /CapstoneProject/jsp/admin.jsp HTTP/1.1" 200 4360
127.0.0.1 - - [05/Nov/2015:13:16:48 -0600] "POST /CapstoneProject/jsp/admin.jsp HTTP/1.1" 200 4360
127.0.0.1 - - [05/Nov/2015:13:16:48 -0600] "GET /CapstoneProject/js/admin.js HTTP/1.1" 304 -
127.0.0.1 - - [05/Nov/2015:13:17:09 -0600] "POST /CapstoneProject/jsp/admin.jsp HTTP/1.1" 200 4360
127.0.0.1 - - [05/Nov/2015:13:17:20 -0600] "POST /CapstoneProject/jsp/admin.jsp HTTP/1.1" 200 4360
127.0.0.1 - - [05/Nov/2015:13:17:37 -0600] "POST /CapstoneProject/jsp/admin.jsp HTTP/1.1" 200 4360
127.0.0.1 - - [05/Nov/2015:15:17:16 -0600] "HEAD /netbeans-tomcat-status-test HTTP/1.1" 404 -
127.0.0.1 - - [05/Nov/2015:15:17:16 -0600] "HEAD /netbeans-tomcat-status-test HTTP/1.1" 404 -
127.0.0.1 - - [05/Nov/2015:15:17:16 -0600] "HEAD /netbeans-tomcat-status-test HTTP/1.1" 404 -
127.0.0.1 - apprentice [05/Nov/2015:15:17:16 -0600] "GET /manager/text/list HTTP/1.1" 200 1552
127.0.0.1 - - [05/Nov/2015:15:17:16 -0600] "HEAD /netbeans-tomcat-status-test HTTP/1.1" 404 -
127.0.0.1 - - [05/Nov/2015:15:17:39 -0600] "HEAD /netbeans-tomcat-status-test HTTP/1.1" 404 -
127.0.0.1 - - [05/Nov/2015:15:17:39 -0600] "HEAD /netbeans-tomcat-status-test HTTP/1.1" 404 -
127.0.0.1 - - [05/Nov/2015:15:17:39 -0600] "HEAD /netbeans-tomcat-status-test HTTP/1.1" 404 -
127.0.0.1 - apprentice [05/Nov/2015:15:17:39 -0600] "GET /manager/text/list HTTP/1.1" 200 1552
127.0.0.1 - apprentice [05/Nov/2015:15:17:40 -0600] "GET /manager/text/reload?path=/CapstoneProject HTTP/1.1" 200 70
127.0.0.1 - - [05/Nov/2015:15:17:40 -0600] "HEAD /netbeans-tomcat-status-test HTTP/1.1" 404 -
127.0.0.1 - - [05/Nov/2015:15:17:40 -0600] "HEAD /netbeans-tomcat-status-test HTTP/1.1" 404 -
127.0.0.1 - - [05/Nov/2015:15:17:40 -0600] "HEAD /netbeans-tomcat-status-test HTTP/1.1" 404 -
127.0.0.1 - apprentice [05/Nov/2015:15:17:40 -0600] "GET /manager/text/list HTTP/1.1" 200 1552
127.0.0.1 - apprentice [05/Nov/2015:15:17:41 -0600] "GET /manager/text/reload?path=/CapstoneProject HTTP/1.1" 200 70
127.0.0.1 - - [05/Nov/2015:15:17:41 -0600] "HEAD /netbeans-tomcat-status-test HTTP/1.1" 404 -
127.0.0.1 - - [05/Nov/2015:15:57:42 -0600] "HEAD /netbeans-tomcat-status-test HTTP/1.1" 404 -
127.0.0.1 - - [05/Nov/2015:15:57:42 -0600] "HEAD /netbeans-tomcat-status-test HTTP/1.1" 404 -
127.0.0.1 - apprentice [05/Nov/2015:15:57:42 -0600] "GET /manager/text/list HTTP/1.1" 200 1552
127.0.0.1 - apprentice [05/Nov/2015:15:57:42 -0600] "GET /manager/text/undeploy?path=/CapstoneProject HTTP/1.1" 200 72
127.0.0.1 - - [05/Nov/2015:15:57:53 -0600] "HEAD /netbeans-tomcat-status-test HTTP/1.1" 404 -
127.0.0.1 - - [05/Nov/2015:15:57:53 -0600] "HEAD /netbeans-tomcat-status-test HTTP/1.1" 404 -
127.0.0.1 - - [05/Nov/2015:15:57:53 -0600] "HEAD /netbeans-tomcat-status-test HTTP/1.1" 404 -
127.0.0.1 - - [05/Nov/2015:15:57:53 -0600] "HEAD /netbeans-tomcat-status-test HTTP/1.1" 404 -
127.0.0.1 - apprentice [05/Nov/2015:15:57:53 -0600] "GET /manager/text/list HTTP/1.1" 200 1443
127.0.0.1 - apprentice [05/Nov/2015:15:57:53 -0600] "GET /manager/text/list HTTP/1.1" 200 1443
127.0.0.1 - apprentice [05/Nov/2015:15:57:55 -0600] "GET /manager/text/deploy?config=file%3A%2Ftmp%2Fcontext7273301971447688402.xml&path=/CapstoneProject HTTP/1.1" 200 70
127.0.0.1 - apprentice [05/Nov/2015:15:57:55 -0600] "GET /manager/text/start?path=/CapstoneProject HTTP/1.1" 200 69
127.0.0.1 - - [05/Nov/2015:15:57:55 -0600] "GET /CapstoneProject HTTP/1.1" 302 -
127.0.0.1 - - [05/Nov/2015:15:57:55 -0600] "GET /CapstoneProject/ HTTP/1.1" 200 4161
127.0.0.1 - - [05/Nov/2015:15:57:55 -0600] "GET /CapstoneProject/css/bootstrap.min.css HTTP/1.1" 304 -
127.0.0.1 - - [05/Nov/2015:15:57:55 -0600] "GET /CapstoneProject/img/profilepic.jpg HTTP/1.1" 304 -
127.0.0.1 - - [05/Nov/2015:15:57:55 -0600] "GET /CapstoneProject/css/homepage.css HTTP/1.1" 304 -
127.0.0.1 - - [05/Nov/2015:15:57:56 -0600] "GET /CapstoneProject/fonts/CutiePop.ttf HTTP/1.1" 304 -
127.0.0.1 - - [05/Nov/2015:15:57:56 -0600] "GET /CapstoneProject/fonts/LadylikeBB.ttf HTTP/1.1" 304 -
127.0.0.1 - - [05/Nov/2015:15:58:03 -0600] "GET /CapstoneProject/contact HTTP/1.1" 404 992
127.0.0.1 - - [05/Nov/2015:15:58:09 -0600] "GET /CapstoneProject/admin HTTP/1.1" 200 4817
127.0.0.1 - - [05/Nov/2015:15:58:09 -0600] "GET /CapstoneProject/js/admin.js HTTP/1.1" 200 7765
127.0.0.1 - - [05/Nov/2015:15:58:09 -0600] "GET /CapstoneProject/js/tinymce/tinymce.min.js HTTP/1.1" 304 -
127.0.0.1 - - [05/Nov/2015:15:58:09 -0600] "GET /CapstoneProject/js/tinymce/themes/modern/theme.min.js HTTP/1.1" 304 -
127.0.0.1 - - [05/Nov/2015:15:58:09 -0600] "GET /CapstoneProject/js/tinymce/skins/lightgray/skin.min.css HTTP/1.1" 304 -
127.0.0.1 - - [05/Nov/2015:15:58:09 -0600] "GET /CapstoneProject/posts HTTP/1.1" 200 152
127.0.0.1 - - [05/Nov/2015:15:58:09 -0600] "GET /CapstoneProject/js/tinymce/skins/lightgray/content.min.css HTTP/1.1" 304 -
127.0.0.1 - - [05/Nov/2015:15:58:09 -0600] "GET /CapstoneProject/js/tinymce/skins/lightgray/fonts/tinymce.woff HTTP/1.1" 304 -
127.0.0.1 - - [05/Nov/2015:15:58:39 -0600] "POST /CapstoneProject/post HTTP/1.1" 201 137
127.0.0.1 - - [05/Nov/2015:15:58:39 -0600] "GET /CapstoneProject/posts HTTP/1.1" 200 139
127.0.0.1 - - [05/Nov/2015:15:59:05 -0600] "POST /CapstoneProject/post HTTP/1.1" 201 142
127.0.0.1 - - [05/Nov/2015:15:59:05 -0600] "GET /CapstoneProject/posts HTTP/1.1" 200 272
