127.0.0.1 - - [10/Nov/2015:09:13:06 -0600] "HEAD /netbeans-tomcat-status-test HTTP/1.1" 404 -
127.0.0.1 - - [10/Nov/2015:09:13:06 -0600] "HEAD /netbeans-tomcat-status-test HTTP/1.1" 404 -
127.0.0.1 - - [10/Nov/2015:09:13:06 -0600] "HEAD /netbeans-tomcat-status-test HTTP/1.1" 404 -
127.0.0.1 - apprentice [10/Nov/2015:09:13:06 -0600] "GET /manager/text/list HTTP/1.1" 200 1333
127.0.0.1 - - [10/Nov/2015:09:13:06 -0600] "HEAD /netbeans-tomcat-status-test HTTP/1.1" 404 -
127.0.0.1 - - [10/Nov/2015:09:25:36 -0600] "HEAD /netbeans-tomcat-status-test HTTP/1.1" 404 -
127.0.0.1 - - [10/Nov/2015:09:25:36 -0600] "HEAD /netbeans-tomcat-status-test HTTP/1.1" 404 -
127.0.0.1 - - [10/Nov/2015:09:25:36 -0600] "HEAD /netbeans-tomcat-status-test HTTP/1.1" 404 -
127.0.0.1 - apprentice [10/Nov/2015:09:25:36 -0600] "GET /manager/text/list HTTP/1.1" 200 1333
127.0.0.1 - - [10/Nov/2015:09:25:36 -0600] "HEAD /netbeans-tomcat-status-test HTTP/1.1" 404 -
127.0.0.1 - - [10/Nov/2015:09:25:39 -0600] "HEAD /netbeans-tomcat-status-test HTTP/1.1" 404 -
127.0.0.1 - - [10/Nov/2015:09:25:39 -0600] "HEAD /netbeans-tomcat-status-test HTTP/1.1" 404 -
127.0.0.1 - apprentice [10/Nov/2015:09:25:39 -0600] "GET /manager/text/list HTTP/1.1" 200 1333
127.0.0.1 - apprentice [10/Nov/2015:09:25:40 -0600] "GET /manager/text/undeploy?path=/CapstoneProject HTTP/1.1" 200 72
127.0.0.1 - - [10/Nov/2015:09:25:48 -0600] "HEAD /netbeans-tomcat-status-test HTTP/1.1" 404 -
127.0.0.1 - - [10/Nov/2015:09:25:48 -0600] "HEAD /netbeans-tomcat-status-test HTTP/1.1" 404 -
127.0.0.1 - - [10/Nov/2015:09:25:48 -0600] "HEAD /netbeans-tomcat-status-test HTTP/1.1" 404 -
127.0.0.1 - - [10/Nov/2015:09:25:48 -0600] "HEAD /netbeans-tomcat-status-test HTTP/1.1" 404 -
127.0.0.1 - apprentice [10/Nov/2015:09:25:48 -0600] "GET /manager/text/list HTTP/1.1" 200 1224
127.0.0.1 - apprentice [10/Nov/2015:09:25:48 -0600] "GET /manager/text/list HTTP/1.1" 200 1224
127.0.0.1 - apprentice [10/Nov/2015:09:25:50 -0600] "GET /manager/text/deploy?config=file%3A%2Ftmp%2Fcontext3755632630124888434.xml&path=/CapstoneProject HTTP/1.1" 200 70
127.0.0.1 - apprentice [10/Nov/2015:09:25:50 -0600] "GET /manager/text/start?path=/CapstoneProject HTTP/1.1" 200 69
127.0.0.1 - - [10/Nov/2015:09:25:51 -0600] "GET /CapstoneProject HTTP/1.1" 302 -
127.0.0.1 - - [10/Nov/2015:09:25:51 -0600] "GET /CapstoneProject/ HTTP/1.1" 200 4651
127.0.0.1 - - [10/Nov/2015:09:25:51 -0600] "GET /CapstoneProject/css/homepage.css HTTP/1.1" 304 -
127.0.0.1 - - [10/Nov/2015:09:25:51 -0600] "GET /CapstoneProject/css/bootstrap.min.css HTTP/1.1" 304 -
127.0.0.1 - - [10/Nov/2015:09:25:51 -0600] "GET /CapstoneProject/img/profilepic.jpg HTTP/1.1" 304 -
127.0.0.1 - - [10/Nov/2015:09:25:51 -0600] "GET /CapstoneProject/js/admin.js HTTP/1.1" 200 8493
127.0.0.1 - - [10/Nov/2015:09:25:51 -0600] "GET /CapstoneProject/js/bootstrap.min.js HTTP/1.1" 304 -
127.0.0.1 - - [10/Nov/2015:09:25:51 -0600] "GET /CapstoneProject/js/jquery-1.11.1.min.js HTTP/1.1" 304 -
127.0.0.1 - - [10/Nov/2015:09:25:51 -0600] "GET /CapstoneProject/fonts/CutiePop.ttf HTTP/1.1" 304 -
127.0.0.1 - - [10/Nov/2015:09:25:51 -0600] "GET /CapstoneProject/fonts/LadylikeBB.ttf HTTP/1.1" 304 -
127.0.0.1 - - [10/Nov/2015:09:25:52 -0600] "GET /CapstoneProject/alltags HTTP/1.1" 200 12
127.0.0.1 - - [10/Nov/2015:09:25:52 -0600] "GET /CapstoneProject/posts HTTP/1.1" 200 316
127.0.0.1 - - [10/Nov/2015:09:25:52 -0600] "GET /CapstoneProject/posts HTTP/1.1" 200 316
127.0.0.1 - - [10/Nov/2015:09:26:08 -0600] "GET /CapstoneProject/login HTTP/1.1" 200 1513
127.0.0.1 - - [10/Nov/2015:09:26:09 -0600] "POST /CapstoneProject/j_spring_security_check HTTP/1.1" 302 -
127.0.0.1 - - [10/Nov/2015:09:26:09 -0600] "GET /CapstoneProject/ HTTP/1.1" 200 4651
127.0.0.1 - - [10/Nov/2015:09:26:09 -0600] "GET /CapstoneProject/js/admin.js HTTP/1.1" 304 -
127.0.0.1 - - [10/Nov/2015:09:26:09 -0600] "GET /CapstoneProject/posts HTTP/1.1" 200 316
127.0.0.1 - - [10/Nov/2015:09:26:09 -0600] "GET /CapstoneProject/alltags HTTP/1.1" 200 12
127.0.0.1 - - [10/Nov/2015:09:26:10 -0600] "GET /CapstoneProject/posts HTTP/1.1" 200 316
127.0.0.1 - - [10/Nov/2015:09:26:15 -0600] "GET /CapstoneProject/admin HTTP/1.1" 200 5702
127.0.0.1 - - [10/Nov/2015:09:26:15 -0600] "GET /CapstoneProject/js/admin.js HTTP/1.1" 304 -
127.0.0.1 - - [10/Nov/2015:09:26:15 -0600] "GET /CapstoneProject/js/tinymce/tinymce.min.js HTTP/1.1" 304 -
127.0.0.1 - - [10/Nov/2015:09:26:15 -0600] "GET /CapstoneProject/posts HTTP/1.1" 200 316
127.0.0.1 - - [10/Nov/2015:09:26:15 -0600] "GET /CapstoneProject/posts HTTP/1.1" 200 316
127.0.0.1 - - [10/Nov/2015:09:26:15 -0600] "GET /CapstoneProject/js/tinymce/themes/modern/theme.min.js HTTP/1.1" 304 -
127.0.0.1 - - [10/Nov/2015:09:26:15 -0600] "GET /CapstoneProject/alltags HTTP/1.1" 200 12
127.0.0.1 - - [10/Nov/2015:09:26:15 -0600] "GET /CapstoneProject/js/tinymce/plugins/image/plugin.min.js HTTP/1.1" 304 -
127.0.0.1 - - [10/Nov/2015:09:26:15 -0600] "GET /CapstoneProject/js/tinymce/plugins/save/plugin.min.js HTTP/1.1" 304 -
127.0.0.1 - - [10/Nov/2015:09:26:15 -0600] "GET /CapstoneProject/js/tinymce/plugins/preview/plugin.min.js HTTP/1.1" 304 -
127.0.0.1 - - [10/Nov/2015:09:26:15 -0600] "GET /CapstoneProject/js/tinymce/skins/lightgray/skin.min.css HTTP/1.1" 304 -
127.0.0.1 - - [10/Nov/2015:09:26:15 -0600] "GET /CapstoneProject/js/tinymce/skins/lightgray/content.min.css HTTP/1.1" 304 -
127.0.0.1 - - [10/Nov/2015:09:26:15 -0600] "GET /CapstoneProject/js/tinymce/skins/lightgray/fonts/tinymce.woff HTTP/1.1" 304 -
127.0.0.1 - - [10/Nov/2015:09:26:38 -0600] "POST /CapstoneProject/post HTTP/1.1" 201 190
127.0.0.1 - - [10/Nov/2015:09:26:38 -0600] "GET /CapstoneProject/posts HTTP/1.1" 200 482
127.0.0.1 - - [10/Nov/2015:09:26:50 -0600] "GET /CapstoneProject/ HTTP/1.1" 200 4651
127.0.0.1 - - [10/Nov/2015:09:26:50 -0600] "GET /CapstoneProject/js/admin.js HTTP/1.1" 304 -
127.0.0.1 - - [10/Nov/2015:09:26:50 -0600] "GET /CapstoneProject/posts HTTP/1.1" 200 482
127.0.0.1 - - [10/Nov/2015:09:26:50 -0600] "GET /CapstoneProject/posts HTTP/1.1" 200 482
127.0.0.1 - - [10/Nov/2015:09:26:50 -0600] "GET /CapstoneProject/alltags HTTP/1.1" 200 37
127.0.0.1 - - [10/Nov/2015:09:27:32 -0600] "HEAD /netbeans-tomcat-status-test HTTP/1.1" 404 -
127.0.0.1 - - [10/Nov/2015:09:27:32 -0600] "HEAD /netbeans-tomcat-status-test HTTP/1.1" 404 -
127.0.0.1 - - [10/Nov/2015:09:27:32 -0600] "HEAD /netbeans-tomcat-status-test HTTP/1.1" 404 -
127.0.0.1 - apprentice [10/Nov/2015:09:27:32 -0600] "GET /manager/text/list HTTP/1.1" 200 1333
127.0.0.1 - - [10/Nov/2015:09:27:32 -0600] "HEAD /netbeans-tomcat-status-test HTTP/1.1" 404 -
127.0.0.1 - - [10/Nov/2015:09:27:33 -0600] "HEAD /netbeans-tomcat-status-test HTTP/1.1" 404 -
127.0.0.1 - - [10/Nov/2015:09:27:33 -0600] "HEAD /netbeans-tomcat-status-test HTTP/1.1" 404 -
127.0.0.1 - - [10/Nov/2015:09:27:33 -0600] "HEAD /netbeans-tomcat-status-test HTTP/1.1" 404 -
127.0.0.1 - - [10/Nov/2015:09:27:33 -0600] "HEAD /netbeans-tomcat-status-test HTTP/1.1" 404 -
127.0.0.1 - apprentice [10/Nov/2015:09:27:33 -0600] "GET /manager/text/list HTTP/1.1" 200 1333
127.0.0.1 - apprentice [10/Nov/2015:09:27:33 -0600] "GET /manager/text/list HTTP/1.1" 200 1333
127.0.0.1 - apprentice [10/Nov/2015:09:27:34 -0600] "GET /manager/text/undeploy?path=/CapstoneProject HTTP/1.1" 200 72
127.0.0.1 - apprentice [10/Nov/2015:09:27:36 -0600] "GET /manager/text/deploy?config=file%3A%2Ftmp%2Fcontext90051034615613546.xml&path=/CapstoneProject HTTP/1.1" 200 70
127.0.0.1 - apprentice [10/Nov/2015:09:27:36 -0600] "GET /manager/text/start?path=/CapstoneProject HTTP/1.1" 200 69
127.0.0.1 - - [10/Nov/2015:09:27:36 -0600] "GET /CapstoneProject HTTP/1.1" 302 -
127.0.0.1 - - [10/Nov/2015:09:27:36 -0600] "GET /CapstoneProject/ HTTP/1.1" 200 4651
127.0.0.1 - - [10/Nov/2015:09:27:36 -0600] "GET /CapstoneProject/js/admin.js HTTP/1.1" 200 8493
127.0.0.1 - - [10/Nov/2015:09:27:37 -0600] "GET /CapstoneProject/alltags HTTP/1.1" 200 37
127.0.0.1 - - [10/Nov/2015:09:27:37 -0600] "GET /CapstoneProject/posts HTTP/1.1" 200 482
127.0.0.1 - - [10/Nov/2015:09:27:37 -0600] "GET /CapstoneProject/posts HTTP/1.1" 200 482
127.0.0.1 - - [10/Nov/2015:09:27:46 -0600] "GET /CapstoneProject/tag/tag HTTP/1.1" 200 178
127.0.0.1 - - [10/Nov/2015:09:27:55 -0600] "GET /CapstoneProject/ HTTP/1.1" 200 4651
127.0.0.1 - - [10/Nov/2015:09:27:55 -0600] "GET /CapstoneProject/js/admin.js HTTP/1.1" 304 -
127.0.0.1 - - [10/Nov/2015:09:27:55 -0600] "GET /CapstoneProject/posts HTTP/1.1" 200 482
127.0.0.1 - - [10/Nov/2015:09:27:55 -0600] "GET /CapstoneProject/alltags HTTP/1.1" 200 37
127.0.0.1 - - [10/Nov/2015:09:27:55 -0600] "GET /CapstoneProject/posts HTTP/1.1" 200 482
127.0.0.1 - - [10/Nov/2015:09:32:09 -0600] "HEAD /netbeans-tomcat-status-test HTTP/1.1" 404 -
127.0.0.1 - - [10/Nov/2015:09:32:09 -0600] "HEAD /netbeans-tomcat-status-test HTTP/1.1" 404 -
127.0.0.1 - - [10/Nov/2015:09:32:09 -0600] "HEAD /netbeans-tomcat-status-test HTTP/1.1" 404 -
127.0.0.1 - apprentice [10/Nov/2015:09:32:09 -0600] "GET /manager/text/list HTTP/1.1" 200 1333
127.0.0.1 - - [10/Nov/2015:09:32:09 -0600] "HEAD /netbeans-tomcat-status-test HTTP/1.1" 404 -
127.0.0.1 - - [10/Nov/2015:09:32:10 -0600] "HEAD /netbeans-tomcat-status-test HTTP/1.1" 404 -
127.0.0.1 - apprentice [10/Nov/2015:09:32:10 -0600] "GET /manager/text/list HTTP/1.1" 200 1333
127.0.0.1 - apprentice [10/Nov/2015:09:32:11 -0600] "GET /manager/text/undeploy?path=/CapstoneProject HTTP/1.1" 200 72
127.0.0.1 - - [10/Nov/2015:09:32:18 -0600] "HEAD /netbeans-tomcat-status-test HTTP/1.1" 404 -
127.0.0.1 - - [10/Nov/2015:09:32:18 -0600] "HEAD /netbeans-tomcat-status-test HTTP/1.1" 404 -
127.0.0.1 - - [10/Nov/2015:09:32:18 -0600] "HEAD /netbeans-tomcat-status-test HTTP/1.1" 404 -
127.0.0.1 - - [10/Nov/2015:09:32:18 -0600] "HEAD /netbeans-tomcat-status-test HTTP/1.1" 404 -
127.0.0.1 - apprentice [10/Nov/2015:09:32:18 -0600] "GET /manager/text/list HTTP/1.1" 200 1224
127.0.0.1 - apprentice [10/Nov/2015:09:32:18 -0600] "GET /manager/text/list HTTP/1.1" 200 1224
127.0.0.1 - apprentice [10/Nov/2015:09:32:21 -0600] "GET /manager/text/deploy?config=file%3A%2Ftmp%2Fcontext6044556664957521402.xml&path=/CapstoneProject HTTP/1.1" 200 70
127.0.0.1 - apprentice [10/Nov/2015:09:32:21 -0600] "GET /manager/text/start?path=/CapstoneProject HTTP/1.1" 200 69
127.0.0.1 - - [10/Nov/2015:09:32:21 -0600] "GET /CapstoneProject HTTP/1.1" 302 -
127.0.0.1 - - [10/Nov/2015:09:32:21 -0600] "GET /CapstoneProject/ HTTP/1.1" 200 4651
127.0.0.1 - - [10/Nov/2015:09:32:21 -0600] "GET /CapstoneProject/js/admin.js HTTP/1.1" 200 8513
127.0.0.1 - - [10/Nov/2015:09:32:22 -0600] "GET /CapstoneProject/alltags HTTP/1.1" 200 37
127.0.0.1 - - [10/Nov/2015:09:32:22 -0600] "GET /CapstoneProject/posts HTTP/1.1" 200 482
127.0.0.1 - - [10/Nov/2015:09:32:22 -0600] "GET /CapstoneProject/posts HTTP/1.1" 200 482
127.0.0.1 - - [10/Nov/2015:09:32:32 -0600] "GET /CapstoneProject/login HTTP/1.1" 200 1513
127.0.0.1 - - [10/Nov/2015:09:32:44 -0600] "POST /CapstoneProject/j_spring_security_check HTTP/1.1" 302 -
127.0.0.1 - - [10/Nov/2015:09:32:44 -0600] "GET /CapstoneProject/ HTTP/1.1" 200 4651
127.0.0.1 - - [10/Nov/2015:09:32:44 -0600] "GET /CapstoneProject/js/admin.js HTTP/1.1" 304 -
127.0.0.1 - - [10/Nov/2015:09:32:44 -0600] "GET /CapstoneProject/posts HTTP/1.1" 200 482
127.0.0.1 - - [10/Nov/2015:09:32:44 -0600] "GET /CapstoneProject/posts HTTP/1.1" 200 482
127.0.0.1 - - [10/Nov/2015:09:32:44 -0600] "GET /CapstoneProject/alltags HTTP/1.1" 200 37
127.0.0.1 - - [10/Nov/2015:09:32:49 -0600] "GET /CapstoneProject/admin HTTP/1.1" 200 5702
127.0.0.1 - - [10/Nov/2015:09:32:49 -0600] "GET /CapstoneProject/js/admin.js HTTP/1.1" 304 -
127.0.0.1 - - [10/Nov/2015:09:32:49 -0600] "GET /CapstoneProject/posts HTTP/1.1" 200 482
127.0.0.1 - - [10/Nov/2015:09:32:49 -0600] "GET /CapstoneProject/alltags HTTP/1.1" 200 37
127.0.0.1 - - [10/Nov/2015:09:32:49 -0600] "GET /CapstoneProject/posts HTTP/1.1" 200 482
127.0.0.1 - - [10/Nov/2015:09:33:07 -0600] "POST /CapstoneProject/post HTTP/1.1" 201 170
127.0.0.1 - - [10/Nov/2015:09:33:07 -0600] "GET /CapstoneProject/posts HTTP/1.1" 200 627
127.0.0.1 - - [10/Nov/2015:09:33:11 -0600] "GET /CapstoneProject/ HTTP/1.1" 200 4651
127.0.0.1 - - [10/Nov/2015:09:33:11 -0600] "GET /CapstoneProject/js/admin.js HTTP/1.1" 304 -
127.0.0.1 - - [10/Nov/2015:09:33:11 -0600] "GET /CapstoneProject/posts HTTP/1.1" 200 627
127.0.0.1 - - [10/Nov/2015:09:33:11 -0600] "GET /CapstoneProject/alltags HTTP/1.1" 200 63
127.0.0.1 - - [10/Nov/2015:09:33:11 -0600] "GET /CapstoneProject/posts HTTP/1.1" 200 627
127.0.0.1 - - [10/Nov/2015:09:41:42 -0600] "HEAD /netbeans-tomcat-status-test HTTP/1.1" 404 -
127.0.0.1 - - [10/Nov/2015:09:41:42 -0600] "HEAD /netbeans-tomcat-status-test HTTP/1.1" 404 -
127.0.0.1 - - [10/Nov/2015:09:41:42 -0600] "HEAD /netbeans-tomcat-status-test HTTP/1.1" 404 -
127.0.0.1 - apprentice [10/Nov/2015:09:41:42 -0600] "GET /manager/text/list HTTP/1.1" 200 1333
127.0.0.1 - - [10/Nov/2015:09:41:42 -0600] "HEAD /netbeans-tomcat-status-test HTTP/1.1" 404 -
127.0.0.1 - - [10/Nov/2015:09:41:43 -0600] "HEAD /netbeans-tomcat-status-test HTTP/1.1" 404 -
127.0.0.1 - apprentice [10/Nov/2015:09:41:43 -0600] "GET /manager/text/list HTTP/1.1" 200 1333
127.0.0.1 - apprentice [10/Nov/2015:09:41:44 -0600] "GET /manager/text/undeploy?path=/CapstoneProject HTTP/1.1" 200 72
127.0.0.1 - - [10/Nov/2015:09:41:56 -0600] "HEAD /netbeans-tomcat-status-test HTTP/1.1" 404 -
127.0.0.1 - - [10/Nov/2015:09:41:56 -0600] "HEAD /netbeans-tomcat-status-test HTTP/1.1" 404 -
127.0.0.1 - - [10/Nov/2015:09:41:56 -0600] "HEAD /netbeans-tomcat-status-test HTTP/1.1" 404 -
127.0.0.1 - - [10/Nov/2015:09:41:56 -0600] "HEAD /netbeans-tomcat-status-test HTTP/1.1" 404 -
127.0.0.1 - apprentice [10/Nov/2015:09:41:56 -0600] "GET /manager/text/list HTTP/1.1" 200 1224
127.0.0.1 - apprentice [10/Nov/2015:09:41:56 -0600] "GET /manager/text/list HTTP/1.1" 200 1224
127.0.0.1 - apprentice [10/Nov/2015:09:41:58 -0600] "GET /manager/text/deploy?config=file%3A%2Ftmp%2Fcontext8328958564343556603.xml&path=/CapstoneProject HTTP/1.1" 200 70
127.0.0.1 - apprentice [10/Nov/2015:09:41:58 -0600] "GET /manager/text/start?path=/CapstoneProject HTTP/1.1" 200 69
127.0.0.1 - - [10/Nov/2015:09:41:59 -0600] "GET /CapstoneProject HTTP/1.1" 302 -
127.0.0.1 - - [10/Nov/2015:09:42:00 -0600] "GET /CapstoneProject/ HTTP/1.1" 200 4651
127.0.0.1 - - [10/Nov/2015:09:42:00 -0600] "GET /CapstoneProject/js/admin.js HTTP/1.1" 200 8515
127.0.0.1 - - [10/Nov/2015:09:42:00 -0600] "GET /CapstoneProject/alltags HTTP/1.1" 200 63
127.0.0.1 - - [10/Nov/2015:09:42:00 -0600] "GET /CapstoneProject/posts HTTP/1.1" 200 627
127.0.0.1 - - [10/Nov/2015:09:42:00 -0600] "GET /CapstoneProject/posts HTTP/1.1" 200 627
127.0.0.1 - - [10/Nov/2015:09:42:58 -0600] "HEAD /netbeans-tomcat-status-test HTTP/1.1" 404 -
127.0.0.1 - - [10/Nov/2015:09:42:58 -0600] "HEAD /netbeans-tomcat-status-test HTTP/1.1" 404 -
127.0.0.1 - apprentice [10/Nov/2015:09:42:58 -0600] "GET /manager/text/list HTTP/1.1" 200 1333
127.0.0.1 - apprentice [10/Nov/2015:09:42:59 -0600] "GET /manager/text/undeploy?path=/CapstoneProject HTTP/1.1" 200 72
127.0.0.1 - - [10/Nov/2015:09:43:11 -0600] "HEAD /netbeans-tomcat-status-test HTTP/1.1" 404 -
127.0.0.1 - - [10/Nov/2015:09:43:11 -0600] "HEAD /netbeans-tomcat-status-test HTTP/1.1" 404 -
127.0.0.1 - - [10/Nov/2015:09:43:11 -0600] "HEAD /netbeans-tomcat-status-test HTTP/1.1" 404 -
127.0.0.1 - - [10/Nov/2015:09:43:11 -0600] "HEAD /netbeans-tomcat-status-test HTTP/1.1" 404 -
127.0.0.1 - apprentice [10/Nov/2015:09:43:11 -0600] "GET /manager/text/list HTTP/1.1" 200 1224
127.0.0.1 - apprentice [10/Nov/2015:09:43:11 -0600] "GET /manager/text/list HTTP/1.1" 200 1224
127.0.0.1 - apprentice [10/Nov/2015:09:43:13 -0600] "GET /manager/text/deploy?config=file%3A%2Ftmp%2Fcontext778565468701016810.xml&path=/CapstoneProject HTTP/1.1" 200 70
127.0.0.1 - apprentice [10/Nov/2015:09:43:13 -0600] "GET /manager/text/start?path=/CapstoneProject HTTP/1.1" 200 69
127.0.0.1 - - [10/Nov/2015:09:43:14 -0600] "GET /CapstoneProject HTTP/1.1" 302 -
127.0.0.1 - - [10/Nov/2015:09:43:14 -0600] "GET /CapstoneProject/ HTTP/1.1" 200 4651
127.0.0.1 - - [10/Nov/2015:09:43:14 -0600] "GET /CapstoneProject/js/admin.js HTTP/1.1" 304 -
127.0.0.1 - - [10/Nov/2015:09:43:14 -0600] "GET /CapstoneProject/posts HTTP/1.1" 200 627
127.0.0.1 - - [10/Nov/2015:09:43:14 -0600] "GET /CapstoneProject/alltags HTTP/1.1" 200 63
127.0.0.1 - - [10/Nov/2015:09:43:14 -0600] "GET /CapstoneProject/posts HTTP/1.1" 200 627
127.0.0.1 - - [10/Nov/2015:09:43:22 -0600] "GET /CapstoneProject/tag/tag2 HTTP/1.1" 200 157
127.0.0.1 - - [10/Nov/2015:09:43:23 -0600] "GET /CapstoneProject/tag/tag HTTP/1.1" 200 178
127.0.0.1 - - [10/Nov/2015:09:47:42 -0600] "HEAD /netbeans-tomcat-status-test HTTP/1.1" 404 -
127.0.0.1 - - [10/Nov/2015:09:47:42 -0600] "HEAD /netbeans-tomcat-status-test HTTP/1.1" 404 -
127.0.0.1 - - [10/Nov/2015:09:47:42 -0600] "HEAD /netbeans-tomcat-status-test HTTP/1.1" 404 -
127.0.0.1 - apprentice [10/Nov/2015:09:47:42 -0600] "GET /manager/text/list HTTP/1.1" 200 1333
127.0.0.1 - - [10/Nov/2015:09:47:42 -0600] "HEAD /netbeans-tomcat-status-test HTTP/1.1" 404 -
127.0.0.1 - - [10/Nov/2015:09:47:44 -0600] "HEAD /netbeans-tomcat-status-test HTTP/1.1" 404 -
127.0.0.1 - - [10/Nov/2015:09:47:44 -0600] "HEAD /netbeans-tomcat-status-test HTTP/1.1" 404 -
127.0.0.1 - - [10/Nov/2015:09:47:44 -0600] "HEAD /netbeans-tomcat-status-test HTTP/1.1" 404 -
127.0.0.1 - - [10/Nov/2015:09:47:44 -0600] "HEAD /netbeans-tomcat-status-test HTTP/1.1" 404 -
127.0.0.1 - apprentice [10/Nov/2015:09:47:47 -0600] "GET /manager/text/list HTTP/1.1" 200 1333
127.0.0.1 - apprentice [10/Nov/2015:09:47:47 -0600] "GET /manager/text/list HTTP/1.1" 200 1333
127.0.0.1 - apprentice [10/Nov/2015:09:47:48 -0600] "GET /manager/text/undeploy?path=/CapstoneProject HTTP/1.1" 200 72
127.0.0.1 - apprentice [10/Nov/2015:09:47:49 -0600] "GET /manager/text/deploy?config=file%3A%2Ftmp%2Fcontext3226251872517716910.xml&path=/CapstoneProject HTTP/1.1" 200 70
127.0.0.1 - apprentice [10/Nov/2015:09:47:49 -0600] "GET /manager/text/start?path=/CapstoneProject HTTP/1.1" 200 69
127.0.0.1 - - [10/Nov/2015:09:47:50 -0600] "GET /CapstoneProject HTTP/1.1" 302 -
127.0.0.1 - - [10/Nov/2015:09:47:50 -0600] "GET /CapstoneProject/ HTTP/1.1" 200 4651
127.0.0.1 - - [10/Nov/2015:09:47:50 -0600] "GET /CapstoneProject/js/admin.js HTTP/1.1" 200 8533
127.0.0.1 - - [10/Nov/2015:09:47:51 -0600] "GET /CapstoneProject/alltags HTTP/1.1" 200 63
127.0.0.1 - - [10/Nov/2015:09:47:51 -0600] "GET /CapstoneProject/posts HTTP/1.1" 200 627
127.0.0.1 - - [10/Nov/2015:09:47:51 -0600] "GET /CapstoneProject/posts HTTP/1.1" 200 627
127.0.0.1 - - [10/Nov/2015:09:48:12 -0600] "HEAD /netbeans-tomcat-status-test HTTP/1.1" 404 -
127.0.0.1 - - [10/Nov/2015:09:48:12 -0600] "HEAD /netbeans-tomcat-status-test HTTP/1.1" 404 -
127.0.0.1 - apprentice [10/Nov/2015:09:48:12 -0600] "GET /manager/text/list HTTP/1.1" 200 1333
127.0.0.1 - apprentice [10/Nov/2015:09:48:13 -0600] "GET /manager/text/undeploy?path=/CapstoneProject HTTP/1.1" 200 72
127.0.0.1 - - [10/Nov/2015:09:48:25 -0600] "HEAD /netbeans-tomcat-status-test HTTP/1.1" 404 -
127.0.0.1 - - [10/Nov/2015:09:48:25 -0600] "HEAD /netbeans-tomcat-status-test HTTP/1.1" 404 -
127.0.0.1 - - [10/Nov/2015:09:48:25 -0600] "HEAD /netbeans-tomcat-status-test HTTP/1.1" 404 -
127.0.0.1 - - [10/Nov/2015:09:48:25 -0600] "HEAD /netbeans-tomcat-status-test HTTP/1.1" 404 -
127.0.0.1 - apprentice [10/Nov/2015:09:48:25 -0600] "GET /manager/text/list HTTP/1.1" 200 1224
127.0.0.1 - apprentice [10/Nov/2015:09:48:25 -0600] "GET /manager/text/list HTTP/1.1" 200 1224
127.0.0.1 - apprentice [10/Nov/2015:09:48:26 -0600] "GET /manager/text/deploy?config=file%3A%2Ftmp%2Fcontext6903306979742300444.xml&path=/CapstoneProject HTTP/1.1" 200 70
127.0.0.1 - apprentice [10/Nov/2015:09:48:26 -0600] "GET /manager/text/start?path=/CapstoneProject HTTP/1.1" 200 69
127.0.0.1 - - [10/Nov/2015:09:48:27 -0600] "GET /CapstoneProject HTTP/1.1" 302 -
127.0.0.1 - - [10/Nov/2015:09:48:27 -0600] "GET /CapstoneProject/ HTTP/1.1" 200 4651
127.0.0.1 - - [10/Nov/2015:09:48:27 -0600] "GET /CapstoneProject/js/admin.js HTTP/1.1" 304 -
127.0.0.1 - - [10/Nov/2015:09:48:28 -0600] "GET /CapstoneProject/alltags HTTP/1.1" 200 63
127.0.0.1 - - [10/Nov/2015:09:48:28 -0600] "GET /CapstoneProject/posts HTTP/1.1" 200 627
127.0.0.1 - - [10/Nov/2015:09:48:28 -0600] "GET /CapstoneProject/posts HTTP/1.1" 200 627
127.0.0.1 - - [10/Nov/2015:09:53:06 -0600] "HEAD /netbeans-tomcat-status-test HTTP/1.1" 404 -
127.0.0.1 - - [10/Nov/2015:09:53:06 -0600] "HEAD /netbeans-tomcat-status-test HTTP/1.1" 404 -
127.0.0.1 - - [10/Nov/2015:09:53:06 -0600] "HEAD /netbeans-tomcat-status-test HTTP/1.1" 404 -
127.0.0.1 - apprentice [10/Nov/2015:09:53:06 -0600] "GET /manager/text/list HTTP/1.1" 200 1333
127.0.0.1 - - [10/Nov/2015:09:53:06 -0600] "HEAD /netbeans-tomcat-status-test HTTP/1.1" 404 -
127.0.0.1 - - [10/Nov/2015:09:53:22 -0600] "HEAD /netbeans-tomcat-status-test HTTP/1.1" 404 -
127.0.0.1 - - [10/Nov/2015:09:53:22 -0600] "HEAD /netbeans-tomcat-status-test HTTP/1.1" 404 -
127.0.0.1 - apprentice [10/Nov/2015:09:53:22 -0600] "GET /manager/text/list HTTP/1.1" 200 1333
127.0.0.1 - apprentice [10/Nov/2015:09:53:23 -0600] "GET /manager/text/undeploy?path=/CapstoneProject HTTP/1.1" 200 72
127.0.0.1 - - [10/Nov/2015:09:53:51 -0600] "HEAD /netbeans-tomcat-status-test HTTP/1.1" 404 -
127.0.0.1 - - [10/Nov/2015:09:53:51 -0600] "HEAD /netbeans-tomcat-status-test HTTP/1.1" 404 -
127.0.0.1 - apprentice [10/Nov/2015:09:53:51 -0600] "GET /manager/text/list HTTP/1.1" 200 1224
127.0.0.1 - - [10/Nov/2015:09:54:01 -0600] "HEAD /netbeans-tomcat-status-test HTTP/1.1" 404 -
127.0.0.1 - - [10/Nov/2015:09:54:01 -0600] "HEAD /netbeans-tomcat-status-test HTTP/1.1" 404 -
127.0.0.1 - - [10/Nov/2015:09:54:01 -0600] "HEAD /netbeans-tomcat-status-test HTTP/1.1" 404 -
127.0.0.1 - - [10/Nov/2015:09:54:01 -0600] "HEAD /netbeans-tomcat-status-test HTTP/1.1" 404 -
127.0.0.1 - apprentice [10/Nov/2015:09:54:01 -0600] "GET /manager/text/list HTTP/1.1" 200 1224
127.0.0.1 - apprentice [10/Nov/2015:09:54:01 -0600] "GET /manager/text/list HTTP/1.1" 200 1224
127.0.0.1 - apprentice [10/Nov/2015:09:54:03 -0600] "GET /manager/text/deploy?config=file%3A%2Ftmp%2Fcontext979161328590522855.xml&path=/CapstoneProject HTTP/1.1" 200 70
127.0.0.1 - apprentice [10/Nov/2015:09:54:03 -0600] "GET /manager/text/start?path=/CapstoneProject HTTP/1.1" 200 69
127.0.0.1 - - [10/Nov/2015:09:54:04 -0600] "GET /CapstoneProject HTTP/1.1" 302 -
127.0.0.1 - - [10/Nov/2015:09:54:04 -0600] "GET /CapstoneProject/ HTTP/1.1" 200 4651
127.0.0.1 - - [10/Nov/2015:09:54:04 -0600] "GET /CapstoneProject/js/admin.js HTTP/1.1" 200 8590
127.0.0.1 - - [10/Nov/2015:09:54:05 -0600] "GET /CapstoneProject/alltags HTTP/1.1" 200 63
127.0.0.1 - - [10/Nov/2015:09:54:05 -0600] "GET /CapstoneProject/posts HTTP/1.1" 200 627
127.0.0.1 - - [10/Nov/2015:09:54:05 -0600] "GET /CapstoneProject/posts HTTP/1.1" 200 627
127.0.0.1 - - [10/Nov/2015:09:54:48 -0600] "HEAD /netbeans-tomcat-status-test HTTP/1.1" 404 -
127.0.0.1 - - [10/Nov/2015:09:54:48 -0600] "HEAD /netbeans-tomcat-status-test HTTP/1.1" 404 -
127.0.0.1 - - [10/Nov/2015:09:54:48 -0600] "HEAD /netbeans-tomcat-status-test HTTP/1.1" 404 -
127.0.0.1 - apprentice [10/Nov/2015:09:54:48 -0600] "GET /manager/text/list HTTP/1.1" 200 1333
127.0.0.1 - - [10/Nov/2015:09:54:48 -0600] "HEAD /netbeans-tomcat-status-test HTTP/1.1" 404 -
127.0.0.1 - - [10/Nov/2015:09:54:49 -0600] "HEAD /netbeans-tomcat-status-test HTTP/1.1" 404 -
127.0.0.1 - - [10/Nov/2015:09:54:49 -0600] "HEAD /netbeans-tomcat-status-test HTTP/1.1" 404 -
127.0.0.1 - - [10/Nov/2015:09:54:49 -0600] "HEAD /netbeans-tomcat-status-test HTTP/1.1" 404 -
127.0.0.1 - apprentice [10/Nov/2015:09:54:49 -0600] "GET /manager/text/list HTTP/1.1" 200 1333
127.0.0.1 - - [10/Nov/2015:09:54:49 -0600] "HEAD /netbeans-tomcat-status-test HTTP/1.1" 404 -
127.0.0.1 - apprentice [10/Nov/2015:09:54:49 -0600] "GET /manager/text/list HTTP/1.1" 200 1333
127.0.0.1 - apprentice [10/Nov/2015:09:54:49 -0600] "GET /manager/text/undeploy?path=/CapstoneProject HTTP/1.1" 200 72
127.0.0.1 - apprentice [10/Nov/2015:09:54:51 -0600] "GET /manager/text/deploy?config=file%3A%2Ftmp%2Fcontext3780214103316193985.xml&path=/CapstoneProject HTTP/1.1" 200 70
127.0.0.1 - apprentice [10/Nov/2015:09:54:51 -0600] "GET /manager/text/start?path=/CapstoneProject HTTP/1.1" 200 69
127.0.0.1 - - [10/Nov/2015:09:54:51 -0600] "GET /CapstoneProject HTTP/1.1" 302 -
127.0.0.1 - - [10/Nov/2015:09:54:52 -0600] "GET /CapstoneProject/ HTTP/1.1" 200 4651
127.0.0.1 - - [10/Nov/2015:09:54:52 -0600] "GET /CapstoneProject/js/admin.js HTTP/1.1" 200 8599
127.0.0.1 - - [10/Nov/2015:09:54:52 -0600] "GET /CapstoneProject/posts HTTP/1.1" 200 627
127.0.0.1 - - [10/Nov/2015:09:54:52 -0600] "GET /CapstoneProject/alltags HTTP/1.1" 200 63
127.0.0.1 - - [10/Nov/2015:09:54:52 -0600] "GET /CapstoneProject/posts HTTP/1.1" 200 627
127.0.0.1 - - [10/Nov/2015:09:58:34 -0600] "HEAD /netbeans-tomcat-status-test HTTP/1.1" 404 -
127.0.0.1 - - [10/Nov/2015:09:58:34 -0600] "HEAD /netbeans-tomcat-status-test HTTP/1.1" 404 -
127.0.0.1 - - [10/Nov/2015:09:58:34 -0600] "HEAD /netbeans-tomcat-status-test HTTP/1.1" 404 -
127.0.0.1 - apprentice [10/Nov/2015:09:58:34 -0600] "GET /manager/text/list HTTP/1.1" 200 1333
127.0.0.1 - - [10/Nov/2015:09:58:34 -0600] "HEAD /netbeans-tomcat-status-test HTTP/1.1" 404 -
127.0.0.1 - - [10/Nov/2015:09:58:35 -0600] "HEAD /netbeans-tomcat-status-test HTTP/1.1" 404 -
127.0.0.1 - apprentice [10/Nov/2015:09:58:35 -0600] "GET /manager/text/list HTTP/1.1" 200 1333
127.0.0.1 - apprentice [10/Nov/2015:09:58:35 -0600] "GET /manager/text/undeploy?path=/CapstoneProject HTTP/1.1" 200 72
127.0.0.1 - - [10/Nov/2015:09:58:43 -0600] "HEAD /netbeans-tomcat-status-test HTTP/1.1" 404 -
127.0.0.1 - - [10/Nov/2015:09:58:43 -0600] "HEAD /netbeans-tomcat-status-test HTTP/1.1" 404 -
127.0.0.1 - - [10/Nov/2015:09:58:43 -0600] "HEAD /netbeans-tomcat-status-test HTTP/1.1" 404 -
127.0.0.1 - - [10/Nov/2015:09:58:43 -0600] "HEAD /netbeans-tomcat-status-test HTTP/1.1" 404 -
127.0.0.1 - apprentice [10/Nov/2015:09:58:43 -0600] "GET /manager/text/list HTTP/1.1" 200 1224
127.0.0.1 - apprentice [10/Nov/2015:09:58:43 -0600] "GET /manager/text/list HTTP/1.1" 200 1224
127.0.0.1 - apprentice [10/Nov/2015:09:58:45 -0600] "GET /manager/text/deploy?config=file%3A%2Ftmp%2Fcontext6976703807335546465.xml&path=/CapstoneProject HTTP/1.1" 200 70
127.0.0.1 - apprentice [10/Nov/2015:09:58:45 -0600] "GET /manager/text/start?path=/CapstoneProject HTTP/1.1" 200 69
127.0.0.1 - - [10/Nov/2015:09:58:45 -0600] "GET /CapstoneProject HTTP/1.1" 302 -
127.0.0.1 - - [10/Nov/2015:09:58:45 -0600] "GET /CapstoneProject/ HTTP/1.1" 200 4651
127.0.0.1 - - [10/Nov/2015:09:58:45 -0600] "GET /CapstoneProject/js/admin.js HTTP/1.1" 200 8601
127.0.0.1 - - [10/Nov/2015:09:58:46 -0600] "GET /CapstoneProject/alltags HTTP/1.1" 200 63
127.0.0.1 - - [10/Nov/2015:09:58:46 -0600] "GET /CapstoneProject/posts HTTP/1.1" 200 627
127.0.0.1 - - [10/Nov/2015:09:58:46 -0600] "GET /CapstoneProject/posts HTTP/1.1" 200 627
127.0.0.1 - - [10/Nov/2015:09:59:59 -0600] "HEAD /netbeans-tomcat-status-test HTTP/1.1" 404 -
127.0.0.1 - - [10/Nov/2015:09:59:59 -0600] "HEAD /netbeans-tomcat-status-test HTTP/1.1" 404 -
127.0.0.1 - - [10/Nov/2015:09:59:59 -0600] "HEAD /netbeans-tomcat-status-test HTTP/1.1" 404 -
127.0.0.1 - apprentice [10/Nov/2015:09:59:59 -0600] "GET /manager/text/list HTTP/1.1" 200 1333
127.0.0.1 - - [10/Nov/2015:09:59:59 -0600] "HEAD /netbeans-tomcat-status-test HTTP/1.1" 404 -
127.0.0.1 - - [10/Nov/2015:10:00:00 -0600] "HEAD /netbeans-tomcat-status-test HTTP/1.1" 404 -
127.0.0.1 - apprentice [10/Nov/2015:10:00:00 -0600] "GET /manager/text/list HTTP/1.1" 200 1333
127.0.0.1 - apprentice [10/Nov/2015:10:00:01 -0600] "GET /manager/text/undeploy?path=/CapstoneProject HTTP/1.1" 200 72
127.0.0.1 - - [10/Nov/2015:10:00:01 -0600] "HEAD /netbeans-tomcat-status-test HTTP/1.1" 404 -
127.0.0.1 - - [10/Nov/2015:10:00:01 -0600] "HEAD /netbeans-tomcat-status-test HTTP/1.1" 404 -
127.0.0.1 - - [10/Nov/2015:10:00:01 -0600] "HEAD /netbeans-tomcat-status-test HTTP/1.1" 404 -
127.0.0.1 - - [10/Nov/2015:10:00:01 -0600] "HEAD /netbeans-tomcat-status-test HTTP/1.1" 404 -
127.0.0.1 - apprentice [10/Nov/2015:10:00:01 -0600] "GET /manager/text/list HTTP/1.1" 200 1224
127.0.0.1 - apprentice [10/Nov/2015:10:00:01 -0600] "GET /manager/text/list HTTP/1.1" 200 1224
127.0.0.1 - apprentice [10/Nov/2015:10:00:04 -0600] "GET /manager/text/deploy?config=file%3A%2Ftmp%2Fcontext5156552714376046714.xml&path=/CapstoneProject HTTP/1.1" 200 70
127.0.0.1 - apprentice [10/Nov/2015:10:00:04 -0600] "GET /manager/text/start?path=/CapstoneProject HTTP/1.1" 200 69
127.0.0.1 - - [10/Nov/2015:10:00:06 -0600] "GET /CapstoneProject HTTP/1.1" 302 -
127.0.0.1 - - [10/Nov/2015:10:00:06 -0600] "GET /CapstoneProject/ HTTP/1.1" 503 -
127.0.0.1 - - [10/Nov/2015:10:01:23 -0600] "HEAD /netbeans-tomcat-status-test HTTP/1.1" 404 -
127.0.0.1 - - [10/Nov/2015:10:01:23 -0600] "HEAD /netbeans-tomcat-status-test HTTP/1.1" 404 -
127.0.0.1 - - [10/Nov/2015:10:01:23 -0600] "HEAD /netbeans-tomcat-status-test HTTP/1.1" 404 -
127.0.0.1 - - [10/Nov/2015:10:01:23 -0600] "HEAD /netbeans-tomcat-status-test HTTP/1.1" 404 -
127.0.0.1 - apprentice [10/Nov/2015:10:01:23 -0600] "GET /manager/text/list HTTP/1.1" 200 1333
127.0.0.1 - apprentice [10/Nov/2015:10:01:23 -0600] "GET /manager/text/list HTTP/1.1" 200 1333
127.0.0.1 - apprentice [10/Nov/2015:10:01:23 -0600] "GET /manager/text/undeploy?path=/CapstoneProject HTTP/1.1" 200 72
127.0.0.1 - apprentice [10/Nov/2015:10:01:26 -0600] "GET /manager/text/deploy?config=file%3A%2Ftmp%2Fcontext4755201821787303792.xml&path=/CapstoneProject HTTP/1.1" 200 70
127.0.0.1 - apprentice [10/Nov/2015:10:01:26 -0600] "GET /manager/text/start?path=/CapstoneProject HTTP/1.1" 200 69
127.0.0.1 - - [10/Nov/2015:10:01:26 -0600] "GET /CapstoneProject HTTP/1.1" 302 -
127.0.0.1 - - [10/Nov/2015:10:01:27 -0600] "GET /CapstoneProject/ HTTP/1.1" 200 4651
127.0.0.1 - - [10/Nov/2015:10:01:27 -0600] "GET /CapstoneProject/js/admin.js HTTP/1.1" 200 8601
127.0.0.1 - - [10/Nov/2015:10:01:27 -0600] "GET /CapstoneProject/alltags HTTP/1.1" 200 63
127.0.0.1 - - [10/Nov/2015:10:01:27 -0600] "GET /CapstoneProject/posts HTTP/1.1" 200 627
127.0.0.1 - - [10/Nov/2015:10:01:27 -0600] "GET /CapstoneProject/posts HTTP/1.1" 200 627
127.0.0.1 - - [10/Nov/2015:10:02:12 -0600] "HEAD /netbeans-tomcat-status-test HTTP/1.1" 404 -
127.0.0.1 - - [10/Nov/2015:10:02:12 -0600] "HEAD /netbeans-tomcat-status-test HTTP/1.1" 404 -
127.0.0.1 - - [10/Nov/2015:10:02:12 -0600] "HEAD /netbeans-tomcat-status-test HTTP/1.1" 404 -
127.0.0.1 - apprentice [10/Nov/2015:10:02:12 -0600] "GET /manager/text/list HTTP/1.1" 200 1333
127.0.0.1 - - [10/Nov/2015:10:02:12 -0600] "HEAD /netbeans-tomcat-status-test HTTP/1.1" 404 -
127.0.0.1 - - [10/Nov/2015:10:02:13 -0600] "HEAD /netbeans-tomcat-status-test HTTP/1.1" 404 -
127.0.0.1 - apprentice [10/Nov/2015:10:02:13 -0600] "GET /manager/text/list HTTP/1.1" 200 1333
127.0.0.1 - apprentice [10/Nov/2015:10:02:14 -0600] "GET /manager/text/undeploy?path=/CapstoneProject HTTP/1.1" 200 72
127.0.0.1 - - [10/Nov/2015:10:02:21 -0600] "HEAD /netbeans-tomcat-status-test HTTP/1.1" 404 -
127.0.0.1 - - [10/Nov/2015:10:02:21 -0600] "HEAD /netbeans-tomcat-status-test HTTP/1.1" 404 -
127.0.0.1 - - [10/Nov/2015:10:02:21 -0600] "HEAD /netbeans-tomcat-status-test HTTP/1.1" 404 -
127.0.0.1 - - [10/Nov/2015:10:02:21 -0600] "HEAD /netbeans-tomcat-status-test HTTP/1.1" 404 -
127.0.0.1 - apprentice [10/Nov/2015:10:02:21 -0600] "GET /manager/text/list HTTP/1.1" 200 1224
127.0.0.1 - apprentice [10/Nov/2015:10:02:21 -0600] "GET /manager/text/list HTTP/1.1" 200 1224
127.0.0.1 - apprentice [10/Nov/2015:10:02:23 -0600] "GET /manager/text/deploy?config=file%3A%2Ftmp%2Fcontext3088069286143134283.xml&path=/CapstoneProject HTTP/1.1" 200 70
127.0.0.1 - apprentice [10/Nov/2015:10:02:23 -0600] "GET /manager/text/start?path=/CapstoneProject HTTP/1.1" 200 69
127.0.0.1 - - [10/Nov/2015:10:02:24 -0600] "GET /CapstoneProject HTTP/1.1" 302 -
127.0.0.1 - - [10/Nov/2015:10:02:24 -0600] "GET /CapstoneProject/ HTTP/1.1" 200 4651
127.0.0.1 - - [10/Nov/2015:10:02:24 -0600] "GET /CapstoneProject/js/admin.js HTTP/1.1" 200 8572
127.0.0.1 - - [10/Nov/2015:10:02:24 -0600] "GET /CapstoneProject/alltags HTTP/1.1" 200 63
127.0.0.1 - - [10/Nov/2015:10:02:24 -0600] "GET /CapstoneProject/posts HTTP/1.1" 200 627
127.0.0.1 - - [10/Nov/2015:10:02:24 -0600] "GET /CapstoneProject/posts HTTP/1.1" 200 627
127.0.0.1 - - [10/Nov/2015:10:02:40 -0600] "HEAD /netbeans-tomcat-status-test HTTP/1.1" 404 -
127.0.0.1 - - [10/Nov/2015:10:02:40 -0600] "HEAD /netbeans-tomcat-status-test HTTP/1.1" 404 -
127.0.0.1 - - [10/Nov/2015:10:02:40 -0600] "HEAD /netbeans-tomcat-status-test HTTP/1.1" 404 -
127.0.0.1 - apprentice [10/Nov/2015:10:02:40 -0600] "GET /manager/text/list HTTP/1.1" 200 1333
127.0.0.1 - - [10/Nov/2015:10:02:40 -0600] "HEAD /netbeans-tomcat-status-test HTTP/1.1" 404 -
127.0.0.1 - - [10/Nov/2015:10:02:41 -0600] "HEAD /netbeans-tomcat-status-test HTTP/1.1" 404 -
127.0.0.1 - - [10/Nov/2015:10:02:41 -0600] "HEAD /netbeans-tomcat-status-test HTTP/1.1" 404 -
127.0.0.1 - - [10/Nov/2015:10:02:41 -0600] "HEAD /netbeans-tomcat-status-test HTTP/1.1" 404 -
127.0.0.1 - - [10/Nov/2015:10:02:41 -0600] "HEAD /netbeans-tomcat-status-test HTTP/1.1" 404 -
127.0.0.1 - apprentice [10/Nov/2015:10:02:41 -0600] "GET /manager/text/list HTTP/1.1" 200 1333
127.0.0.1 - apprentice [10/Nov/2015:10:02:41 -0600] "GET /manager/text/list HTTP/1.1" 200 1333
127.0.0.1 - apprentice [10/Nov/2015:10:02:42 -0600] "GET /manager/text/undeploy?path=/CapstoneProject HTTP/1.1" 200 72
127.0.0.1 - apprentice [10/Nov/2015:10:02:44 -0600] "GET /manager/text/deploy?config=file%3A%2Ftmp%2Fcontext4197929441880126624.xml&path=/CapstoneProject HTTP/1.1" 200 70
127.0.0.1 - apprentice [10/Nov/2015:10:02:44 -0600] "GET /manager/text/start?path=/CapstoneProject HTTP/1.1" 200 69
127.0.0.1 - - [10/Nov/2015:10:02:44 -0600] "GET /CapstoneProject HTTP/1.1" 302 -
127.0.0.1 - - [10/Nov/2015:10:02:44 -0600] "GET /CapstoneProject/ HTTP/1.1" 200 4651
127.0.0.1 - - [10/Nov/2015:10:02:44 -0600] "GET /CapstoneProject/js/admin.js HTTP/1.1" 200 8572
127.0.0.1 - - [10/Nov/2015:10:02:45 -0600] "GET /CapstoneProject/posts HTTP/1.1" 200 627
127.0.0.1 - - [10/Nov/2015:10:02:45 -0600] "GET /CapstoneProject/alltags HTTP/1.1" 200 63
127.0.0.1 - - [10/Nov/2015:10:02:45 -0600] "GET /CapstoneProject/posts HTTP/1.1" 200 627
127.0.0.1 - - [10/Nov/2015:10:28:24 -0600] "HEAD /netbeans-tomcat-status-test HTTP/1.1" 404 -
127.0.0.1 - - [10/Nov/2015:10:28:24 -0600] "HEAD /netbeans-tomcat-status-test HTTP/1.1" 404 -
127.0.0.1 - - [10/Nov/2015:10:28:24 -0600] "HEAD /netbeans-tomcat-status-test HTTP/1.1" 404 -
127.0.0.1 - apprentice [10/Nov/2015:10:28:24 -0600] "GET /manager/text/list HTTP/1.1" 200 1333
127.0.0.1 - - [10/Nov/2015:10:28:24 -0600] "HEAD /netbeans-tomcat-status-test HTTP/1.1" 404 -
127.0.0.1 - - [10/Nov/2015:10:28:35 -0600] "HEAD /netbeans-tomcat-status-test HTTP/1.1" 404 -
127.0.0.1 - - [10/Nov/2015:10:28:35 -0600] "HEAD /netbeans-tomcat-status-test HTTP/1.1" 404 -
127.0.0.1 - - [10/Nov/2015:10:28:35 -0600] "HEAD /netbeans-tomcat-status-test HTTP/1.1" 404 -
127.0.0.1 - apprentice [10/Nov/2015:10:28:35 -0600] "GET /manager/text/list HTTP/1.1" 200 1333
127.0.0.1 - - [10/Nov/2015:10:28:35 -0600] "HEAD /netbeans-tomcat-status-test HTTP/1.1" 404 -
127.0.0.1 - - [10/Nov/2015:10:28:36 -0600] "HEAD /netbeans-tomcat-status-test HTTP/1.1" 404 -
127.0.0.1 - - [10/Nov/2015:10:28:36 -0600] "HEAD /netbeans-tomcat-status-test HTTP/1.1" 404 -
127.0.0.1 - apprentice [10/Nov/2015:10:28:36 -0600] "GET /manager/text/list HTTP/1.1" 200 1333
127.0.0.1 - apprentice [10/Nov/2015:10:28:38 -0600] "GET /manager/text/reload?path=/CapstoneProject HTTP/1.1" 200 70
127.0.0.1 - - [10/Nov/2015:10:28:38 -0600] "HEAD /netbeans-tomcat-status-test HTTP/1.1" 404 -
127.0.0.1 - - [10/Nov/2015:10:30:54 -0600] "GET /CapstoneProject/admin HTTP/1.1" 302 -
127.0.0.1 - - [10/Nov/2015:10:30:54 -0600] "GET /CapstoneProject/login HTTP/1.1" 200 1513
127.0.0.1 - - [10/Nov/2015:10:30:56 -0600] "POST /CapstoneProject/j_spring_security_check HTTP/1.1" 302 -
127.0.0.1 - - [10/Nov/2015:10:30:56 -0600] "GET /CapstoneProject/admin HTTP/1.1" 200 5849
127.0.0.1 - - [10/Nov/2015:10:30:56 -0600] "GET /CapstoneProject/js/admin.js HTTP/1.1" 200 8499
127.0.0.1 - - [10/Nov/2015:10:30:57 -0600] "GET /CapstoneProject/posts HTTP/1.1" 200 627
127.0.0.1 - - [10/Nov/2015:10:30:57 -0600] "GET /CapstoneProject/alltags HTTP/1.1" 200 63
127.0.0.1 - - [10/Nov/2015:10:30:57 -0600] "GET /CapstoneProject/posts HTTP/1.1" 200 627
127.0.0.1 - - [10/Nov/2015:10:35:34 -0600] "GET /CapstoneProject/ HTTP/1.1" 200 4651
127.0.0.1 - - [10/Nov/2015:10:35:34 -0600] "GET /CapstoneProject/js/admin.js HTTP/1.1" 304 -
127.0.0.1 - - [10/Nov/2015:10:35:34 -0600] "GET /CapstoneProject/posts HTTP/1.1" 200 627
127.0.0.1 - - [10/Nov/2015:10:35:34 -0600] "GET /CapstoneProject/alltags HTTP/1.1" 200 63
127.0.0.1 - - [10/Nov/2015:10:35:34 -0600] "GET /CapstoneProject/posts HTTP/1.1" 200 627
127.0.0.1 - - [10/Nov/2015:10:40:40 -0600] "HEAD /netbeans-tomcat-status-test HTTP/1.1" 404 -
127.0.0.1 - - [10/Nov/2015:10:40:40 -0600] "HEAD /netbeans-tomcat-status-test HTTP/1.1" 404 -
127.0.0.1 - - [10/Nov/2015:10:40:40 -0600] "HEAD /netbeans-tomcat-status-test HTTP/1.1" 404 -
127.0.0.1 - apprentice [10/Nov/2015:10:40:40 -0600] "GET /manager/text/list HTTP/1.1" 200 1333
127.0.0.1 - apprentice [10/Nov/2015:10:40:43 -0600] "GET /manager/text/reload?path=/CapstoneProject HTTP/1.1" 200 70
127.0.0.1 - - [10/Nov/2015:10:40:43 -0600] "HEAD /netbeans-tomcat-status-test HTTP/1.1" 404 -
127.0.0.1 - - [10/Nov/2015:10:44:25 -0600] "GET /CapstoneProject/admin HTTP/1.1" 200 5849
127.0.0.1 - - [10/Nov/2015:10:44:25 -0600] "GET /CapstoneProject/js/admin.js HTTP/1.1" 200 8535
127.0.0.1 - - [10/Nov/2015:10:44:26 -0600] "GET /CapstoneProject/posts HTTP/1.1" 200 627
127.0.0.1 - - [10/Nov/2015:10:44:26 -0600] "GET /CapstoneProject/alltags HTTP/1.1" 200 63
127.0.0.1 - - [10/Nov/2015:10:44:26 -0600] "GET /CapstoneProject/posts HTTP/1.1" 200 627
127.0.0.1 - - [10/Nov/2015:10:45:45 -0600] "GET /CapstoneProject/j_spring_security_logout HTTP/1.1" 302 -
127.0.0.1 - - [10/Nov/2015:10:45:45 -0600] "GET /CapstoneProject/home HTTP/1.1" 200 4651
127.0.0.1 - - [10/Nov/2015:10:45:45 -0600] "GET /CapstoneProject/js/admin.js HTTP/1.1" 200 8535
127.0.0.1 - - [10/Nov/2015:10:45:45 -0600] "GET /CapstoneProject/posts HTTP/1.1" 200 627
127.0.0.1 - - [10/Nov/2015:10:45:45 -0600] "GET /CapstoneProject/alltags HTTP/1.1" 200 63
127.0.0.1 - - [10/Nov/2015:10:45:45 -0600] "GET /CapstoneProject/posts HTTP/1.1" 200 627
127.0.0.1 - - [10/Nov/2015:13:39:33 -0600] "HEAD /netbeans-tomcat-status-test HTTP/1.1" 404 -
127.0.0.1 - - [10/Nov/2015:13:39:33 -0600] "HEAD /netbeans-tomcat-status-test HTTP/1.1" 404 -
127.0.0.1 - - [10/Nov/2015:13:39:33 -0600] "HEAD /netbeans-tomcat-status-test HTTP/1.1" 404 -
127.0.0.1 - apprentice [10/Nov/2015:13:39:34 -0600] "GET /manager/text/list HTTP/1.1" 200 1333
127.0.0.1 - apprentice [10/Nov/2015:13:39:43 -0600] "GET /manager/text/reload?path=/CapstoneProject HTTP/1.1" 200 70
127.0.0.1 - - [10/Nov/2015:13:39:43 -0600] "HEAD /netbeans-tomcat-status-test HTTP/1.1" 404 -
127.0.0.1 - - [10/Nov/2015:13:39:43 -0600] "HEAD /netbeans-tomcat-status-test HTTP/1.1" 404 -
127.0.0.1 - - [10/Nov/2015:13:39:43 -0600] "HEAD /netbeans-tomcat-status-test HTTP/1.1" 404 -
127.0.0.1 - apprentice [10/Nov/2015:13:39:43 -0600] "GET /manager/text/list HTTP/1.1" 200 1333
127.0.0.1 - apprentice [10/Nov/2015:13:39:45 -0600] "GET /manager/text/reload?path=/CapstoneProject HTTP/1.1" 200 70
127.0.0.1 - - [10/Nov/2015:13:39:45 -0600] "HEAD /netbeans-tomcat-status-test HTTP/1.1" 404 -
127.0.0.1 - - [10/Nov/2015:13:51:27 -0600] "HEAD /netbeans-tomcat-status-test HTTP/1.1" 404 -
127.0.0.1 - - [10/Nov/2015:13:51:27 -0600] "HEAD /netbeans-tomcat-status-test HTTP/1.1" 404 -
127.0.0.1 - apprentice [10/Nov/2015:13:51:27 -0600] "GET /manager/text/list HTTP/1.1" 200 1333
127.0.0.1 - apprentice [10/Nov/2015:13:51:28 -0600] "GET /manager/text/undeploy?path=/CapstoneProject HTTP/1.1" 200 72
127.0.0.1 - - [10/Nov/2015:13:53:21 -0600] "HEAD /netbeans-tomcat-status-test HTTP/1.1" 404 -
127.0.0.1 - - [10/Nov/2015:13:53:21 -0600] "HEAD /netbeans-tomcat-status-test HTTP/1.1" 404 -
127.0.0.1 - apprentice [10/Nov/2015:13:53:21 -0600] "GET /manager/text/list HTTP/1.1" 200 1224
127.0.0.1 - - [10/Nov/2015:13:53:36 -0600] "HEAD /netbeans-tomcat-status-test HTTP/1.1" 404 -
127.0.0.1 - - [10/Nov/2015:13:53:36 -0600] "HEAD /netbeans-tomcat-status-test HTTP/1.1" 404 -
127.0.0.1 - - [10/Nov/2015:13:53:36 -0600] "HEAD /netbeans-tomcat-status-test HTTP/1.1" 404 -
127.0.0.1 - - [10/Nov/2015:13:53:36 -0600] "HEAD /netbeans-tomcat-status-test HTTP/1.1" 404 -
127.0.0.1 - apprentice [10/Nov/2015:13:53:36 -0600] "GET /manager/text/list HTTP/1.1" 200 1224
127.0.0.1 - apprentice [10/Nov/2015:13:53:36 -0600] "GET /manager/text/list HTTP/1.1" 200 1224
127.0.0.1 - apprentice [10/Nov/2015:13:53:39 -0600] "GET /manager/text/deploy?config=file%3A%2Ftmp%2Fcontext6136632877030251816.xml&path=/CapstoneProject HTTP/1.1" 200 70
127.0.0.1 - apprentice [10/Nov/2015:13:53:39 -0600] "GET /manager/text/start?path=/CapstoneProject HTTP/1.1" 200 69
127.0.0.1 - - [10/Nov/2015:13:53:40 -0600] "GET /CapstoneProject HTTP/1.1" 302 -
127.0.0.1 - - [10/Nov/2015:13:53:40 -0600] "GET /CapstoneProject/ HTTP/1.1" 200 4666
127.0.0.1 - - [10/Nov/2015:13:53:40 -0600] "GET /CapstoneProject/js/admin.js HTTP/1.1" 200 8535
127.0.0.1 - - [10/Nov/2015:13:53:40 -0600] "GET /CapstoneProject/posts HTTP/1.1" 200 627
127.0.0.1 - - [10/Nov/2015:13:53:40 -0600] "GET /CapstoneProject/alltags HTTP/1.1" 200 63
127.0.0.1 - - [10/Nov/2015:13:53:40 -0600] "GET /CapstoneProject/posts HTTP/1.1" 200 627
127.0.0.1 - - [10/Nov/2015:14:07:32 -0600] "HEAD /netbeans-tomcat-status-test HTTP/1.1" 404 -
127.0.0.1 - - [10/Nov/2015:14:07:32 -0600] "HEAD /netbeans-tomcat-status-test HTTP/1.1" 404 -
127.0.0.1 - - [10/Nov/2015:14:07:32 -0600] "HEAD /netbeans-tomcat-status-test HTTP/1.1" 404 -
127.0.0.1 - apprentice [10/Nov/2015:14:07:32 -0600] "GET /manager/text/list HTTP/1.1" 200 1333
127.0.0.1 - - [10/Nov/2015:14:07:32 -0600] "HEAD /netbeans-tomcat-status-test HTTP/1.1" 404 -
127.0.0.1 - - [10/Nov/2015:14:07:32 -0600] "HEAD /netbeans-tomcat-status-test HTTP/1.1" 404 -
127.0.0.1 - - [10/Nov/2015:14:07:32 -0600] "HEAD /netbeans-tomcat-status-test HTTP/1.1" 404 -
127.0.0.1 - apprentice [10/Nov/2015:14:07:32 -0600] "GET /manager/text/list HTTP/1.1" 200 1333
127.0.0.1 - apprentice [10/Nov/2015:14:07:35 -0600] "GET /manager/text/reload?path=/CapstoneProject HTTP/1.1" 200 70
127.0.0.1 - - [10/Nov/2015:14:07:35 -0600] "HEAD /netbeans-tomcat-status-test HTTP/1.1" 404 -
127.0.0.1 - - [10/Nov/2015:14:07:35 -0600] "HEAD /netbeans-tomcat-status-test HTTP/1.1" 404 -
127.0.0.1 - - [10/Nov/2015:14:07:35 -0600] "HEAD /netbeans-tomcat-status-test HTTP/1.1" 404 -
127.0.0.1 - apprentice [10/Nov/2015:14:07:35 -0600] "GET /manager/text/list HTTP/1.1" 200 1333
127.0.0.1 - apprentice [10/Nov/2015:14:07:37 -0600] "GET /manager/text/reload?path=/CapstoneProject HTTP/1.1" 200 70
127.0.0.1 - - [10/Nov/2015:14:07:37 -0600] "HEAD /netbeans-tomcat-status-test HTTP/1.1" 404 -
127.0.0.1 - - [10/Nov/2015:14:07:52 -0600] "HEAD /netbeans-tomcat-status-test HTTP/1.1" 404 -
127.0.0.1 - - [10/Nov/2015:14:07:52 -0600] "HEAD /netbeans-tomcat-status-test HTTP/1.1" 404 -
127.0.0.1 - apprentice [10/Nov/2015:14:07:52 -0600] "GET /manager/text/list HTTP/1.1" 200 1333
127.0.0.1 - apprentice [10/Nov/2015:14:07:53 -0600] "GET /manager/text/undeploy?path=/CapstoneProject HTTP/1.1" 200 72
127.0.0.1 - - [10/Nov/2015:14:08:06 -0600] "HEAD /netbeans-tomcat-status-test HTTP/1.1" 404 -
127.0.0.1 - - [10/Nov/2015:14:08:06 -0600] "HEAD /netbeans-tomcat-status-test HTTP/1.1" 404 -
127.0.0.1 - - [10/Nov/2015:14:08:06 -0600] "HEAD /netbeans-tomcat-status-test HTTP/1.1" 404 -
127.0.0.1 - - [10/Nov/2015:14:08:06 -0600] "HEAD /netbeans-tomcat-status-test HTTP/1.1" 404 -
127.0.0.1 - apprentice [10/Nov/2015:14:08:06 -0600] "GET /manager/text/list HTTP/1.1" 200 1224
127.0.0.1 - apprentice [10/Nov/2015:14:08:06 -0600] "GET /manager/text/list HTTP/1.1" 200 1224
127.0.0.1 - apprentice [10/Nov/2015:14:08:08 -0600] "GET /manager/text/deploy?config=file%3A%2Ftmp%2Fcontext2748128838557816808.xml&path=/CapstoneProject HTTP/1.1" 200 70
127.0.0.1 - apprentice [10/Nov/2015:14:08:08 -0600] "GET /manager/text/start?path=/CapstoneProject HTTP/1.1" 200 69
127.0.0.1 - - [10/Nov/2015:14:08:09 -0600] "GET /CapstoneProject HTTP/1.1" 302 -
127.0.0.1 - - [10/Nov/2015:14:08:09 -0600] "GET /CapstoneProject/ HTTP/1.1" 200 4666
127.0.0.1 - - [10/Nov/2015:14:08:10 -0600] "GET /CapstoneProject/alltags HTTP/1.1" 200 63
127.0.0.1 - - [10/Nov/2015:14:08:10 -0600] "GET /CapstoneProject/posts HTTP/1.1" 200 627
127.0.0.1 - - [10/Nov/2015:14:08:10 -0600] "GET /CapstoneProject/posts HTTP/1.1" 200 627
127.0.0.1 - - [10/Nov/2015:14:08:17 -0600] "GET /CapstoneProject/tag/tag HTTP/1.1" 200 178
127.0.0.1 - - [10/Nov/2015:14:08:18 -0600] "GET /CapstoneProject/tag/tag2 HTTP/1.1" 200 157
127.0.0.1 - - [10/Nov/2015:14:08:19 -0600] "GET /CapstoneProject/tag/tag HTTP/1.1" 200 178
127.0.0.1 - - [10/Nov/2015:14:08:22 -0600] "GET /CapstoneProject/login HTTP/1.1" 200 1513
127.0.0.1 - - [10/Nov/2015:14:08:23 -0600] "POST /CapstoneProject/j_spring_security_check HTTP/1.1" 302 -
127.0.0.1 - - [10/Nov/2015:14:08:23 -0600] "GET /CapstoneProject/ HTTP/1.1" 200 4666
127.0.0.1 - - [10/Nov/2015:14:08:23 -0600] "GET /CapstoneProject/alltags HTTP/1.1" 200 63
127.0.0.1 - - [10/Nov/2015:14:08:23 -0600] "GET /CapstoneProject/posts HTTP/1.1" 200 627
127.0.0.1 - - [10/Nov/2015:14:08:23 -0600] "GET /CapstoneProject/posts HTTP/1.1" 200 627
127.0.0.1 - - [10/Nov/2015:14:08:27 -0600] "GET /CapstoneProject/admin HTTP/1.1" 200 6930
127.0.0.1 - - [10/Nov/2015:14:08:28 -0600] "GET /CapstoneProject/alltags HTTP/1.1" 200 63
127.0.0.1 - - [10/Nov/2015:14:08:28 -0600] "GET /CapstoneProject/posts HTTP/1.1" 200 627
127.0.0.1 - - [10/Nov/2015:14:08:28 -0600] "GET /CapstoneProject/posts HTTP/1.1" 200 627
127.0.0.1 - - [10/Nov/2015:14:08:38 -0600] "GET /CapstoneProject/post/6 HTTP/1.1" 200 161
127.0.0.1 - - [10/Nov/2015:14:08:38 -0600] "GET /CapstoneProject/tags/6 HTTP/1.1" 200 -
127.0.0.1 - - [10/Nov/2015:14:08:38 -0600] "GET /CapstoneProject/posts HTTP/1.1" 200 627
127.0.0.1 - - [10/Nov/2015:14:08:43 -0600] "POST /CapstoneProject/admin HTTP/1.1" 405 1415
127.0.0.1 - - [10/Nov/2015:14:08:43 -0600] "GET /CapstoneProject/css/contactStyles.css HTTP/1.1" 304 -
127.0.0.1 - - [10/Nov/2015:14:08:43 -0600] "GET /CapstoneProject/js/bootstrap.js HTTP/1.1" 304 -
127.0.0.1 - - [10/Nov/2015:14:08:47 -0600] "GET /CapstoneProject/home HTTP/1.1" 200 4666
127.0.0.1 - - [10/Nov/2015:14:08:47 -0600] "GET /CapstoneProject/posts HTTP/1.1" 200 627
127.0.0.1 - - [10/Nov/2015:14:08:47 -0600] "GET /CapstoneProject/posts HTTP/1.1" 200 627
127.0.0.1 - - [10/Nov/2015:14:08:47 -0600] "GET /CapstoneProject/alltags HTTP/1.1" 200 63
127.0.0.1 - - [10/Nov/2015:14:08:53 -0600] "GET /CapstoneProject/admin HTTP/1.1" 200 6930
127.0.0.1 - - [10/Nov/2015:14:08:53 -0600] "GET /CapstoneProject/posts HTTP/1.1" 200 627
127.0.0.1 - - [10/Nov/2015:14:08:53 -0600] "GET /CapstoneProject/alltags HTTP/1.1" 200 63
127.0.0.1 - - [10/Nov/2015:14:08:53 -0600] "GET /CapstoneProject/posts HTTP/1.1" 200 627
127.0.0.1 - - [10/Nov/2015:14:09:18 -0600] "GET /CapstoneProject/post/6 HTTP/1.1" 200 161
127.0.0.1 - - [10/Nov/2015:14:09:18 -0600] "GET /CapstoneProject/tags/6 HTTP/1.1" 200 -
127.0.0.1 - - [10/Nov/2015:14:09:18 -0600] "GET /CapstoneProject/posts HTTP/1.1" 200 627
127.0.0.1 - - [10/Nov/2015:14:09:22 -0600] "GET /CapstoneProject/post/6 HTTP/1.1" 200 161
127.0.0.1 - - [10/Nov/2015:14:09:22 -0600] "GET /CapstoneProject/tags/6 HTTP/1.1" 200 -
127.0.0.1 - - [10/Nov/2015:14:09:22 -0600] "GET /CapstoneProject/posts HTTP/1.1" 200 627
127.0.0.1 - - [10/Nov/2015:14:09:29 -0600] "GET /CapstoneProject/post/6 HTTP/1.1" 200 161
127.0.0.1 - - [10/Nov/2015:14:09:29 -0600] "GET /CapstoneProject/tags/6 HTTP/1.1" 200 -
127.0.0.1 - - [10/Nov/2015:14:09:29 -0600] "GET /CapstoneProject/posts HTTP/1.1" 200 627
127.0.0.1 - - [10/Nov/2015:14:09:31 -0600] "POST /CapstoneProject/admin HTTP/1.1" 405 1415
127.0.0.1 - - [10/Nov/2015:14:09:40 -0600] "GET /CapstoneProject/post/6 HTTP/1.1" 200 161
127.0.0.1 - - [10/Nov/2015:14:09:40 -0600] "GET /CapstoneProject/tags/6 HTTP/1.1" 200 -
127.0.0.1 - - [10/Nov/2015:14:09:40 -0600] "GET /CapstoneProject/posts HTTP/1.1" 200 627
127.0.0.1 - - [10/Nov/2015:14:09:48 -0600] "POST /CapstoneProject/admin HTTP/1.1" 405 1415
127.0.0.1 - - [10/Nov/2015:14:09:54 -0600] "GET /CapstoneProject/home HTTP/1.1" 200 4666
127.0.0.1 - - [10/Nov/2015:14:09:54 -0600] "GET /CapstoneProject/alltags HTTP/1.1" 200 63
127.0.0.1 - - [10/Nov/2015:14:09:54 -0600] "GET /CapstoneProject/posts HTTP/1.1" 200 627
127.0.0.1 - - [10/Nov/2015:14:09:54 -0600] "GET /CapstoneProject/posts HTTP/1.1" 200 627
127.0.0.1 - - [10/Nov/2015:14:10:02 -0600] "GET /CapstoneProject/admin HTTP/1.1" 200 6930
127.0.0.1 - - [10/Nov/2015:14:10:02 -0600] "GET /CapstoneProject/posts HTTP/1.1" 200 627
127.0.0.1 - - [10/Nov/2015:14:10:02 -0600] "GET /CapstoneProject/alltags HTTP/1.1" 200 63
127.0.0.1 - - [10/Nov/2015:14:10:02 -0600] "GET /CapstoneProject/posts HTTP/1.1" 200 627
127.0.0.1 - - [10/Nov/2015:14:10:08 -0600] "DELETE /CapstoneProject/post/7 HTTP/1.1" 204 -
127.0.0.1 - - [10/Nov/2015:14:10:08 -0600] "GET /CapstoneProject/posts HTTP/1.1" 200 627
127.0.0.1 - - [10/Nov/2015:14:10:08 -0600] "GET /CapstoneProject/alltags HTTP/1.1" 200 63
127.0.0.1 - - [10/Nov/2015:14:10:08 -0600] "GET /CapstoneProject/posts HTTP/1.1" 200 627
127.0.0.1 - - [10/Nov/2015:14:10:12 -0600] "DELETE /CapstoneProject/post/7 HTTP/1.1" 204 -
127.0.0.1 - - [10/Nov/2015:14:10:13 -0600] "GET /CapstoneProject/posts HTTP/1.1" 200 627
127.0.0.1 - - [10/Nov/2015:14:10:13 -0600] "GET /CapstoneProject/posts HTTP/1.1" 200 627
127.0.0.1 - - [10/Nov/2015:14:10:13 -0600] "GET /CapstoneProject/alltags HTTP/1.1" 200 63
127.0.0.1 - - [10/Nov/2015:14:10:36 -0600] "DELETE /CapstoneProject/post/6 HTTP/1.1" 204 -
127.0.0.1 - - [10/Nov/2015:14:10:36 -0600] "GET /CapstoneProject/posts HTTP/1.1" 200 627
127.0.0.1 - - [10/Nov/2015:14:10:36 -0600] "GET /CapstoneProject/alltags HTTP/1.1" 200 63
127.0.0.1 - - [10/Nov/2015:14:10:36 -0600] "GET /CapstoneProject/posts HTTP/1.1" 200 627
127.0.0.1 - - [10/Nov/2015:14:10:42 -0600] "DELETE /CapstoneProject/post/6 HTTP/1.1" 204 -
127.0.0.1 - - [10/Nov/2015:14:10:42 -0600] "GET /CapstoneProject/alltags HTTP/1.1" 200 63
127.0.0.1 - - [10/Nov/2015:14:10:42 -0600] "GET /CapstoneProject/posts HTTP/1.1" 200 627
127.0.0.1 - - [10/Nov/2015:14:10:42 -0600] "GET /CapstoneProject/posts HTTP/1.1" 200 627
127.0.0.1 - - [10/Nov/2015:14:11:25 -0600] "GET /CapstoneProject/post/6 HTTP/1.1" 200 161
127.0.0.1 - - [10/Nov/2015:14:11:25 -0600] "GET /CapstoneProject/tags/6 HTTP/1.1" 200 -
127.0.0.1 - - [10/Nov/2015:14:11:25 -0600] "GET /CapstoneProject/posts HTTP/1.1" 200 627
127.0.0.1 - - [10/Nov/2015:14:11:28 -0600] "POST /CapstoneProject/admin HTTP/1.1" 405 1415
127.0.0.1 - - [10/Nov/2015:14:15:37 -0600] "HEAD /netbeans-tomcat-status-test HTTP/1.1" 404 -
127.0.0.1 - - [10/Nov/2015:14:15:37 -0600] "HEAD /netbeans-tomcat-status-test HTTP/1.1" 404 -
127.0.0.1 - apprentice [10/Nov/2015:14:15:37 -0600] "GET /manager/text/list HTTP/1.1" 200 1333
127.0.0.1 - apprentice [10/Nov/2015:14:15:38 -0600] "GET /manager/text/undeploy?path=/CapstoneProject HTTP/1.1" 200 72
127.0.0.1 - - [10/Nov/2015:14:15:49 -0600] "HEAD /netbeans-tomcat-status-test HTTP/1.1" 404 -
127.0.0.1 - - [10/Nov/2015:14:15:49 -0600] "HEAD /netbeans-tomcat-status-test HTTP/1.1" 404 -
127.0.0.1 - - [10/Nov/2015:14:15:49 -0600] "HEAD /netbeans-tomcat-status-test HTTP/1.1" 404 -
127.0.0.1 - - [10/Nov/2015:14:15:49 -0600] "HEAD /netbeans-tomcat-status-test HTTP/1.1" 404 -
127.0.0.1 - apprentice [10/Nov/2015:14:15:49 -0600] "GET /manager/text/list HTTP/1.1" 200 1224
127.0.0.1 - apprentice [10/Nov/2015:14:15:49 -0600] "GET /manager/text/list HTTP/1.1" 200 1224
127.0.0.1 - apprentice [10/Nov/2015:14:15:51 -0600] "GET /manager/text/deploy?config=file%3A%2Ftmp%2Fcontext4793560099760019587.xml&path=/CapstoneProject HTTP/1.1" 200 70
127.0.0.1 - apprentice [10/Nov/2015:14:15:51 -0600] "GET /manager/text/start?path=/CapstoneProject HTTP/1.1" 200 69
127.0.0.1 - - [10/Nov/2015:14:15:52 -0600] "GET /CapstoneProject HTTP/1.1" 302 -
127.0.0.1 - - [10/Nov/2015:14:15:52 -0600] "GET /CapstoneProject/ HTTP/1.1" 200 4666
127.0.0.1 - - [10/Nov/2015:14:15:52 -0600] "GET /CapstoneProject/js/admin.js HTTP/1.1" 200 10217
127.0.0.1 - - [10/Nov/2015:14:15:52 -0600] "GET /CapstoneProject/activetags HTTP/1.1" 200 12
127.0.0.1 - - [10/Nov/2015:14:15:52 -0600] "GET /CapstoneProject/activeposts HTTP/1.1" 200 12
127.0.0.1 - - [10/Nov/2015:14:15:53 -0600] "GET /CapstoneProject/posts HTTP/1.1" 200 627
127.0.0.1 - - [10/Nov/2015:14:16:03 -0600] "GET /CapstoneProject/login HTTP/1.1" 200 1513
127.0.0.1 - - [10/Nov/2015:14:16:04 -0600] "POST /CapstoneProject/j_spring_security_check HTTP/1.1" 302 -
127.0.0.1 - - [10/Nov/2015:14:16:04 -0600] "GET /CapstoneProject/ HTTP/1.1" 200 4666
127.0.0.1 - - [10/Nov/2015:14:16:04 -0600] "GET /CapstoneProject/posts HTTP/1.1" 200 627
127.0.0.1 - - [10/Nov/2015:14:16:04 -0600] "GET /CapstoneProject/activetags HTTP/1.1" 200 12
127.0.0.1 - - [10/Nov/2015:14:16:04 -0600] "GET /CapstoneProject/activeposts HTTP/1.1" 200 12
127.0.0.1 - - [10/Nov/2015:14:16:09 -0600] "GET /CapstoneProject/admin HTTP/1.1" 200 6930
127.0.0.1 - - [10/Nov/2015:14:16:09 -0600] "GET /CapstoneProject/posts HTTP/1.1" 200 627
127.0.0.1 - - [10/Nov/2015:14:16:09 -0600] "GET /CapstoneProject/activeposts HTTP/1.1" 200 12
127.0.0.1 - - [10/Nov/2015:14:16:09 -0600] "GET /CapstoneProject/activetags HTTP/1.1" 200 12
127.0.0.1 - - [10/Nov/2015:14:16:21 -0600] "POST /CapstoneProject/post HTTP/1.1" 201 182
127.0.0.1 - - [10/Nov/2015:14:16:21 -0600] "GET /CapstoneProject/posts HTTP/1.1" 200 783
127.0.0.1 - - [10/Nov/2015:14:16:25 -0600] "GET /CapstoneProject/post/10 HTTP/1.1" 200 166
127.0.0.1 - - [10/Nov/2015:14:16:25 -0600] "GET /CapstoneProject/tags/10 HTTP/1.1" 200 5
127.0.0.1 - - [10/Nov/2015:14:16:25 -0600] "GET /CapstoneProject/posts HTTP/1.1" 200 783
127.0.0.1 - - [10/Nov/2015:14:16:29 -0600] "GET /CapstoneProject/posts HTTP/1.1" 200 783
127.0.0.1 - - [10/Nov/2015:14:16:29 -0600] "PATCH /CapstoneProject/post/10 HTTP/1.1" 200 -
127.0.0.1 - - [10/Nov/2015:14:16:33 -0600] "GET /CapstoneProject/posts HTTP/1.1" 200 783
127.0.0.1 - - [10/Nov/2015:14:16:42 -0600] "DELETE /CapstoneProject/post/6 HTTP/1.1" 204 -
127.0.0.1 - - [10/Nov/2015:14:16:42 -0600] "GET /CapstoneProject/activeposts HTTP/1.1" 200 168
127.0.0.1 - - [10/Nov/2015:14:16:42 -0600] "GET /CapstoneProject/posts HTTP/1.1" 200 783
127.0.0.1 - - [10/Nov/2015:14:16:42 -0600] "GET /CapstoneProject/activetags HTTP/1.1" 200 40
127.0.0.1 - - [10/Nov/2015:14:16:46 -0600] "DELETE /CapstoneProject/post/6 HTTP/1.1" 204 -
127.0.0.1 - - [10/Nov/2015:14:16:46 -0600] "GET /CapstoneProject/activetags HTTP/1.1" 200 40
127.0.0.1 - - [10/Nov/2015:14:16:46 -0600] "GET /CapstoneProject/activeposts HTTP/1.1" 200 168
127.0.0.1 - - [10/Nov/2015:14:16:46 -0600] "GET /CapstoneProject/posts HTTP/1.1" 200 783
127.0.0.1 - - [10/Nov/2015:14:16:59 -0600] "DELETE /CapstoneProject/post/6 HTTP/1.1" 204 -
127.0.0.1 - - [10/Nov/2015:14:16:59 -0600] "GET /CapstoneProject/posts HTTP/1.1" 200 783
127.0.0.1 - - [10/Nov/2015:14:16:59 -0600] "GET /CapstoneProject/activeposts HTTP/1.1" 200 168
127.0.0.1 - - [10/Nov/2015:14:16:59 -0600] "GET /CapstoneProject/activetags HTTP/1.1" 200 40
127.0.0.1 - - [10/Nov/2015:14:17:05 -0600] "GET /CapstoneProject/admin HTTP/1.1" 200 6930
127.0.0.1 - - [10/Nov/2015:14:17:05 -0600] "GET /CapstoneProject/js/bootstrap.min.js HTTP/1.1" 304 -
127.0.0.1 - - [10/Nov/2015:14:17:05 -0600] "GET /CapstoneProject/js/admin.js HTTP/1.1" 304 -
127.0.0.1 - - [10/Nov/2015:14:17:05 -0600] "GET /CapstoneProject/js/jquery-1.11.1.min.js HTTP/1.1" 304 -
127.0.0.1 - - [10/Nov/2015:14:17:05 -0600] "GET /CapstoneProject/css/bootstrap.min.css HTTP/1.1" 304 -
127.0.0.1 - - [10/Nov/2015:14:17:05 -0600] "GET /CapstoneProject/js/tinymce/tinymce.min.js HTTP/1.1" 304 -
127.0.0.1 - - [10/Nov/2015:14:17:05 -0600] "GET /CapstoneProject/activeposts HTTP/1.1" 200 168
127.0.0.1 - - [10/Nov/2015:14:17:05 -0600] "GET /CapstoneProject/activetags HTTP/1.1" 200 40
127.0.0.1 - - [10/Nov/2015:14:17:05 -0600] "GET /CapstoneProject/posts HTTP/1.1" 200 783
127.0.0.1 - - [10/Nov/2015:14:17:05 -0600] "GET /CapstoneProject/js/tinymce/plugins/save/plugin.min.js HTTP/1.1" 304 -
127.0.0.1 - - [10/Nov/2015:14:17:05 -0600] "GET /CapstoneProject/js/tinymce/themes/modern/theme.min.js HTTP/1.1" 304 -
127.0.0.1 - - [10/Nov/2015:14:17:05 -0600] "GET /CapstoneProject/js/tinymce/plugins/image/plugin.min.js HTTP/1.1" 304 -
127.0.0.1 - - [10/Nov/2015:14:17:05 -0600] "GET /CapstoneProject/js/tinymce/plugins/preview/plugin.min.js HTTP/1.1" 304 -
127.0.0.1 - - [10/Nov/2015:14:17:05 -0600] "GET /CapstoneProject/js/tinymce/skins/lightgray/skin.min.css HTTP/1.1" 304 -
127.0.0.1 - - [10/Nov/2015:14:17:05 -0600] "GET /CapstoneProject/js/tinymce/skins/lightgray/content.min.css HTTP/1.1" 304 -
127.0.0.1 - - [10/Nov/2015:14:17:24 -0600] "DELETE /CapstoneProject/post/6 HTTP/1.1" 204 -
127.0.0.1 - - [10/Nov/2015:14:17:24 -0600] "GET /CapstoneProject/posts HTTP/1.1" 200 783
127.0.0.1 - - [10/Nov/2015:14:17:24 -0600] "GET /CapstoneProject/activetags HTTP/1.1" 200 40
127.0.0.1 - - [10/Nov/2015:14:17:24 -0600] "GET /CapstoneProject/activeposts HTTP/1.1" 200 168
127.0.0.1 - - [10/Nov/2015:14:18:26 -0600] "DELETE /CapstoneProject/post/6 HTTP/1.1" 204 -
127.0.0.1 - - [10/Nov/2015:14:18:26 -0600] "GET /CapstoneProject/activeposts HTTP/1.1" 200 168
127.0.0.1 - - [10/Nov/2015:14:18:26 -0600] "GET /CapstoneProject/posts HTTP/1.1" 200 783
127.0.0.1 - - [10/Nov/2015:14:18:26 -0600] "GET /CapstoneProject/activetags HTTP/1.1" 200 40
127.0.0.1 - - [10/Nov/2015:14:18:29 -0600] "DELETE /CapstoneProject/post/10 HTTP/1.1" 204 -
127.0.0.1 - - [10/Nov/2015:14:18:29 -0600] "GET /CapstoneProject/activetags HTTP/1.1" 200 12
127.0.0.1 - - [10/Nov/2015:14:18:29 -0600] "GET /CapstoneProject/posts HTTP/1.1" 200 627
127.0.0.1 - - [10/Nov/2015:14:18:29 -0600] "GET /CapstoneProject/activeposts HTTP/1.1" 200 12
127.0.0.1 - - [10/Nov/2015:14:18:50 -0600] "DELETE /CapstoneProject/post/9 HTTP/1.1" 204 -
127.0.0.1 - - [10/Nov/2015:14:18:50 -0600] "GET /CapstoneProject/activetags HTTP/1.1" 200 12
127.0.0.1 - - [10/Nov/2015:14:18:50 -0600] "GET /CapstoneProject/activeposts HTTP/1.1" 200 12
127.0.0.1 - - [10/Nov/2015:14:18:50 -0600] "GET /CapstoneProject/posts HTTP/1.1" 200 482
127.0.0.1 - - [10/Nov/2015:14:19:09 -0600] "GET /CapstoneProject/post/6 HTTP/1.1" 200 161
127.0.0.1 - - [10/Nov/2015:14:19:09 -0600] "GET /CapstoneProject/tags/6 HTTP/1.1" 200 -
127.0.0.1 - - [10/Nov/2015:14:19:09 -0600] "GET /CapstoneProject/posts HTTP/1.1" 200 482
127.0.0.1 - - [10/Nov/2015:14:19:14 -0600] "GET /CapstoneProject/post/6 HTTP/1.1" 200 161
127.0.0.1 - - [10/Nov/2015:14:19:14 -0600] "GET /CapstoneProject/tags/6 HTTP/1.1" 200 -
127.0.0.1 - - [10/Nov/2015:14:19:14 -0600] "GET /CapstoneProject/posts HTTP/1.1" 200 482
127.0.0.1 - - [10/Nov/2015:14:19:15 -0600] "GET /CapstoneProject/posts HTTP/1.1" 200 482
127.0.0.1 - - [10/Nov/2015:14:19:15 -0600] "PATCH /CapstoneProject/post/6 HTTP/1.1" 200 -
127.0.0.1 - - [10/Nov/2015:14:19:17 -0600] "GET /CapstoneProject/posts HTTP/1.1" 200 482
127.0.0.1 - - [10/Nov/2015:14:19:19 -0600] "GET /CapstoneProject/post/7 HTTP/1.1" 200 162
127.0.0.1 - - [10/Nov/2015:14:19:19 -0600] "GET /CapstoneProject/tags/7 HTTP/1.1" 200 -
127.0.0.1 - - [10/Nov/2015:14:19:19 -0600] "GET /CapstoneProject/posts HTTP/1.1" 200 482
127.0.0.1 - - [10/Nov/2015:14:19:21 -0600] "GET /CapstoneProject/posts HTTP/1.1" 200 482
127.0.0.1 - - [10/Nov/2015:14:19:21 -0600] "PATCH /CapstoneProject/post/7 HTTP/1.1" 200 -
127.0.0.1 - - [10/Nov/2015:14:19:22 -0600] "GET /CapstoneProject/posts HTTP/1.1" 200 482
127.0.0.1 - - [10/Nov/2015:14:19:26 -0600] "GET /CapstoneProject/home HTTP/1.1" 200 4666
127.0.0.1 - - [10/Nov/2015:14:19:26 -0600] "GET /CapstoneProject/js/admin.js HTTP/1.1" 304 -
127.0.0.1 - - [10/Nov/2015:14:19:26 -0600] "GET /CapstoneProject/posts HTTP/1.1" 200 482
127.0.0.1 - - [10/Nov/2015:14:19:26 -0600] "GET /CapstoneProject/activetags HTTP/1.1" 200 12
127.0.0.1 - - [10/Nov/2015:14:19:26 -0600] "GET /CapstoneProject/activeposts HTTP/1.1" 200 316
127.0.0.1 - - [10/Nov/2015:14:19:35 -0600] "GET /CapstoneProject/contact HTTP/1.1" 200 2625
127.0.0.1 - - [10/Nov/2015:14:19:35 -0600] "GET /CapstoneProject/img/likeusonfacebook.jpg HTTP/1.1" 304 -
127.0.0.1 - - [10/Nov/2015:14:19:38 -0600] "GET /CapstoneProject/home HTTP/1.1" 200 4666
127.0.0.1 - - [10/Nov/2015:14:19:38 -0600] "GET /CapstoneProject/posts HTTP/1.1" 200 482
127.0.0.1 - - [10/Nov/2015:14:19:38 -0600] "GET /CapstoneProject/activeposts HTTP/1.1" 200 316
127.0.0.1 - - [10/Nov/2015:14:19:38 -0600] "GET /CapstoneProject/activetags HTTP/1.1" 200 12
127.0.0.1 - - [10/Nov/2015:14:19:39 -0600] "GET /CapstoneProject/about HTTP/1.1" 200 2230
127.0.0.1 - - [10/Nov/2015:14:19:39 -0600] "GET /CapstoneProject/css/aboutStyles.css HTTP/1.1" 304 -
127.0.0.1 - - [10/Nov/2015:14:19:44 -0600] "GET /CapstoneProject/disclaimer HTTP/1.1" 200 2944
127.0.0.1 - - [10/Nov/2015:14:19:44 -0600] "GET /CapstoneProject/css/disclaimerStyles.css HTTP/1.1" 304 -
127.0.0.1 - - [10/Nov/2015:14:19:45 -0600] "GET /CapstoneProject/home HTTP/1.1" 200 4666
127.0.0.1 - - [10/Nov/2015:14:19:45 -0600] "GET /CapstoneProject/posts HTTP/1.1" 200 482
127.0.0.1 - - [10/Nov/2015:14:19:45 -0600] "GET /CapstoneProject/activeposts HTTP/1.1" 200 316
127.0.0.1 - - [10/Nov/2015:14:19:45 -0600] "GET /CapstoneProject/activetags HTTP/1.1" 200 12
127.0.0.1 - - [10/Nov/2015:14:34:32 -0600] "GET /CapstoneProject/home HTTP/1.1" 200 4666
127.0.0.1 - - [10/Nov/2015:14:34:32 -0600] "GET /CapstoneProject/css/bootstrap.min.css HTTP/1.1" 304 -
127.0.0.1 - - [10/Nov/2015:14:34:32 -0600] "GET /CapstoneProject/js/admin.js HTTP/1.1" 304 -
127.0.0.1 - - [10/Nov/2015:14:34:32 -0600] "GET /CapstoneProject/js/jquery-1.11.1.min.js HTTP/1.1" 304 -
127.0.0.1 - - [10/Nov/2015:14:34:32 -0600] "GET /CapstoneProject/js/bootstrap.min.js HTTP/1.1" 304 -
127.0.0.1 - - [10/Nov/2015:14:34:32 -0600] "GET /CapstoneProject/css/homepage.css HTTP/1.1" 200 4335
127.0.0.1 - - [10/Nov/2015:14:34:32 -0600] "GET /CapstoneProject/img/profilepic.jpg HTTP/1.1" 304 -
127.0.0.1 - - [10/Nov/2015:14:34:32 -0600] "GET /CapstoneProject/fonts/LadylikeBB.ttf HTTP/1.1" 304 -
127.0.0.1 - - [10/Nov/2015:14:34:32 -0600] "GET /CapstoneProject/fonts/CutiePop.ttf HTTP/1.1" 304 -
127.0.0.1 - - [10/Nov/2015:14:34:33 -0600] "GET /CapstoneProject/activeposts HTTP/1.1" 200 316
127.0.0.1 - - [10/Nov/2015:14:34:33 -0600] "GET /CapstoneProject/activetags HTTP/1.1" 200 12
127.0.0.1 - - [10/Nov/2015:14:34:33 -0600] "GET /CapstoneProject/posts HTTP/1.1" 200 482
127.0.0.1 - - [10/Nov/2015:14:34:33 -0600] "GET /favicon.ico HTTP/1.1" 200 21630
127.0.0.1 - - [10/Nov/2015:15:27:56 -0600] "HEAD /netbeans-tomcat-status-test HTTP/1.1" 404 -
127.0.0.1 - - [10/Nov/2015:15:27:56 -0600] "HEAD /netbeans-tomcat-status-test HTTP/1.1" 404 -
127.0.0.1 - - [10/Nov/2015:15:27:56 -0600] "HEAD /netbeans-tomcat-status-test HTTP/1.1" 404 -
127.0.0.1 - apprentice [10/Nov/2015:15:27:56 -0600] "GET /manager/text/list HTTP/1.1" 200 1333
127.0.0.1 - - [10/Nov/2015:15:27:56 -0600] "HEAD /netbeans-tomcat-status-test HTTP/1.1" 404 -
