127.0.0.1 - - [13/Nov/2015:10:00:01 -0600] "HEAD /netbeans-tomcat-status-test HTTP/1.1" 404 -
127.0.0.1 - - [13/Nov/2015:10:00:01 -0600] "HEAD /netbeans-tomcat-status-test HTTP/1.1" 404 -
127.0.0.1 - - [13/Nov/2015:10:00:01 -0600] "HEAD /netbeans-tomcat-status-test HTTP/1.1" 404 -
127.0.0.1 - - [13/Nov/2015:10:00:01 -0600] "HEAD /netbeans-tomcat-status-test HTTP/1.1" 404 -
127.0.0.1 - apprentice [13/Nov/2015:10:00:01 -0600] "GET /manager/text/list HTTP/1.1" 200 1325
127.0.0.1 - apprentice [13/Nov/2015:10:00:01 -0600] "GET /manager/text/list HTTP/1.1" 200 1325
127.0.0.1 - apprentice [13/Nov/2015:10:00:01 -0600] "GET /manager/text/undeploy?path=/CapstoneProject HTTP/1.1" 200 72
127.0.0.1 - apprentice [13/Nov/2015:10:00:10 -0600] "GET /manager/text/deploy?config=file%3A%2Ftmp%2Fcontext4063375349628789337.xml&path=/CapstoneProject HTTP/1.1" 200 70
127.0.0.1 - apprentice [13/Nov/2015:10:00:10 -0600] "GET /manager/text/start?path=/CapstoneProject HTTP/1.1" 200 69
127.0.0.1 - - [13/Nov/2015:10:00:12 -0600] "GET /CapstoneProject HTTP/1.1" 302 -
127.0.0.1 - - [13/Nov/2015:10:00:12 -0600] "GET /CapstoneProject/ HTTP/1.1" 200 4922
127.0.0.1 - - [13/Nov/2015:10:00:12 -0600] "GET /CapstoneProject/css/homepage.css HTTP/1.1" 304 -
127.0.0.1 - - [13/Nov/2015:10:00:12 -0600] "GET /CapstoneProject/css/bootstrap.min.css HTTP/1.1" 304 -
127.0.0.1 - - [13/Nov/2015:10:00:12 -0600] "GET /CapstoneProject/img/profilepic.jpg HTTP/1.1" 304 -
127.0.0.1 - - [13/Nov/2015:10:00:12 -0600] "GET /CapstoneProject/js/jquery-1.11.1.min.js HTTP/1.1" 304 -
127.0.0.1 - - [13/Nov/2015:10:00:12 -0600] "GET /CapstoneProject/js/bootstrap.min.js HTTP/1.1" 304 -
127.0.0.1 - - [13/Nov/2015:10:00:12 -0600] "GET /CapstoneProject/js/admin.js HTTP/1.1" 304 -
127.0.0.1 - - [13/Nov/2015:10:00:13 -0600] "GET /CapstoneProject/css/wall.jpg HTTP/1.1" 304 -
127.0.0.1 - - [13/Nov/2015:10:00:13 -0600] "GET /CapstoneProject/fonts/Hunt.ttf HTTP/1.1" 304 -
127.0.0.1 - - [13/Nov/2015:10:00:13 -0600] "GET /CapstoneProject/fonts/DeadheadRough.ttf HTTP/1.1" 304 -
127.0.0.1 - - [13/Nov/2015:10:00:13 -0600] "GET /CapstoneProject/css/black.png HTTP/1.1" 304 -
127.0.0.1 - - [13/Nov/2015:10:00:13 -0600] "GET /CapstoneProject/activetags HTTP/1.1" 200 124
127.0.0.1 - - [13/Nov/2015:10:00:13 -0600] "GET /CapstoneProject/posts HTTP/1.1" 200 341
127.0.0.1 - - [13/Nov/2015:10:00:13 -0600] "GET /CapstoneProject/pinposts HTTP/1.1" 200 153
127.0.0.1 - - [13/Nov/2015:10:00:13 -0600] "GET /CapstoneProject/activeposts HTTP/1.1" 200 341
127.0.0.1 - - [13/Nov/2015:10:00:13 -0600] "GET /CapstoneProject/pinposts HTTP/1.1" 200 153
127.0.0.1 - - [13/Nov/2015:10:24:19 -0600] "HEAD /netbeans-tomcat-status-test HTTP/1.1" 404 -
127.0.0.1 - - [13/Nov/2015:10:24:19 -0600] "HEAD /netbeans-tomcat-status-test HTTP/1.1" 404 -
127.0.0.1 - - [13/Nov/2015:10:24:19 -0600] "HEAD /netbeans-tomcat-status-test HTTP/1.1" 404 -
127.0.0.1 - - [13/Nov/2015:10:24:19 -0600] "HEAD /netbeans-tomcat-status-test HTTP/1.1" 404 -
127.0.0.1 - apprentice [13/Nov/2015:10:24:19 -0600] "GET /manager/text/list HTTP/1.1" 200 1325
127.0.0.1 - apprentice [13/Nov/2015:10:24:19 -0600] "GET /manager/text/list HTTP/1.1" 200 1325
127.0.0.1 - apprentice [13/Nov/2015:10:24:19 -0600] "GET /manager/text/undeploy?path=/CapstoneProject HTTP/1.1" 200 72
127.0.0.1 - apprentice [13/Nov/2015:10:24:25 -0600] "GET /manager/text/deploy?config=file%3A%2Ftmp%2Fcontext643811633302412338.xml&path=/CapstoneProject HTTP/1.1" 200 70
127.0.0.1 - apprentice [13/Nov/2015:10:24:25 -0600] "GET /manager/text/start?path=/CapstoneProject HTTP/1.1" 200 69
127.0.0.1 - - [13/Nov/2015:10:24:26 -0600] "GET /CapstoneProject/jsp/pinned.jsp HTTP/1.1" 200 7110
127.0.0.1 - - [13/Nov/2015:10:24:26 -0600] "GET /CapstoneProject/js/tinymce/tinymce.min.js HTTP/1.1" 304 -
127.0.0.1 - - [13/Nov/2015:10:24:27 -0600] "GET /CapstoneProject/js/tinymce/themes/modern/theme.min.js HTTP/1.1" 304 -
127.0.0.1 - - [13/Nov/2015:10:24:27 -0600] "GET /CapstoneProject/js/tinymce/plugins/save/plugin.min.js HTTP/1.1" 304 -
127.0.0.1 - - [13/Nov/2015:10:24:27 -0600] "GET /CapstoneProject/js/tinymce/plugins/image/plugin.min.js HTTP/1.1" 304 -
127.0.0.1 - - [13/Nov/2015:10:24:27 -0600] "GET /CapstoneProject/js/tinymce/plugins/preview/plugin.min.js HTTP/1.1" 304 -
127.0.0.1 - - [13/Nov/2015:10:24:27 -0600] "GET /CapstoneProject/js/tinymce/skins/lightgray/skin.min.css HTTP/1.1" 304 -
127.0.0.1 - - [13/Nov/2015:10:24:27 -0600] "GET /CapstoneProject/js/tinymce/skins/lightgray/content.min.css HTTP/1.1" 304 -
127.0.0.1 - - [13/Nov/2015:10:24:27 -0600] "GET /CapstoneProject/js/tinymce/skins/lightgray/fonts/tinymce.woff HTTP/1.1" 304 -
127.0.0.1 - - [13/Nov/2015:10:24:27 -0600] "GET /CapstoneProject/jsp/activetags HTTP/1.1" 404 1406
127.0.0.1 - - [13/Nov/2015:10:24:27 -0600] "GET /CapstoneProject/jsp/activeposts HTTP/1.1" 404 1406
127.0.0.1 - - [13/Nov/2015:10:24:27 -0600] "GET /CapstoneProject/jsp/posts HTTP/1.1" 404 1406
127.0.0.1 - - [13/Nov/2015:10:24:27 -0600] "GET /CapstoneProject/jsp/pinposts HTTP/1.1" 404 1406
127.0.0.1 - - [13/Nov/2015:10:24:27 -0600] "GET /CapstoneProject/jsp/pinposts HTTP/1.1" 404 1406
127.0.0.1 - - [13/Nov/2015:10:27:07 -0600] "HEAD /netbeans-tomcat-status-test HTTP/1.1" 404 -
127.0.0.1 - - [13/Nov/2015:10:27:07 -0600] "GET /CapstoneProject/admin HTTP/1.1" 302 -
127.0.0.1 - - [13/Nov/2015:10:27:07 -0600] "HEAD /netbeans-tomcat-status-test HTTP/1.1" 404 -
127.0.0.1 - - [13/Nov/2015:10:27:07 -0600] "HEAD /netbeans-tomcat-status-test HTTP/1.1" 404 -
127.0.0.1 - - [13/Nov/2015:10:27:07 -0600] "HEAD /netbeans-tomcat-status-test HTTP/1.1" 404 -
127.0.0.1 - apprentice [13/Nov/2015:10:27:07 -0600] "GET /manager/text/list HTTP/1.1" 200 1325
127.0.0.1 - apprentice [13/Nov/2015:10:27:07 -0600] "GET /manager/text/list HTTP/1.1" 200 1325
127.0.0.1 - - [13/Nov/2015:10:27:07 -0600] "GET /CapstoneProject/login HTTP/1.1" 200 1513
127.0.0.1 - apprentice [13/Nov/2015:10:27:08 -0600] "GET /manager/text/undeploy?path=/CapstoneProject HTTP/1.1" 200 72
127.0.0.1 - - [13/Nov/2015:10:27:09 -0600] "POST /CapstoneProject/j_spring_security_check HTTP/1.1" 404 1072
127.0.0.1 - apprentice [13/Nov/2015:10:27:10 -0600] "GET /manager/text/deploy?config=file%3A%2Ftmp%2Fcontext5213124764922092165.xml&path=/CapstoneProject HTTP/1.1" 200 70
127.0.0.1 - apprentice [13/Nov/2015:10:27:10 -0600] "GET /manager/text/start?path=/CapstoneProject HTTP/1.1" 200 69
127.0.0.1 - - [13/Nov/2015:10:27:11 -0600] "GET /CapstoneProject/jsp/admin.jsp HTTP/1.1" 200 8099
127.0.0.1 - - [13/Nov/2015:10:27:12 -0600] "GET /CapstoneProject/jsp/css/wall.jpg HTTP/1.1" 404 1406
127.0.0.1 - - [13/Nov/2015:10:27:12 -0600] "GET /CapstoneProject/jsp/activeposts HTTP/1.1" 404 1406
127.0.0.1 - - [13/Nov/2015:10:27:12 -0600] "GET /CapstoneProject/jsp/pinposts HTTP/1.1" 404 1406
127.0.0.1 - - [13/Nov/2015:10:27:12 -0600] "GET /CapstoneProject/jsp/posts HTTP/1.1" 404 1406
127.0.0.1 - - [13/Nov/2015:10:27:12 -0600] "GET /CapstoneProject/jsp/activetags HTTP/1.1" 404 1406
127.0.0.1 - - [13/Nov/2015:10:27:12 -0600] "GET /CapstoneProject/jsp/pinposts HTTP/1.1" 404 1406
127.0.0.1 - - [13/Nov/2015:10:28:15 -0600] "HEAD /netbeans-tomcat-status-test HTTP/1.1" 404 -
127.0.0.1 - - [13/Nov/2015:10:28:15 -0600] "HEAD /netbeans-tomcat-status-test HTTP/1.1" 404 -
127.0.0.1 - - [13/Nov/2015:10:28:15 -0600] "HEAD /netbeans-tomcat-status-test HTTP/1.1" 404 -
127.0.0.1 - apprentice [13/Nov/2015:10:28:15 -0600] "GET /manager/text/list HTTP/1.1" 200 1325
127.0.0.1 - - [13/Nov/2015:10:28:15 -0600] "HEAD /netbeans-tomcat-status-test HTTP/1.1" 404 -
127.0.0.1 - - [13/Nov/2015:10:28:28 -0600] "HEAD /netbeans-tomcat-status-test HTTP/1.1" 404 -
127.0.0.1 - - [13/Nov/2015:10:28:28 -0600] "HEAD /netbeans-tomcat-status-test HTTP/1.1" 404 -
127.0.0.1 - - [13/Nov/2015:10:28:28 -0600] "HEAD /netbeans-tomcat-status-test HTTP/1.1" 404 -
127.0.0.1 - - [13/Nov/2015:10:28:28 -0600] "HEAD /netbeans-tomcat-status-test HTTP/1.1" 404 -
127.0.0.1 - apprentice [13/Nov/2015:10:28:28 -0600] "GET /manager/text/list HTTP/1.1" 200 1325
127.0.0.1 - apprentice [13/Nov/2015:10:28:28 -0600] "GET /manager/text/list HTTP/1.1" 200 1325
127.0.0.1 - apprentice [13/Nov/2015:10:28:29 -0600] "GET /manager/text/undeploy?path=/CapstoneProject HTTP/1.1" 200 72
127.0.0.1 - apprentice [13/Nov/2015:10:28:32 -0600] "GET /manager/text/deploy?config=file%3A%2Ftmp%2Fcontext249016909646317762.xml&path=/CapstoneProject HTTP/1.1" 200 70
127.0.0.1 - apprentice [13/Nov/2015:10:28:32 -0600] "GET /manager/text/start?path=/CapstoneProject HTTP/1.1" 200 69
127.0.0.1 - - [13/Nov/2015:10:28:33 -0600] "GET /CapstoneProject/jsp/pinned.jsp HTTP/1.1" 200 7646
127.0.0.1 - - [13/Nov/2015:10:28:34 -0600] "GET /CapstoneProject/jsp/pinposts HTTP/1.1" 404 1406
127.0.0.1 - - [13/Nov/2015:10:28:34 -0600] "GET /CapstoneProject/jsp/css/wall.jpg HTTP/1.1" 404 1406
127.0.0.1 - - [13/Nov/2015:10:28:34 -0600] "GET /CapstoneProject/jsp/activetags HTTP/1.1" 404 1406
127.0.0.1 - - [13/Nov/2015:10:28:34 -0600] "GET /CapstoneProject/jsp/posts HTTP/1.1" 404 1406
127.0.0.1 - - [13/Nov/2015:10:28:34 -0600] "GET /CapstoneProject/jsp/activeposts HTTP/1.1" 404 1406
127.0.0.1 - - [13/Nov/2015:10:28:34 -0600] "GET /CapstoneProject/jsp/pinposts HTTP/1.1" 404 1406
127.0.0.1 - - [13/Nov/2015:10:29:49 -0600] "HEAD /netbeans-tomcat-status-test HTTP/1.1" 404 -
127.0.0.1 - - [13/Nov/2015:10:29:49 -0600] "HEAD /netbeans-tomcat-status-test HTTP/1.1" 404 -
127.0.0.1 - - [13/Nov/2015:10:29:49 -0600] "HEAD /netbeans-tomcat-status-test HTTP/1.1" 404 -
127.0.0.1 - apprentice [13/Nov/2015:10:29:49 -0600] "GET /manager/text/list HTTP/1.1" 200 1325
127.0.0.1 - - [13/Nov/2015:10:29:49 -0600] "HEAD /netbeans-tomcat-status-test HTTP/1.1" 404 -
127.0.0.1 - - [13/Nov/2015:10:30:02 -0600] "HEAD /netbeans-tomcat-status-test HTTP/1.1" 404 -
127.0.0.1 - - [13/Nov/2015:10:30:02 -0600] "HEAD /netbeans-tomcat-status-test HTTP/1.1" 404 -
127.0.0.1 - - [13/Nov/2015:10:30:02 -0600] "HEAD /netbeans-tomcat-status-test HTTP/1.1" 404 -
127.0.0.1 - - [13/Nov/2015:10:30:02 -0600] "HEAD /netbeans-tomcat-status-test HTTP/1.1" 404 -
127.0.0.1 - apprentice [13/Nov/2015:10:30:02 -0600] "GET /manager/text/list HTTP/1.1" 200 1325
127.0.0.1 - apprentice [13/Nov/2015:10:30:02 -0600] "GET /manager/text/list HTTP/1.1" 200 1325
127.0.0.1 - apprentice [13/Nov/2015:10:30:03 -0600] "GET /manager/text/undeploy?path=/CapstoneProject HTTP/1.1" 200 72
127.0.0.1 - apprentice [13/Nov/2015:10:30:05 -0600] "GET /manager/text/deploy?config=file%3A%2Ftmp%2Fcontext1189759706334036519.xml&path=/CapstoneProject HTTP/1.1" 200 70
127.0.0.1 - apprentice [13/Nov/2015:10:30:05 -0600] "GET /manager/text/start?path=/CapstoneProject HTTP/1.1" 200 69
127.0.0.1 - - [13/Nov/2015:10:30:06 -0600] "GET /CapstoneProject/jsp/pinned.jsp HTTP/1.1" 200 7677
127.0.0.1 - - [13/Nov/2015:10:30:07 -0600] "GET /CapstoneProject/jsp/activetags HTTP/1.1" 404 1406
127.0.0.1 - - [13/Nov/2015:10:30:07 -0600] "GET /CapstoneProject/jsp/posts HTTP/1.1" 404 1406
127.0.0.1 - - [13/Nov/2015:10:30:07 -0600] "GET /CapstoneProject/jsp/activeposts HTTP/1.1" 404 1406
127.0.0.1 - - [13/Nov/2015:10:30:07 -0600] "GET /CapstoneProject/jsp/pinposts HTTP/1.1" 404 1406
127.0.0.1 - - [13/Nov/2015:10:30:07 -0600] "GET /CapstoneProject/jsp/css/wall.jpg HTTP/1.1" 404 1406
127.0.0.1 - - [13/Nov/2015:10:30:07 -0600] "GET /CapstoneProject/jsp/pinposts HTTP/1.1" 404 1406
127.0.0.1 - - [13/Nov/2015:10:49:51 -0600] "GET /CapstoneProject/ HTTP/1.1" 200 4922
127.0.0.1 - - [13/Nov/2015:10:49:51 -0600] "GET /CapstoneProject/css/bootstrap.min.css HTTP/1.1" 304 -
127.0.0.1 - - [13/Nov/2015:10:49:51 -0600] "GET /CapstoneProject/css/homepage.css HTTP/1.1" 304 -
127.0.0.1 - - [13/Nov/2015:10:49:51 -0600] "GET /CapstoneProject/js/jquery-1.11.1.min.js HTTP/1.1" 304 -
127.0.0.1 - - [13/Nov/2015:10:49:51 -0600] "GET /CapstoneProject/js/bootstrap.min.js HTTP/1.1" 304 -
127.0.0.1 - - [13/Nov/2015:10:49:51 -0600] "GET /CapstoneProject/img/profilepic.jpg HTTP/1.1" 304 -
127.0.0.1 - - [13/Nov/2015:10:49:51 -0600] "GET /CapstoneProject/js/admin.js HTTP/1.1" 200 25909
127.0.0.1 - - [13/Nov/2015:10:49:51 -0600] "GET /CapstoneProject/fonts/DeadheadRough.ttf HTTP/1.1" 304 -
127.0.0.1 - - [13/Nov/2015:10:49:51 -0600] "GET /CapstoneProject/fonts/Hunt.ttf HTTP/1.1" 304 -
127.0.0.1 - - [13/Nov/2015:10:49:51 -0600] "GET /favicon.ico HTTP/1.1" 200 21630
127.0.0.1 - - [13/Nov/2015:10:49:51 -0600] "GET /CapstoneProject/pinposts HTTP/1.1" 200 153
127.0.0.1 - - [13/Nov/2015:10:49:51 -0600] "GET /CapstoneProject/posts HTTP/1.1" 200 341
127.0.0.1 - - [13/Nov/2015:10:49:51 -0600] "GET /CapstoneProject/activetags HTTP/1.1" 200 124
127.0.0.1 - - [13/Nov/2015:10:49:51 -0600] "GET /CapstoneProject/pinposts HTTP/1.1" 200 153
127.0.0.1 - - [13/Nov/2015:10:49:51 -0600] "GET /CapstoneProject/activeposts HTTP/1.1" 200 341
127.0.0.1 - - [13/Nov/2015:10:49:58 -0600] "GET /CapstoneProject/employee HTTP/1.1" 302 -
127.0.0.1 - - [13/Nov/2015:10:49:58 -0600] "GET /CapstoneProject/login HTTP/1.1" 200 1513
127.0.0.1 - - [13/Nov/2015:10:50:00 -0600] "POST /CapstoneProject/j_spring_security_check HTTP/1.1" 302 -
127.0.0.1 - - [13/Nov/2015:10:50:00 -0600] "GET /CapstoneProject/employee HTTP/1.1" 302 -
127.0.0.1 - - [13/Nov/2015:10:50:00 -0600] "GET /CapstoneProject/admin HTTP/1.1" 200 8099
127.0.0.1 - - [13/Nov/2015:10:50:00 -0600] "GET /CapstoneProject/pinposts HTTP/1.1" 200 153
127.0.0.1 - - [13/Nov/2015:10:50:00 -0600] "GET /CapstoneProject/activetags HTTP/1.1" 200 124
127.0.0.1 - - [13/Nov/2015:10:50:00 -0600] "GET /CapstoneProject/posts HTTP/1.1" 200 341
127.0.0.1 - - [13/Nov/2015:10:50:00 -0600] "GET /CapstoneProject/activeposts HTTP/1.1" 200 341
127.0.0.1 - - [13/Nov/2015:10:50:00 -0600] "GET /CapstoneProject/pinposts HTTP/1.1" 200 153
127.0.0.1 - - [13/Nov/2015:10:50:02 -0600] "GET /CapstoneProject/pinned HTTP/1.1" 200 7677
127.0.0.1 - - [13/Nov/2015:10:50:02 -0600] "GET /CapstoneProject/pinposts HTTP/1.1" 200 153
127.0.0.1 - - [13/Nov/2015:10:50:02 -0600] "GET /CapstoneProject/posts HTTP/1.1" 200 341
127.0.0.1 - - [13/Nov/2015:10:50:02 -0600] "GET /CapstoneProject/activeposts HTTP/1.1" 200 341
127.0.0.1 - - [13/Nov/2015:10:50:02 -0600] "GET /CapstoneProject/activetags HTTP/1.1" 200 124
127.0.0.1 - - [13/Nov/2015:10:50:02 -0600] "GET /CapstoneProject/pinposts HTTP/1.1" 200 153
127.0.0.1 - - [13/Nov/2015:10:50:05 -0600] "GET /CapstoneProject/admin HTTP/1.1" 200 8099
127.0.0.1 - - [13/Nov/2015:10:50:05 -0600] "GET /CapstoneProject/pinposts HTTP/1.1" 200 153
127.0.0.1 - - [13/Nov/2015:10:50:05 -0600] "GET /CapstoneProject/posts HTTP/1.1" 200 341
127.0.0.1 - - [13/Nov/2015:10:50:05 -0600] "GET /CapstoneProject/activeposts HTTP/1.1" 200 341
127.0.0.1 - - [13/Nov/2015:10:50:05 -0600] "GET /CapstoneProject/activetags HTTP/1.1" 200 124
127.0.0.1 - - [13/Nov/2015:10:50:05 -0600] "GET /CapstoneProject/pinposts HTTP/1.1" 200 153
127.0.0.1 - - [13/Nov/2015:11:20:26 -0600] "HEAD /netbeans-tomcat-status-test HTTP/1.1" 404 -
127.0.0.1 - - [13/Nov/2015:11:20:26 -0600] "HEAD /netbeans-tomcat-status-test HTTP/1.1" 404 -
127.0.0.1 - - [13/Nov/2015:11:20:26 -0600] "HEAD /netbeans-tomcat-status-test HTTP/1.1" 404 -
127.0.0.1 - apprentice [13/Nov/2015:11:20:26 -0600] "GET /manager/text/list HTTP/1.1" 200 1325
127.0.0.1 - - [13/Nov/2015:11:20:26 -0600] "HEAD /netbeans-tomcat-status-test HTTP/1.1" 404 -
127.0.0.1 - - [13/Nov/2015:13:48:34 -0600] "HEAD /netbeans-tomcat-status-test HTTP/1.1" 404 -
127.0.0.1 - - [13/Nov/2015:13:48:34 -0600] "HEAD /netbeans-tomcat-status-test HTTP/1.1" 404 -
127.0.0.1 - - [13/Nov/2015:13:48:34 -0600] "HEAD /netbeans-tomcat-status-test HTTP/1.1" 404 -
127.0.0.1 - apprentice [13/Nov/2015:13:48:34 -0600] "GET /manager/text/list HTTP/1.1" 200 1325
127.0.0.1 - - [13/Nov/2015:13:48:34 -0600] "HEAD /netbeans-tomcat-status-test HTTP/1.1" 404 -
127.0.0.1 - - [13/Nov/2015:13:48:41 -0600] "HEAD /netbeans-tomcat-status-test HTTP/1.1" 404 -
127.0.0.1 - - [13/Nov/2015:13:48:41 -0600] "HEAD /netbeans-tomcat-status-test HTTP/1.1" 404 -
127.0.0.1 - - [13/Nov/2015:13:48:41 -0600] "HEAD /netbeans-tomcat-status-test HTTP/1.1" 404 -
127.0.0.1 - - [13/Nov/2015:13:48:41 -0600] "HEAD /netbeans-tomcat-status-test HTTP/1.1" 404 -
127.0.0.1 - apprentice [13/Nov/2015:13:48:41 -0600] "GET /manager/text/list HTTP/1.1" 200 1325
127.0.0.1 - apprentice [13/Nov/2015:13:48:41 -0600] "GET /manager/text/list HTTP/1.1" 200 1325
127.0.0.1 - apprentice [13/Nov/2015:13:48:41 -0600] "GET /manager/text/undeploy?path=/CapstoneProject HTTP/1.1" 200 72
127.0.0.1 - apprentice [13/Nov/2015:13:48:45 -0600] "GET /manager/text/deploy?config=file%3A%2Ftmp%2Fcontext250664272517464242.xml&path=/CapstoneProject HTTP/1.1" 200 70
127.0.0.1 - apprentice [13/Nov/2015:13:48:45 -0600] "GET /manager/text/start?path=/CapstoneProject HTTP/1.1" 200 69
127.0.0.1 - - [13/Nov/2015:13:48:45 -0600] "GET /CapstoneProject HTTP/1.1" 302 -
127.0.0.1 - - [13/Nov/2015:13:48:46 -0600] "GET /CapstoneProject/ HTTP/1.1" 200 5256
127.0.0.1 - - [13/Nov/2015:13:48:46 -0600] "GET /CapstoneProject/css/bootstrap.min.css HTTP/1.1" 304 -
127.0.0.1 - - [13/Nov/2015:13:48:46 -0600] "GET /CapstoneProject/css/homepage.css HTTP/1.1" 304 -
127.0.0.1 - - [13/Nov/2015:13:48:46 -0600] "GET /CapstoneProject/img/pin.png HTTP/1.1" 200 978
127.0.0.1 - - [13/Nov/2015:13:48:46 -0600] "GET /CapstoneProject/js/admin.js HTTP/1.1" 200 26251
127.0.0.1 - - [13/Nov/2015:13:48:46 -0600] "GET /CapstoneProject/pinposts HTTP/1.1" 200 153
127.0.0.1 - - [13/Nov/2015:13:48:46 -0600] "GET /CapstoneProject/activeposts HTTP/1.1" 200 341
127.0.0.1 - - [13/Nov/2015:13:48:46 -0600] "GET /CapstoneProject/posts HTTP/1.1" 200 341
127.0.0.1 - - [13/Nov/2015:13:48:46 -0600] "GET /CapstoneProject/activetags HTTP/1.1" 200 124
127.0.0.1 - - [13/Nov/2015:13:48:46 -0600] "GET /CapstoneProject/pinposts HTTP/1.1" 200 153
127.0.0.1 - - [13/Nov/2015:13:52:33 -0600] "HEAD /netbeans-tomcat-status-test HTTP/1.1" 404 -
127.0.0.1 - - [13/Nov/2015:13:52:33 -0600] "HEAD /netbeans-tomcat-status-test HTTP/1.1" 404 -
127.0.0.1 - apprentice [13/Nov/2015:13:52:33 -0600] "GET /manager/text/list HTTP/1.1" 200 1325
127.0.0.1 - apprentice [13/Nov/2015:13:52:34 -0600] "GET /manager/text/undeploy?path=/CapstoneProject HTTP/1.1" 200 72
127.0.0.1 - - [13/Nov/2015:13:52:35 -0600] "HEAD /netbeans-tomcat-status-test HTTP/1.1" 404 -
127.0.0.1 - apprentice [13/Nov/2015:13:52:35 -0600] "GET /manager/text/list HTTP/1.1" 200 1224
127.0.0.1 - - [13/Nov/2015:13:52:53 -0600] "HEAD /netbeans-tomcat-status-test HTTP/1.1" 404 -
127.0.0.1 - - [13/Nov/2015:13:52:53 -0600] "HEAD /netbeans-tomcat-status-test HTTP/1.1" 404 -
127.0.0.1 - - [13/Nov/2015:13:52:53 -0600] "HEAD /netbeans-tomcat-status-test HTTP/1.1" 404 -
127.0.0.1 - - [13/Nov/2015:13:52:53 -0600] "HEAD /netbeans-tomcat-status-test HTTP/1.1" 404 -
127.0.0.1 - apprentice [13/Nov/2015:13:52:53 -0600] "GET /manager/text/list HTTP/1.1" 200 1224
127.0.0.1 - apprentice [13/Nov/2015:13:52:53 -0600] "GET /manager/text/list HTTP/1.1" 200 1224
127.0.0.1 - apprentice [13/Nov/2015:13:52:56 -0600] "GET /manager/text/deploy?config=file%3A%2Ftmp%2Fcontext106103754389578842.xml&path=/CapstoneProject HTTP/1.1" 200 70
127.0.0.1 - apprentice [13/Nov/2015:13:52:56 -0600] "GET /manager/text/start?path=/CapstoneProject HTTP/1.1" 200 69
127.0.0.1 - - [13/Nov/2015:13:52:56 -0600] "GET /CapstoneProject HTTP/1.1" 302 -
127.0.0.1 - - [13/Nov/2015:13:52:56 -0600] "GET /CapstoneProject/ HTTP/1.1" 200 5256
127.0.0.1 - - [13/Nov/2015:13:52:56 -0600] "GET /CapstoneProject/img/pin.png HTTP/1.1" 200 978
127.0.0.1 - - [13/Nov/2015:13:52:56 -0600] "GET /CapstoneProject/js/admin.js HTTP/1.1" 200 26251
127.0.0.1 - - [13/Nov/2015:13:52:57 -0600] "GET /CapstoneProject/posts HTTP/1.1" 200 341
127.0.0.1 - - [13/Nov/2015:13:52:57 -0600] "GET /CapstoneProject/pinposts HTTP/1.1" 200 153
127.0.0.1 - - [13/Nov/2015:13:52:57 -0600] "GET /CapstoneProject/activetags HTTP/1.1" 200 124
127.0.0.1 - - [13/Nov/2015:13:52:57 -0600] "GET /CapstoneProject/activeposts HTTP/1.1" 200 341
127.0.0.1 - - [13/Nov/2015:13:52:57 -0600] "GET /CapstoneProject/pinposts HTTP/1.1" 200 153
127.0.0.1 - - [13/Nov/2015:13:54:12 -0600] "HEAD /netbeans-tomcat-status-test HTTP/1.1" 404 -
127.0.0.1 - - [13/Nov/2015:13:54:12 -0600] "HEAD /netbeans-tomcat-status-test HTTP/1.1" 404 -
127.0.0.1 - apprentice [13/Nov/2015:13:54:12 -0600] "GET /manager/text/list HTTP/1.1" 200 1325
127.0.0.1 - apprentice [13/Nov/2015:13:54:12 -0600] "GET /manager/text/undeploy?path=/CapstoneProject HTTP/1.1" 200 72
127.0.0.1 - - [13/Nov/2015:13:54:23 -0600] "HEAD /netbeans-tomcat-status-test HTTP/1.1" 404 -
127.0.0.1 - - [13/Nov/2015:13:54:23 -0600] "HEAD /netbeans-tomcat-status-test HTTP/1.1" 404 -
127.0.0.1 - - [13/Nov/2015:13:54:23 -0600] "HEAD /netbeans-tomcat-status-test HTTP/1.1" 404 -
127.0.0.1 - - [13/Nov/2015:13:54:23 -0600] "HEAD /netbeans-tomcat-status-test HTTP/1.1" 404 -
127.0.0.1 - apprentice [13/Nov/2015:13:54:24 -0600] "GET /manager/text/list HTTP/1.1" 200 1224
127.0.0.1 - apprentice [13/Nov/2015:13:54:24 -0600] "GET /manager/text/list HTTP/1.1" 200 1224
127.0.0.1 - apprentice [13/Nov/2015:13:54:26 -0600] "GET /manager/text/deploy?config=file%3A%2Ftmp%2Fcontext1959542838343600705.xml&path=/CapstoneProject HTTP/1.1" 200 70
127.0.0.1 - apprentice [13/Nov/2015:13:54:26 -0600] "GET /manager/text/start?path=/CapstoneProject HTTP/1.1" 200 69
127.0.0.1 - - [13/Nov/2015:13:54:27 -0600] "GET /CapstoneProject HTTP/1.1" 302 -
127.0.0.1 - - [13/Nov/2015:13:54:27 -0600] "GET /CapstoneProject/ HTTP/1.1" 200 5256
127.0.0.1 - - [13/Nov/2015:13:54:27 -0600] "GET /CapstoneProject/img/pin.png HTTP/1.1" 304 -
127.0.0.1 - - [13/Nov/2015:13:54:27 -0600] "GET /CapstoneProject/js/admin.js HTTP/1.1" 304 -
127.0.0.1 - - [13/Nov/2015:13:54:28 -0600] "GET /CapstoneProject/activeposts HTTP/1.1" 200 341
127.0.0.1 - - [13/Nov/2015:13:54:28 -0600] "GET /CapstoneProject/pinposts HTTP/1.1" 200 153
127.0.0.1 - - [13/Nov/2015:13:54:28 -0600] "GET /CapstoneProject/activetags HTTP/1.1" 200 124
127.0.0.1 - - [13/Nov/2015:13:54:28 -0600] "GET /CapstoneProject/posts HTTP/1.1" 200 341
127.0.0.1 - - [13/Nov/2015:13:54:28 -0600] "GET /CapstoneProject/pinposts HTTP/1.1" 200 153
127.0.0.1 - - [13/Nov/2015:13:56:04 -0600] "HEAD /netbeans-tomcat-status-test HTTP/1.1" 404 -
127.0.0.1 - - [13/Nov/2015:13:56:04 -0600] "HEAD /netbeans-tomcat-status-test HTTP/1.1" 404 -
127.0.0.1 - - [13/Nov/2015:13:56:04 -0600] "HEAD /netbeans-tomcat-status-test HTTP/1.1" 404 -
127.0.0.1 - apprentice [13/Nov/2015:13:56:04 -0600] "GET /manager/text/list HTTP/1.1" 200 1325
127.0.0.1 - apprentice [13/Nov/2015:13:56:07 -0600] "GET /manager/text/reload?path=/CapstoneProject HTTP/1.1" 200 70
127.0.0.1 - - [13/Nov/2015:13:56:07 -0600] "HEAD /netbeans-tomcat-status-test HTTP/1.1" 404 -
127.0.0.1 - - [13/Nov/2015:13:56:07 -0600] "HEAD /netbeans-tomcat-status-test HTTP/1.1" 404 -
127.0.0.1 - - [13/Nov/2015:13:56:07 -0600] "HEAD /netbeans-tomcat-status-test HTTP/1.1" 404 -
127.0.0.1 - apprentice [13/Nov/2015:13:56:07 -0600] "GET /manager/text/list HTTP/1.1" 200 1325
127.0.0.1 - apprentice [13/Nov/2015:13:56:09 -0600] "GET /manager/text/reload?path=/CapstoneProject HTTP/1.1" 200 70
127.0.0.1 - - [13/Nov/2015:13:56:09 -0600] "HEAD /netbeans-tomcat-status-test HTTP/1.1" 404 -
127.0.0.1 - - [13/Nov/2015:13:56:11 -0600] "HEAD /netbeans-tomcat-status-test HTTP/1.1" 404 -
127.0.0.1 - apprentice [13/Nov/2015:13:56:11 -0600] "GET /manager/text/list HTTP/1.1" 200 1325
127.0.0.1 - apprentice [13/Nov/2015:13:56:11 -0600] "GET /manager/text/undeploy?path=/CapstoneProject HTTP/1.1" 200 72
127.0.0.1 - - [13/Nov/2015:13:56:22 -0600] "HEAD /netbeans-tomcat-status-test HTTP/1.1" 404 -
127.0.0.1 - - [13/Nov/2015:13:56:22 -0600] "HEAD /netbeans-tomcat-status-test HTTP/1.1" 404 -
127.0.0.1 - - [13/Nov/2015:13:56:22 -0600] "HEAD /netbeans-tomcat-status-test HTTP/1.1" 404 -
127.0.0.1 - - [13/Nov/2015:13:56:22 -0600] "HEAD /netbeans-tomcat-status-test HTTP/1.1" 404 -
127.0.0.1 - apprentice [13/Nov/2015:13:56:22 -0600] "GET /manager/text/list HTTP/1.1" 200 1224
127.0.0.1 - apprentice [13/Nov/2015:13:56:22 -0600] "GET /manager/text/list HTTP/1.1" 200 1224
127.0.0.1 - apprentice [13/Nov/2015:13:56:24 -0600] "GET /manager/text/deploy?config=file%3A%2Ftmp%2Fcontext5327701990749192170.xml&path=/CapstoneProject HTTP/1.1" 200 70
127.0.0.1 - apprentice [13/Nov/2015:13:56:24 -0600] "GET /manager/text/start?path=/CapstoneProject HTTP/1.1" 200 69
127.0.0.1 - - [13/Nov/2015:13:56:25 -0600] "GET /CapstoneProject HTTP/1.1" 302 -
127.0.0.1 - - [13/Nov/2015:13:56:25 -0600] "GET /CapstoneProject/ HTTP/1.1" 200 5256
127.0.0.1 - - [13/Nov/2015:13:56:25 -0600] "GET /CapstoneProject/js/admin.js HTTP/1.1" 200 26067
127.0.0.1 - - [13/Nov/2015:13:56:25 -0600] "GET /CapstoneProject/img/pin.png HTTP/1.1" 304 -
127.0.0.1 - - [13/Nov/2015:13:56:26 -0600] "GET /CapstoneProject/pinposts HTTP/1.1" 200 153
127.0.0.1 - - [13/Nov/2015:13:56:26 -0600] "GET /CapstoneProject/activeposts HTTP/1.1" 200 341
127.0.0.1 - - [13/Nov/2015:13:56:26 -0600] "GET /CapstoneProject/activepins HTTP/1.1" 200 153
127.0.0.1 - - [13/Nov/2015:13:56:26 -0600] "GET /CapstoneProject/posts HTTP/1.1" 200 341
127.0.0.1 - - [13/Nov/2015:13:56:26 -0600] "GET /CapstoneProject/pinposts HTTP/1.1" 200 153
127.0.0.1 - - [13/Nov/2015:13:56:26 -0600] "GET /CapstoneProject/activetags HTTP/1.1" 200 124
127.0.0.1 - - [13/Nov/2015:13:58:37 -0600] "GET /CapstoneProject/tag/vikings HTTP/1.1" 200 178
127.0.0.1 - - [13/Nov/2015:13:58:39 -0600] "GET /CapstoneProject/tag/falcons HTTP/1.1" 200 178
127.0.0.1 - - [13/Nov/2015:13:58:40 -0600] "GET /CapstoneProject/tag/falcons HTTP/1.1" 200 178
127.0.0.1 - - [13/Nov/2015:13:58:41 -0600] "GET /CapstoneProject/tag/falcons HTTP/1.1" 200 178
127.0.0.1 - - [13/Nov/2015:13:58:41 -0600] "GET /CapstoneProject/tag/falcons HTTP/1.1" 200 178
127.0.0.1 - - [13/Nov/2015:13:58:43 -0600] "GET /CapstoneProject/tag/vikings HTTP/1.1" 200 178
127.0.0.1 - - [13/Nov/2015:13:58:45 -0600] "GET /CapstoneProject/tag/beach HTTP/1.1" 200 174
127.0.0.1 - - [13/Nov/2015:13:58:48 -0600] "GET /CapstoneProject/tag/tampa HTTP/1.1" 200 174
127.0.0.1 - - [13/Nov/2015:13:58:49 -0600] "GET /CapstoneProject/tag/beach HTTP/1.1" 200 174
127.0.0.1 - - [13/Nov/2015:13:58:50 -0600] "GET /CapstoneProject/tag/beach HTTP/1.1" 200 174
127.0.0.1 - - [13/Nov/2015:13:58:50 -0600] "GET /CapstoneProject/tag/beach HTTP/1.1" 200 174
127.0.0.1 - - [13/Nov/2015:13:58:51 -0600] "GET /CapstoneProject/tag/tampa HTTP/1.1" 200 174
127.0.0.1 - - [13/Nov/2015:13:58:53 -0600] "GET /CapstoneProject/tag/vikings HTTP/1.1" 200 178
127.0.0.1 - - [13/Nov/2015:13:58:55 -0600] "GET /CapstoneProject/posts HTTP/1.1" 200 341
127.0.0.1 - - [13/Nov/2015:13:58:55 -0600] "GET /CapstoneProject/pinposts HTTP/1.1" 200 153
127.0.0.1 - - [13/Nov/2015:14:03:05 -0600] "GET /CapstoneProject/ HTTP/1.1" 200 5256
127.0.0.1 - - [13/Nov/2015:14:03:05 -0600] "GET /CapstoneProject/css/bootstrap.min.css HTTP/1.1" 304 -
127.0.0.1 - - [13/Nov/2015:14:03:05 -0600] "GET /CapstoneProject/js/jquery-1.11.1.min.js HTTP/1.1" 304 -
127.0.0.1 - - [13/Nov/2015:14:03:05 -0600] "GET /CapstoneProject/css/homepage.css HTTP/1.1" 304 -
127.0.0.1 - - [13/Nov/2015:14:03:05 -0600] "GET /CapstoneProject/js/bootstrap.min.js HTTP/1.1" 304 -
127.0.0.1 - - [13/Nov/2015:14:03:05 -0600] "GET /CapstoneProject/img/profilepic.jpg HTTP/1.1" 304 -
127.0.0.1 - - [13/Nov/2015:14:03:05 -0600] "GET /CapstoneProject/js/admin.js HTTP/1.1" 304 -
127.0.0.1 - - [13/Nov/2015:14:03:05 -0600] "GET /CapstoneProject/img/pin.png HTTP/1.1" 304 -
127.0.0.1 - - [13/Nov/2015:14:03:06 -0600] "GET /CapstoneProject/fonts/Hunt.ttf HTTP/1.1" 304 -
127.0.0.1 - - [13/Nov/2015:14:03:06 -0600] "GET /CapstoneProject/fonts/DeadheadRough.ttf HTTP/1.1" 304 -
127.0.0.1 - - [13/Nov/2015:14:03:06 -0600] "GET /CapstoneProject/pinposts HTTP/1.1" 200 153
127.0.0.1 - - [13/Nov/2015:14:03:06 -0600] "GET /CapstoneProject/posts HTTP/1.1" 200 341
127.0.0.1 - - [13/Nov/2015:14:03:06 -0600] "GET /CapstoneProject/activepins HTTP/1.1" 200 153
127.0.0.1 - - [13/Nov/2015:14:03:06 -0600] "GET /CapstoneProject/activeposts HTTP/1.1" 200 341
127.0.0.1 - - [13/Nov/2015:14:03:06 -0600] "GET /CapstoneProject/activetags HTTP/1.1" 200 124
127.0.0.1 - - [13/Nov/2015:14:03:06 -0600] "GET /CapstoneProject/pinposts HTTP/1.1" 200 153
127.0.0.1 - - [13/Nov/2015:14:03:06 -0600] "GET /favicon.ico HTTP/1.1" 200 21630
127.0.0.1 - - [13/Nov/2015:14:03:06 -0600] "GET /CapstoneProject/ HTTP/1.1" 200 5256
127.0.0.1 - - [13/Nov/2015:14:03:06 -0600] "GET /CapstoneProject/css/bootstrap.min.css HTTP/1.1" 304 -
127.0.0.1 - - [13/Nov/2015:14:03:06 -0600] "GET /CapstoneProject/css/homepage.css HTTP/1.1" 304 -
127.0.0.1 - - [13/Nov/2015:14:03:06 -0600] "GET /CapstoneProject/img/profilepic.jpg HTTP/1.1" 304 -
127.0.0.1 - - [13/Nov/2015:14:03:06 -0600] "GET /CapstoneProject/js/jquery-1.11.1.min.js HTTP/1.1" 304 -
127.0.0.1 - - [13/Nov/2015:14:03:06 -0600] "GET /CapstoneProject/js/bootstrap.min.js HTTP/1.1" 304 -
127.0.0.1 - - [13/Nov/2015:14:03:06 -0600] "GET /CapstoneProject/js/admin.js HTTP/1.1" 304 -
127.0.0.1 - - [13/Nov/2015:14:03:06 -0600] "GET /CapstoneProject/img/pin.png HTTP/1.1" 304 -
127.0.0.1 - - [13/Nov/2015:14:03:06 -0600] "GET /CapstoneProject/fonts/Hunt.ttf HTTP/1.1" 304 -
127.0.0.1 - - [13/Nov/2015:14:03:06 -0600] "GET /CapstoneProject/fonts/DeadheadRough.ttf HTTP/1.1" 304 -
127.0.0.1 - - [13/Nov/2015:14:03:06 -0600] "GET /CapstoneProject/pinposts HTTP/1.1" 200 153
127.0.0.1 - - [13/Nov/2015:14:03:06 -0600] "GET /CapstoneProject/posts HTTP/1.1" 200 341
127.0.0.1 - - [13/Nov/2015:14:03:06 -0600] "GET /CapstoneProject/activetags HTTP/1.1" 200 124
127.0.0.1 - - [13/Nov/2015:14:03:06 -0600] "GET /CapstoneProject/activepins HTTP/1.1" 200 153
127.0.0.1 - - [13/Nov/2015:14:03:06 -0600] "GET /CapstoneProject/activeposts HTTP/1.1" 200 341
127.0.0.1 - - [13/Nov/2015:14:03:06 -0600] "GET /favicon.ico HTTP/1.1" 200 21630
127.0.0.1 - - [13/Nov/2015:14:03:06 -0600] "GET /CapstoneProject/pinposts HTTP/1.1" 200 153
127.0.0.1 - - [13/Nov/2015:14:03:07 -0600] "GET /CapstoneProject/ HTTP/1.1" 200 5256
127.0.0.1 - - [13/Nov/2015:14:03:08 -0600] "GET /CapstoneProject/css/homepage.css HTTP/1.1" 304 -
127.0.0.1 - - [13/Nov/2015:14:03:08 -0600] "GET /CapstoneProject/css/bootstrap.min.css HTTP/1.1" 304 -
127.0.0.1 - - [13/Nov/2015:14:03:08 -0600] "GET /CapstoneProject/img/profilepic.jpg HTTP/1.1" 304 -
127.0.0.1 - - [13/Nov/2015:14:03:08 -0600] "GET /CapstoneProject/js/jquery-1.11.1.min.js HTTP/1.1" 304 -
127.0.0.1 - - [13/Nov/2015:14:03:08 -0600] "GET /CapstoneProject/js/bootstrap.min.js HTTP/1.1" 304 -
127.0.0.1 - - [13/Nov/2015:14:03:08 -0600] "GET /CapstoneProject/js/admin.js HTTP/1.1" 304 -
127.0.0.1 - - [13/Nov/2015:14:03:08 -0600] "GET /CapstoneProject/img/pin.png HTTP/1.1" 304 -
127.0.0.1 - - [13/Nov/2015:14:03:08 -0600] "GET /CapstoneProject/fonts/DeadheadRough.ttf HTTP/1.1" 304 -
127.0.0.1 - - [13/Nov/2015:14:03:08 -0600] "GET /CapstoneProject/fonts/Hunt.ttf HTTP/1.1" 304 -
127.0.0.1 - - [13/Nov/2015:14:03:08 -0600] "GET /CapstoneProject/pinposts HTTP/1.1" 200 153
127.0.0.1 - - [13/Nov/2015:14:03:08 -0600] "GET /CapstoneProject/activepins HTTP/1.1" 200 153
127.0.0.1 - - [13/Nov/2015:14:03:08 -0600] "GET /CapstoneProject/activetags HTTP/1.1" 200 124
127.0.0.1 - - [13/Nov/2015:14:03:08 -0600] "GET /CapstoneProject/activeposts HTTP/1.1" 200 341
127.0.0.1 - - [13/Nov/2015:14:03:08 -0600] "GET /CapstoneProject/posts HTTP/1.1" 200 341
127.0.0.1 - - [13/Nov/2015:14:03:08 -0600] "GET /CapstoneProject/pinposts HTTP/1.1" 200 153
127.0.0.1 - - [13/Nov/2015:14:03:08 -0600] "GET /favicon.ico HTTP/1.1" 200 21630
127.0.0.1 - - [13/Nov/2015:14:03:08 -0600] "GET /CapstoneProject/ HTTP/1.1" 200 5256
127.0.0.1 - - [13/Nov/2015:14:03:08 -0600] "GET /CapstoneProject/css/bootstrap.min.css HTTP/1.1" 304 -
127.0.0.1 - - [13/Nov/2015:14:03:08 -0600] "GET /CapstoneProject/css/homepage.css HTTP/1.1" 304 -
127.0.0.1 - - [13/Nov/2015:14:03:08 -0600] "GET /CapstoneProject/img/profilepic.jpg HTTP/1.1" 304 -
127.0.0.1 - - [13/Nov/2015:14:03:08 -0600] "GET /CapstoneProject/js/jquery-1.11.1.min.js HTTP/1.1" 304 -
127.0.0.1 - - [13/Nov/2015:14:03:08 -0600] "GET /CapstoneProject/js/bootstrap.min.js HTTP/1.1" 304 -
127.0.0.1 - - [13/Nov/2015:14:03:08 -0600] "GET /CapstoneProject/js/admin.js HTTP/1.1" 304 -
127.0.0.1 - - [13/Nov/2015:14:03:08 -0600] "GET /CapstoneProject/img/pin.png HTTP/1.1" 304 -
127.0.0.1 - - [13/Nov/2015:14:03:08 -0600] "GET /CapstoneProject/fonts/DeadheadRough.ttf HTTP/1.1" 304 -
127.0.0.1 - - [13/Nov/2015:14:03:08 -0600] "GET /CapstoneProject/fonts/Hunt.ttf HTTP/1.1" 304 -
127.0.0.1 - - [13/Nov/2015:14:03:08 -0600] "GET /CapstoneProject/pinposts HTTP/1.1" 200 153
127.0.0.1 - - [13/Nov/2015:14:03:08 -0600] "GET /CapstoneProject/posts HTTP/1.1" 200 341
127.0.0.1 - - [13/Nov/2015:14:03:08 -0600] "GET /CapstoneProject/activepins HTTP/1.1" 200 153
127.0.0.1 - - [13/Nov/2015:14:03:08 -0600] "GET /CapstoneProject/activeposts HTTP/1.1" 200 341
127.0.0.1 - - [13/Nov/2015:14:03:08 -0600] "GET /favicon.ico HTTP/1.1" 200 21630
127.0.0.1 - - [13/Nov/2015:14:03:08 -0600] "GET /CapstoneProject/activetags HTTP/1.1" 200 124
127.0.0.1 - - [13/Nov/2015:14:03:08 -0600] "GET /CapstoneProject/pinposts HTTP/1.1" 200 153
127.0.0.1 - - [13/Nov/2015:14:03:09 -0600] "GET /CapstoneProject/ HTTP/1.1" 200 5256
127.0.0.1 - - [13/Nov/2015:14:03:09 -0600] "GET /CapstoneProject/css/bootstrap.min.css HTTP/1.1" 304 -
127.0.0.1 - - [13/Nov/2015:14:03:09 -0600] "GET /CapstoneProject/css/homepage.css HTTP/1.1" 304 -
127.0.0.1 - - [13/Nov/2015:14:03:09 -0600] "GET /CapstoneProject/js/admin.js HTTP/1.1" 304 -
127.0.0.1 - - [13/Nov/2015:14:03:09 -0600] "GET /CapstoneProject/js/bootstrap.min.js HTTP/1.1" 304 -
127.0.0.1 - - [13/Nov/2015:14:03:09 -0600] "GET /CapstoneProject/js/jquery-1.11.1.min.js HTTP/1.1" 304 -
127.0.0.1 - - [13/Nov/2015:14:03:09 -0600] "GET /CapstoneProject/img/profilepic.jpg HTTP/1.1" 304 -
127.0.0.1 - - [13/Nov/2015:14:03:09 -0600] "GET /CapstoneProject/img/pin.png HTTP/1.1" 304 -
127.0.0.1 - - [13/Nov/2015:14:03:09 -0600] "GET /CapstoneProject/fonts/Hunt.ttf HTTP/1.1" 304 -
127.0.0.1 - - [13/Nov/2015:14:03:09 -0600] "GET /CapstoneProject/fonts/DeadheadRough.ttf HTTP/1.1" 304 -
127.0.0.1 - - [13/Nov/2015:14:03:09 -0600] "GET /CapstoneProject/activetags HTTP/1.1" 200 124
127.0.0.1 - - [13/Nov/2015:14:03:09 -0600] "GET /CapstoneProject/activepins HTTP/1.1" 200 153
127.0.0.1 - - [13/Nov/2015:14:03:09 -0600] "GET /CapstoneProject/activeposts HTTP/1.1" 200 341
127.0.0.1 - - [13/Nov/2015:14:03:09 -0600] "GET /CapstoneProject/pinposts HTTP/1.1" 200 153
127.0.0.1 - - [13/Nov/2015:14:03:09 -0600] "GET /CapstoneProject/posts HTTP/1.1" 200 341
127.0.0.1 - - [13/Nov/2015:14:03:09 -0600] "GET /CapstoneProject/pinposts HTTP/1.1" 200 153
127.0.0.1 - - [13/Nov/2015:14:03:09 -0600] "GET /favicon.ico HTTP/1.1" 200 21630
127.0.0.1 - - [13/Nov/2015:14:03:10 -0600] "GET /CapstoneProject/ HTTP/1.1" 200 5256
127.0.0.1 - - [13/Nov/2015:14:03:10 -0600] "GET /CapstoneProject/css/homepage.css HTTP/1.1" 304 -
127.0.0.1 - - [13/Nov/2015:14:03:10 -0600] "GET /CapstoneProject/js/jquery-1.11.1.min.js HTTP/1.1" 304 -
127.0.0.1 - - [13/Nov/2015:14:03:10 -0600] "GET /CapstoneProject/css/bootstrap.min.css HTTP/1.1" 304 -
127.0.0.1 - - [13/Nov/2015:14:03:10 -0600] "GET /CapstoneProject/img/profilepic.jpg HTTP/1.1" 304 -
127.0.0.1 - - [13/Nov/2015:14:03:10 -0600] "GET /CapstoneProject/img/pin.png HTTP/1.1" 304 -
127.0.0.1 - - [13/Nov/2015:14:03:10 -0600] "GET /CapstoneProject/js/admin.js HTTP/1.1" 304 -
127.0.0.1 - - [13/Nov/2015:14:03:10 -0600] "GET /CapstoneProject/js/bootstrap.min.js HTTP/1.1" 304 -
127.0.0.1 - - [13/Nov/2015:14:03:10 -0600] "GET /CapstoneProject/fonts/DeadheadRough.ttf HTTP/1.1" 304 -
127.0.0.1 - - [13/Nov/2015:14:03:10 -0600] "GET /CapstoneProject/fonts/Hunt.ttf HTTP/1.1" 304 -
127.0.0.1 - - [13/Nov/2015:14:03:10 -0600] "GET /CapstoneProject/pinposts HTTP/1.1" 200 153
127.0.0.1 - - [13/Nov/2015:14:03:10 -0600] "GET /CapstoneProject/activeposts HTTP/1.1" 200 341
127.0.0.1 - - [13/Nov/2015:14:03:10 -0600] "GET /CapstoneProject/posts HTTP/1.1" 200 341
127.0.0.1 - - [13/Nov/2015:14:03:10 -0600] "GET /CapstoneProject/activepins HTTP/1.1" 200 153
127.0.0.1 - - [13/Nov/2015:14:03:10 -0600] "GET /CapstoneProject/pinposts HTTP/1.1" 200 153
127.0.0.1 - - [13/Nov/2015:14:03:10 -0600] "GET /CapstoneProject/activetags HTTP/1.1" 200 124
127.0.0.1 - - [13/Nov/2015:14:03:10 -0600] "GET /favicon.ico HTTP/1.1" 200 21630
127.0.0.1 - - [13/Nov/2015:14:03:10 -0600] "GET /CapstoneProject/ HTTP/1.1" 200 5256
127.0.0.1 - - [13/Nov/2015:14:03:10 -0600] "GET /CapstoneProject/css/homepage.css HTTP/1.1" 304 -
127.0.0.1 - - [13/Nov/2015:14:03:10 -0600] "GET /CapstoneProject/js/bootstrap.min.js HTTP/1.1" 304 -
127.0.0.1 - - [13/Nov/2015:14:03:10 -0600] "GET /CapstoneProject/img/profilepic.jpg HTTP/1.1" 304 -
127.0.0.1 - - [13/Nov/2015:14:03:10 -0600] "GET /CapstoneProject/js/admin.js HTTP/1.1" 304 -
127.0.0.1 - - [13/Nov/2015:14:03:10 -0600] "GET /CapstoneProject/js/jquery-1.11.1.min.js HTTP/1.1" 304 -
127.0.0.1 - - [13/Nov/2015:14:03:10 -0600] "GET /CapstoneProject/css/bootstrap.min.css HTTP/1.1" 304 -
127.0.0.1 - - [13/Nov/2015:14:03:10 -0600] "GET /CapstoneProject/img/pin.png HTTP/1.1" 304 -
127.0.0.1 - - [13/Nov/2015:14:03:10 -0600] "GET /CapstoneProject/fonts/DeadheadRough.ttf HTTP/1.1" 304 -
127.0.0.1 - - [13/Nov/2015:14:03:10 -0600] "GET /CapstoneProject/fonts/Hunt.ttf HTTP/1.1" 304 -
127.0.0.1 - - [13/Nov/2015:14:03:10 -0600] "GET /CapstoneProject/activepins HTTP/1.1" 200 153
127.0.0.1 - - [13/Nov/2015:14:03:10 -0600] "GET /CapstoneProject/activeposts HTTP/1.1" 200 341
127.0.0.1 - - [13/Nov/2015:14:03:10 -0600] "GET /CapstoneProject/posts HTTP/1.1" 200 341
127.0.0.1 - - [13/Nov/2015:14:03:10 -0600] "GET /CapstoneProject/pinposts HTTP/1.1" 200 153
127.0.0.1 - - [13/Nov/2015:14:03:10 -0600] "GET /CapstoneProject/activetags HTTP/1.1" 200 124
127.0.0.1 - - [13/Nov/2015:14:03:10 -0600] "GET /favicon.ico HTTP/1.1" 200 21630
127.0.0.1 - - [13/Nov/2015:14:03:10 -0600] "GET /CapstoneProject/pinposts HTTP/1.1" 200 153
127.0.0.1 - - [13/Nov/2015:14:03:11 -0600] "GET /CapstoneProject/ HTTP/1.1" 200 5256
127.0.0.1 - - [13/Nov/2015:14:03:11 -0600] "GET /CapstoneProject/css/bootstrap.min.css HTTP/1.1" 304 -
127.0.0.1 - - [13/Nov/2015:14:03:11 -0600] "GET /CapstoneProject/css/homepage.css HTTP/1.1" 304 -
127.0.0.1 - - [13/Nov/2015:14:03:11 -0600] "GET /CapstoneProject/js/bootstrap.min.js HTTP/1.1" 304 -
127.0.0.1 - - [13/Nov/2015:14:03:11 -0600] "GET /CapstoneProject/js/admin.js HTTP/1.1" 304 -
127.0.0.1 - - [13/Nov/2015:14:03:11 -0600] "GET /CapstoneProject/js/jquery-1.11.1.min.js HTTP/1.1" 304 -
127.0.0.1 - - [13/Nov/2015:14:03:11 -0600] "GET /CapstoneProject/img/profilepic.jpg HTTP/1.1" 304 -
127.0.0.1 - - [13/Nov/2015:14:03:11 -0600] "GET /CapstoneProject/img/pin.png HTTP/1.1" 304 -
127.0.0.1 - - [13/Nov/2015:14:03:11 -0600] "GET /CapstoneProject/fonts/Hunt.ttf HTTP/1.1" 304 -
127.0.0.1 - - [13/Nov/2015:14:03:11 -0600] "GET /CapstoneProject/fonts/DeadheadRough.ttf HTTP/1.1" 304 -
127.0.0.1 - - [13/Nov/2015:14:03:11 -0600] "GET /CapstoneProject/posts HTTP/1.1" 200 341
127.0.0.1 - - [13/Nov/2015:14:03:11 -0600] "GET /CapstoneProject/pinposts HTTP/1.1" 200 153
127.0.0.1 - - [13/Nov/2015:14:03:11 -0600] "GET /CapstoneProject/activeposts HTTP/1.1" 200 341
127.0.0.1 - - [13/Nov/2015:14:03:11 -0600] "GET /CapstoneProject/activetags HTTP/1.1" 200 124
127.0.0.1 - - [13/Nov/2015:14:03:11 -0600] "GET /CapstoneProject/activepins HTTP/1.1" 200 153
127.0.0.1 - - [13/Nov/2015:14:03:11 -0600] "GET /favicon.ico HTTP/1.1" 200 21630
127.0.0.1 - - [13/Nov/2015:14:03:11 -0600] "GET /CapstoneProject/pinposts HTTP/1.1" 200 153
127.0.0.1 - - [13/Nov/2015:14:03:12 -0600] "GET /CapstoneProject/ HTTP/1.1" 200 5256
127.0.0.1 - - [13/Nov/2015:14:03:12 -0600] "GET /CapstoneProject/css/homepage.css HTTP/1.1" 304 -
127.0.0.1 - - [13/Nov/2015:14:03:12 -0600] "GET /CapstoneProject/img/profilepic.jpg HTTP/1.1" 304 -
127.0.0.1 - - [13/Nov/2015:14:03:12 -0600] "GET /CapstoneProject/css/bootstrap.min.css HTTP/1.1" 304 -
127.0.0.1 - - [13/Nov/2015:14:03:12 -0600] "GET /CapstoneProject/js/jquery-1.11.1.min.js HTTP/1.1" 304 -
127.0.0.1 - - [13/Nov/2015:14:03:12 -0600] "GET /CapstoneProject/js/bootstrap.min.js HTTP/1.1" 304 -
127.0.0.1 - - [13/Nov/2015:14:03:12 -0600] "GET /CapstoneProject/js/admin.js HTTP/1.1" 304 -
127.0.0.1 - - [13/Nov/2015:14:03:12 -0600] "GET /CapstoneProject/img/pin.png HTTP/1.1" 304 -
127.0.0.1 - - [13/Nov/2015:14:03:12 -0600] "GET /CapstoneProject/fonts/DeadheadRough.ttf HTTP/1.1" 304 -
127.0.0.1 - - [13/Nov/2015:14:03:12 -0600] "GET /CapstoneProject/fonts/Hunt.ttf HTTP/1.1" 304 -
127.0.0.1 - - [13/Nov/2015:14:03:12 -0600] "GET /CapstoneProject/posts HTTP/1.1" 200 341
127.0.0.1 - - [13/Nov/2015:14:03:12 -0600] "GET /CapstoneProject/pinposts HTTP/1.1" 200 153
127.0.0.1 - - [13/Nov/2015:14:03:12 -0600] "GET /CapstoneProject/activeposts HTTP/1.1" 200 341
127.0.0.1 - - [13/Nov/2015:14:03:12 -0600] "GET /CapstoneProject/activetags HTTP/1.1" 200 124
127.0.0.1 - - [13/Nov/2015:14:03:12 -0600] "GET /CapstoneProject/activepins HTTP/1.1" 200 153
127.0.0.1 - - [13/Nov/2015:14:03:12 -0600] "GET /CapstoneProject/pinposts HTTP/1.1" 200 153
127.0.0.1 - - [13/Nov/2015:14:03:12 -0600] "GET /favicon.ico HTTP/1.1" 200 21630
127.0.0.1 - - [13/Nov/2015:14:05:56 -0600] "HEAD /netbeans-tomcat-status-test HTTP/1.1" 404 -
127.0.0.1 - - [13/Nov/2015:14:05:56 -0600] "HEAD /netbeans-tomcat-status-test HTTP/1.1" 404 -
127.0.0.1 - - [13/Nov/2015:14:05:56 -0600] "HEAD /netbeans-tomcat-status-test HTTP/1.1" 404 -
127.0.0.1 - - [13/Nov/2015:14:05:56 -0600] "HEAD /netbeans-tomcat-status-test HTTP/1.1" 404 -
127.0.0.1 - apprentice [13/Nov/2015:14:05:56 -0600] "GET /manager/text/list HTTP/1.1" 200 1325
127.0.0.1 - apprentice [13/Nov/2015:14:05:56 -0600] "GET /manager/text/list HTTP/1.1" 200 1325
127.0.0.1 - apprentice [13/Nov/2015:14:05:56 -0600] "GET /manager/text/undeploy?path=/CapstoneProject HTTP/1.1" 200 72
127.0.0.1 - apprentice [13/Nov/2015:14:05:58 -0600] "GET /manager/text/deploy?config=file%3A%2Ftmp%2Fcontext8112023280003388446.xml&path=/CapstoneProject HTTP/1.1" 200 70
127.0.0.1 - apprentice [13/Nov/2015:14:05:58 -0600] "GET /manager/text/start?path=/CapstoneProject HTTP/1.1" 200 69
127.0.0.1 - - [13/Nov/2015:14:05:59 -0600] "GET /CapstoneProject HTTP/1.1" 302 -
127.0.0.1 - - [13/Nov/2015:14:05:59 -0600] "GET /CapstoneProject/ HTTP/1.1" 200 5256
127.0.0.1 - - [13/Nov/2015:14:05:59 -0600] "GET /CapstoneProject/css/homepage.css HTTP/1.1" 200 2699
127.0.0.1 - - [13/Nov/2015:14:05:59 -0600] "GET /CapstoneProject/img/profilepic.jpg HTTP/1.1" 200 69567
127.0.0.1 - - [13/Nov/2015:14:05:59 -0600] "GET /CapstoneProject/css/bootstrap.min.css HTTP/1.1" 200 113529
127.0.0.1 - - [13/Nov/2015:14:05:59 -0600] "GET /CapstoneProject/js/jquery-1.11.1.min.js HTTP/1.1" 200 95786
127.0.0.1 - - [13/Nov/2015:14:05:59 -0600] "GET /CapstoneProject/js/bootstrap.min.js HTTP/1.1" 200 35601
127.0.0.1 - - [13/Nov/2015:14:05:59 -0600] "GET /CapstoneProject/js/admin.js HTTP/1.1" 200 26067
127.0.0.1 - - [13/Nov/2015:14:05:59 -0600] "GET /CapstoneProject/img/pin.png HTTP/1.1" 200 978
127.0.0.1 - - [13/Nov/2015:14:05:59 -0600] "GET /CapstoneProject/css/wall.jpg HTTP/1.1" 200 957632
127.0.0.1 - - [13/Nov/2015:14:05:59 -0600] "GET /CapstoneProject/fonts/DeadheadRough.ttf HTTP/1.1" 200 111476
127.0.0.1 - - [13/Nov/2015:14:05:59 -0600] "GET /CapstoneProject/fonts/Hunt.ttf HTTP/1.1" 200 181128
127.0.0.1 - - [13/Nov/2015:14:05:59 -0600] "GET /CapstoneProject/css/black.png HTTP/1.1" 200 4388
127.0.0.1 - - [13/Nov/2015:14:06:00 -0600] "GET /CapstoneProject/activepins HTTP/1.1" 200 153
127.0.0.1 - - [13/Nov/2015:14:06:00 -0600] "GET /CapstoneProject/activeposts HTTP/1.1" 200 341
127.0.0.1 - - [13/Nov/2015:14:06:00 -0600] "GET /CapstoneProject/activetags HTTP/1.1" 200 124
127.0.0.1 - - [13/Nov/2015:14:06:00 -0600] "GET /CapstoneProject/posts HTTP/1.1" 200 341
127.0.0.1 - - [13/Nov/2015:14:06:00 -0600] "GET /CapstoneProject/pinposts HTTP/1.1" 200 153
127.0.0.1 - - [13/Nov/2015:14:06:00 -0600] "GET /CapstoneProject/pinposts HTTP/1.1" 200 153
127.0.0.1 - - [13/Nov/2015:14:08:09 -0600] "HEAD /netbeans-tomcat-status-test HTTP/1.1" 404 -
127.0.0.1 - - [13/Nov/2015:14:08:09 -0600] "HEAD /netbeans-tomcat-status-test HTTP/1.1" 404 -
127.0.0.1 - - [13/Nov/2015:14:08:09 -0600] "HEAD /netbeans-tomcat-status-test HTTP/1.1" 404 -
127.0.0.1 - apprentice [13/Nov/2015:14:08:09 -0600] "GET /manager/text/list HTTP/1.1" 200 1325
127.0.0.1 - - [13/Nov/2015:14:08:09 -0600] "HEAD /netbeans-tomcat-status-test HTTP/1.1" 404 -
127.0.0.1 - - [13/Nov/2015:14:08:13 -0600] "GET /CapstoneProject/ HTTP/1.1" 200 5249
127.0.0.1 - - [13/Nov/2015:14:08:13 -0600] "GET /CapstoneProject/css/bootstrap.min.css HTTP/1.1" 304 -
127.0.0.1 - - [13/Nov/2015:14:08:13 -0600] "GET /CapstoneProject/css/homepage.css HTTP/1.1" 304 -
127.0.0.1 - - [13/Nov/2015:14:08:13 -0600] "GET /CapstoneProject/js/bootstrap.min.js HTTP/1.1" 304 -
127.0.0.1 - - [13/Nov/2015:14:08:13 -0600] "GET /CapstoneProject/img/profilepic.jpg HTTP/1.1" 304 -
127.0.0.1 - - [13/Nov/2015:14:08:13 -0600] "GET /CapstoneProject/js/jquery-1.11.1.min.js HTTP/1.1" 304 -
127.0.0.1 - - [13/Nov/2015:14:08:13 -0600] "GET /CapstoneProject/js/admin.js HTTP/1.1" 304 -
127.0.0.1 - - [13/Nov/2015:14:08:13 -0600] "GET /CapstoneProject/img/pin.png HTTP/1.1" 304 -
127.0.0.1 - - [13/Nov/2015:14:08:13 -0600] "GET /CapstoneProject/fonts/Hunt.ttf HTTP/1.1" 304 -
127.0.0.1 - - [13/Nov/2015:14:08:13 -0600] "GET /CapstoneProject/fonts/DeadheadRough.ttf HTTP/1.1" 304 -
127.0.0.1 - - [13/Nov/2015:14:08:13 -0600] "GET /CapstoneProject/pinposts HTTP/1.1" 200 153
127.0.0.1 - - [13/Nov/2015:14:08:13 -0600] "GET /CapstoneProject/activeposts HTTP/1.1" 200 341
127.0.0.1 - - [13/Nov/2015:14:08:13 -0600] "GET /CapstoneProject/activepins HTTP/1.1" 200 153
127.0.0.1 - - [13/Nov/2015:14:08:13 -0600] "GET /CapstoneProject/pinposts HTTP/1.1" 200 153
127.0.0.1 - - [13/Nov/2015:14:08:13 -0600] "GET /CapstoneProject/activetags HTTP/1.1" 200 124
127.0.0.1 - - [13/Nov/2015:14:08:13 -0600] "GET /CapstoneProject/posts HTTP/1.1" 200 341
127.0.0.1 - - [13/Nov/2015:14:08:13 -0600] "GET /favicon.ico HTTP/1.1" 200 21630
127.0.0.1 - - [13/Nov/2015:14:08:25 -0600] "HEAD /netbeans-tomcat-status-test HTTP/1.1" 404 -
127.0.0.1 - - [13/Nov/2015:14:08:25 -0600] "HEAD /netbeans-tomcat-status-test HTTP/1.1" 404 -
127.0.0.1 - - [13/Nov/2015:14:08:25 -0600] "HEAD /netbeans-tomcat-status-test HTTP/1.1" 404 -
127.0.0.1 - apprentice [13/Nov/2015:14:08:25 -0600] "GET /manager/text/list HTTP/1.1" 200 1325
127.0.0.1 - - [13/Nov/2015:14:08:25 -0600] "HEAD /netbeans-tomcat-status-test HTTP/1.1" 404 -
127.0.0.1 - - [13/Nov/2015:14:08:27 -0600] "GET /CapstoneProject/ HTTP/1.1" 200 5256
127.0.0.1 - - [13/Nov/2015:14:08:27 -0600] "GET /CapstoneProject/css/bootstrap.min.css HTTP/1.1" 304 -
127.0.0.1 - - [13/Nov/2015:14:08:27 -0600] "GET /CapstoneProject/img/profilepic.jpg HTTP/1.1" 304 -
127.0.0.1 - - [13/Nov/2015:14:08:27 -0600] "GET /CapstoneProject/css/homepage.css HTTP/1.1" 304 -
127.0.0.1 - - [13/Nov/2015:14:08:27 -0600] "GET /CapstoneProject/js/bootstrap.min.js HTTP/1.1" 304 -
127.0.0.1 - - [13/Nov/2015:14:08:27 -0600] "GET /CapstoneProject/img/pin.png HTTP/1.1" 304 -
127.0.0.1 - - [13/Nov/2015:14:08:27 -0600] "GET /CapstoneProject/js/admin.js HTTP/1.1" 304 -
127.0.0.1 - - [13/Nov/2015:14:08:27 -0600] "GET /CapstoneProject/js/jquery-1.11.1.min.js HTTP/1.1" 304 -
127.0.0.1 - - [13/Nov/2015:14:08:27 -0600] "GET /CapstoneProject/fonts/DeadheadRough.ttf HTTP/1.1" 304 -
127.0.0.1 - - [13/Nov/2015:14:08:27 -0600] "GET /CapstoneProject/fonts/Hunt.ttf HTTP/1.1" 304 -
127.0.0.1 - - [13/Nov/2015:14:08:27 -0600] "GET /CapstoneProject/pinposts HTTP/1.1" 200 153
127.0.0.1 - - [13/Nov/2015:14:08:27 -0600] "GET /CapstoneProject/posts HTTP/1.1" 200 341
127.0.0.1 - - [13/Nov/2015:14:08:27 -0600] "GET /CapstoneProject/activepins HTTP/1.1" 200 153
127.0.0.1 - - [13/Nov/2015:14:08:27 -0600] "GET /CapstoneProject/activeposts HTTP/1.1" 200 341
127.0.0.1 - - [13/Nov/2015:14:08:27 -0600] "GET /CapstoneProject/activetags HTTP/1.1" 200 124
127.0.0.1 - - [13/Nov/2015:14:08:27 -0600] "GET /CapstoneProject/pinposts HTTP/1.1" 200 153
127.0.0.1 - - [13/Nov/2015:14:08:27 -0600] "GET /favicon.ico HTTP/1.1" 200 21630
127.0.0.1 - - [13/Nov/2015:14:10:28 -0600] "HEAD /netbeans-tomcat-status-test HTTP/1.1" 404 -
127.0.0.1 - - [13/Nov/2015:14:10:28 -0600] "HEAD /netbeans-tomcat-status-test HTTP/1.1" 404 -
127.0.0.1 - - [13/Nov/2015:14:10:28 -0600] "HEAD /netbeans-tomcat-status-test HTTP/1.1" 404 -
127.0.0.1 - apprentice [13/Nov/2015:14:10:28 -0600] "GET /manager/text/list HTTP/1.1" 200 1325
127.0.0.1 - - [13/Nov/2015:14:10:28 -0600] "HEAD /netbeans-tomcat-status-test HTTP/1.1" 404 -
127.0.0.1 - - [13/Nov/2015:14:10:33 -0600] "GET /CapstoneProject/ HTTP/1.1" 200 5327
127.0.0.1 - - [13/Nov/2015:14:10:33 -0600] "GET /CapstoneProject/css/bootstrap.min.css HTTP/1.1" 304 -
127.0.0.1 - - [13/Nov/2015:14:10:33 -0600] "GET /CapstoneProject/js/bootstrap.min.js HTTP/1.1" 304 -
127.0.0.1 - - [13/Nov/2015:14:10:33 -0600] "GET /CapstoneProject/css/homepage.css HTTP/1.1" 304 -
127.0.0.1 - - [13/Nov/2015:14:10:33 -0600] "GET /CapstoneProject/js/admin.js HTTP/1.1" 304 -
127.0.0.1 - - [13/Nov/2015:14:10:33 -0600] "GET /CapstoneProject/js/jquery-1.11.1.min.js HTTP/1.1" 304 -
127.0.0.1 - - [13/Nov/2015:14:10:33 -0600] "GET /CapstoneProject/img/profilepic.jpg HTTP/1.1" 304 -
127.0.0.1 - - [13/Nov/2015:14:10:33 -0600] "GET /CapstoneProject/img/pin.png HTTP/1.1" 304 -
127.0.0.1 - - [13/Nov/2015:14:10:33 -0600] "GET /CapstoneProject/fonts/DeadheadRough.ttf HTTP/1.1" 304 -
127.0.0.1 - - [13/Nov/2015:14:10:33 -0600] "GET /CapstoneProject/fonts/Hunt.ttf HTTP/1.1" 304 -
127.0.0.1 - - [13/Nov/2015:14:10:33 -0600] "GET /CapstoneProject/pinposts HTTP/1.1" 200 153
127.0.0.1 - - [13/Nov/2015:14:10:33 -0600] "GET /CapstoneProject/posts HTTP/1.1" 200 341
127.0.0.1 - - [13/Nov/2015:14:10:33 -0600] "GET /CapstoneProject/activepins HTTP/1.1" 200 153
127.0.0.1 - - [13/Nov/2015:14:10:33 -0600] "GET /CapstoneProject/activetags HTTP/1.1" 200 124
127.0.0.1 - - [13/Nov/2015:14:10:33 -0600] "GET /CapstoneProject/pinposts HTTP/1.1" 200 153
127.0.0.1 - - [13/Nov/2015:14:10:33 -0600] "GET /CapstoneProject/activeposts HTTP/1.1" 200 341
127.0.0.1 - - [13/Nov/2015:14:10:33 -0600] "GET /favicon.ico HTTP/1.1" 200 21630
127.0.0.1 - - [13/Nov/2015:14:10:44 -0600] "GET /CapstoneProject/ HTTP/1.1" 200 5327
127.0.0.1 - - [13/Nov/2015:14:10:44 -0600] "GET /CapstoneProject/css/bootstrap.min.css HTTP/1.1" 304 -
127.0.0.1 - - [13/Nov/2015:14:10:44 -0600] "GET /CapstoneProject/css/homepage.css HTTP/1.1" 304 -
127.0.0.1 - - [13/Nov/2015:14:10:44 -0600] "GET /CapstoneProject/img/profilepic.jpg HTTP/1.1" 304 -
127.0.0.1 - - [13/Nov/2015:14:10:44 -0600] "GET /CapstoneProject/js/bootstrap.min.js HTTP/1.1" 304 -
127.0.0.1 - - [13/Nov/2015:14:10:44 -0600] "GET /CapstoneProject/js/admin.js HTTP/1.1" 304 -
127.0.0.1 - - [13/Nov/2015:14:10:44 -0600] "GET /CapstoneProject/js/jquery-1.11.1.min.js HTTP/1.1" 304 -
127.0.0.1 - - [13/Nov/2015:14:10:44 -0600] "GET /CapstoneProject/img/pin.png HTTP/1.1" 304 -
127.0.0.1 - - [13/Nov/2015:14:10:44 -0600] "GET /CapstoneProject/fonts/Hunt.ttf HTTP/1.1" 304 -
127.0.0.1 - - [13/Nov/2015:14:10:44 -0600] "GET /CapstoneProject/fonts/DeadheadRough.ttf HTTP/1.1" 304 -
127.0.0.1 - - [13/Nov/2015:14:10:44 -0600] "GET /CapstoneProject/pinposts HTTP/1.1" 200 153
127.0.0.1 - - [13/Nov/2015:14:10:44 -0600] "GET /CapstoneProject/posts HTTP/1.1" 200 341
127.0.0.1 - - [13/Nov/2015:14:10:44 -0600] "GET /CapstoneProject/activeposts HTTP/1.1" 200 341
127.0.0.1 - - [13/Nov/2015:14:10:44 -0600] "GET /CapstoneProject/activepins HTTP/1.1" 200 153
127.0.0.1 - - [13/Nov/2015:14:10:44 -0600] "GET /CapstoneProject/activetags HTTP/1.1" 200 124
127.0.0.1 - - [13/Nov/2015:14:10:44 -0600] "GET /CapstoneProject/pinposts HTTP/1.1" 200 153
127.0.0.1 - - [13/Nov/2015:14:10:44 -0600] "GET /favicon.ico HTTP/1.1" 200 21630
127.0.0.1 - - [13/Nov/2015:14:18:10 -0600] "HEAD /netbeans-tomcat-status-test HTTP/1.1" 404 -
127.0.0.1 - - [13/Nov/2015:14:18:10 -0600] "HEAD /netbeans-tomcat-status-test HTTP/1.1" 404 -
127.0.0.1 - - [13/Nov/2015:14:18:10 -0600] "HEAD /netbeans-tomcat-status-test HTTP/1.1" 404 -
127.0.0.1 - apprentice [13/Nov/2015:14:18:10 -0600] "GET /manager/text/list HTTP/1.1" 200 1325
127.0.0.1 - - [13/Nov/2015:14:18:10 -0600] "HEAD /netbeans-tomcat-status-test HTTP/1.1" 404 -
127.0.0.1 - - [13/Nov/2015:14:18:11 -0600] "HEAD /netbeans-tomcat-status-test HTTP/1.1" 404 -
127.0.0.1 - - [13/Nov/2015:14:18:11 -0600] "HEAD /netbeans-tomcat-status-test HTTP/1.1" 404 -
127.0.0.1 - - [13/Nov/2015:14:18:11 -0600] "HEAD /netbeans-tomcat-status-test HTTP/1.1" 404 -
127.0.0.1 - - [13/Nov/2015:14:18:11 -0600] "HEAD /netbeans-tomcat-status-test HTTP/1.1" 404 -
127.0.0.1 - apprentice [13/Nov/2015:14:18:11 -0600] "GET /manager/text/list HTTP/1.1" 200 1325
127.0.0.1 - apprentice [13/Nov/2015:14:18:11 -0600] "GET /manager/text/list HTTP/1.1" 200 1325
127.0.0.1 - apprentice [13/Nov/2015:14:18:12 -0600] "GET /manager/text/undeploy?path=/CapstoneProject HTTP/1.1" 200 72
127.0.0.1 - apprentice [13/Nov/2015:14:18:14 -0600] "GET /manager/text/deploy?config=file%3A%2Ftmp%2Fcontext6260426384005725954.xml&path=/CapstoneProject HTTP/1.1" 200 70
127.0.0.1 - apprentice [13/Nov/2015:14:18:14 -0600] "GET /manager/text/start?path=/CapstoneProject HTTP/1.1" 200 69
127.0.0.1 - - [13/Nov/2015:14:18:14 -0600] "GET /CapstoneProject HTTP/1.1" 302 -
127.0.0.1 - - [13/Nov/2015:14:18:14 -0600] "GET /CapstoneProject/ HTTP/1.1" 200 5251
127.0.0.1 - - [13/Nov/2015:14:18:14 -0600] "GET /CapstoneProject/img/pin.png HTTP/1.1" 304 -
127.0.0.1 - - [13/Nov/2015:14:18:14 -0600] "GET /CapstoneProject/js/admin.js HTTP/1.1" 304 -
127.0.0.1 - - [13/Nov/2015:14:18:15 -0600] "GET /CapstoneProject/pinposts HTTP/1.1" 200 153
127.0.0.1 - - [13/Nov/2015:14:18:15 -0600] "GET /CapstoneProject/activepins HTTP/1.1" 200 153
127.0.0.1 - - [13/Nov/2015:14:18:15 -0600] "GET /CapstoneProject/activeposts HTTP/1.1" 200 341
127.0.0.1 - - [13/Nov/2015:14:18:15 -0600] "GET /CapstoneProject/activetags HTTP/1.1" 200 124
127.0.0.1 - - [13/Nov/2015:14:18:15 -0600] "GET /CapstoneProject/pinposts HTTP/1.1" 200 153
127.0.0.1 - - [13/Nov/2015:14:18:15 -0600] "GET /CapstoneProject/posts HTTP/1.1" 200 341
127.0.0.1 - - [13/Nov/2015:14:18:38 -0600] "GET /CapstoneProject/employee HTTP/1.1" 302 -
127.0.0.1 - - [13/Nov/2015:14:18:38 -0600] "GET /CapstoneProject/login HTTP/1.1" 200 1513
127.0.0.1 - - [13/Nov/2015:14:18:39 -0600] "POST /CapstoneProject/j_spring_security_check HTTP/1.1" 302 -
127.0.0.1 - - [13/Nov/2015:14:18:39 -0600] "GET /CapstoneProject/employee HTTP/1.1" 302 -
127.0.0.1 - - [13/Nov/2015:14:18:39 -0600] "GET /CapstoneProject/admin HTTP/1.1" 200 8099
127.0.0.1 - - [13/Nov/2015:14:18:40 -0600] "GET /CapstoneProject/pinposts HTTP/1.1" 200 153
127.0.0.1 - - [13/Nov/2015:14:18:40 -0600] "GET /CapstoneProject/posts HTTP/1.1" 200 341
127.0.0.1 - - [13/Nov/2015:14:18:40 -0600] "GET /CapstoneProject/activepins HTTP/1.1" 200 153
127.0.0.1 - - [13/Nov/2015:14:18:40 -0600] "GET /CapstoneProject/activeposts HTTP/1.1" 200 341
127.0.0.1 - - [13/Nov/2015:14:18:40 -0600] "GET /CapstoneProject/pinposts HTTP/1.1" 200 153
127.0.0.1 - - [13/Nov/2015:14:18:40 -0600] "GET /CapstoneProject/activetags HTTP/1.1" 200 124
127.0.0.1 - - [13/Nov/2015:14:18:41 -0600] "GET /CapstoneProject/pinned HTTP/1.1" 200 7677
127.0.0.1 - - [13/Nov/2015:14:18:41 -0600] "GET /CapstoneProject/activepins HTTP/1.1" 200 153
127.0.0.1 - - [13/Nov/2015:14:18:41 -0600] "GET /CapstoneProject/activetags HTTP/1.1" 200 124
127.0.0.1 - - [13/Nov/2015:14:18:41 -0600] "GET /CapstoneProject/activeposts HTTP/1.1" 200 341
127.0.0.1 - - [13/Nov/2015:14:18:41 -0600] "GET /CapstoneProject/pinposts HTTP/1.1" 200 153
127.0.0.1 - - [13/Nov/2015:14:18:41 -0600] "GET /CapstoneProject/posts HTTP/1.1" 200 341
127.0.0.1 - - [13/Nov/2015:14:18:41 -0600] "GET /CapstoneProject/pinposts HTTP/1.1" 200 153
127.0.0.1 - - [13/Nov/2015:14:19:14 -0600] "HEAD /netbeans-tomcat-status-test HTTP/1.1" 404 -
127.0.0.1 - - [13/Nov/2015:14:19:14 -0600] "HEAD /netbeans-tomcat-status-test HTTP/1.1" 404 -
127.0.0.1 - - [13/Nov/2015:14:19:14 -0600] "HEAD /netbeans-tomcat-status-test HTTP/1.1" 404 -
127.0.0.1 - apprentice [13/Nov/2015:14:19:14 -0600] "GET /manager/text/list HTTP/1.1" 200 1325
127.0.0.1 - - [13/Nov/2015:14:19:14 -0600] "HEAD /netbeans-tomcat-status-test HTTP/1.1" 404 -
127.0.0.1 - - [13/Nov/2015:14:19:17 -0600] "GET /CapstoneProject/home HTTP/1.1" 200 5250
127.0.0.1 - - [13/Nov/2015:14:19:17 -0600] "GET /CapstoneProject/pinposts HTTP/1.1" 200 153
127.0.0.1 - - [13/Nov/2015:14:19:17 -0600] "GET /CapstoneProject/posts HTTP/1.1" 200 341
127.0.0.1 - - [13/Nov/2015:14:19:17 -0600] "GET /CapstoneProject/pinposts HTTP/1.1" 200 153
127.0.0.1 - - [13/Nov/2015:14:19:17 -0600] "GET /CapstoneProject/activepins HTTP/1.1" 200 153
127.0.0.1 - - [13/Nov/2015:14:19:17 -0600] "GET /CapstoneProject/activetags HTTP/1.1" 200 124
127.0.0.1 - - [13/Nov/2015:14:19:17 -0600] "GET /CapstoneProject/activeposts HTTP/1.1" 200 341
127.0.0.1 - - [13/Nov/2015:14:22:01 -0600] "GET /CapstoneProject/employee HTTP/1.1" 302 -
127.0.0.1 - - [13/Nov/2015:14:22:01 -0600] "GET /CapstoneProject/admin HTTP/1.1" 200 8099
127.0.0.1 - - [13/Nov/2015:14:22:01 -0600] "GET /CapstoneProject/js/admin.js HTTP/1.1" 304 -
127.0.0.1 - - [13/Nov/2015:14:22:01 -0600] "GET /CapstoneProject/activeposts HTTP/1.1" 200 341
127.0.0.1 - - [13/Nov/2015:14:22:01 -0600] "GET /CapstoneProject/pinposts HTTP/1.1" 200 153
127.0.0.1 - - [13/Nov/2015:14:22:01 -0600] "GET /CapstoneProject/activepins HTTP/1.1" 200 153
127.0.0.1 - - [13/Nov/2015:14:22:01 -0600] "GET /CapstoneProject/posts HTTP/1.1" 200 341
127.0.0.1 - - [13/Nov/2015:14:22:01 -0600] "GET /CapstoneProject/activetags HTTP/1.1" 200 124
127.0.0.1 - - [13/Nov/2015:14:22:01 -0600] "GET /CapstoneProject/pinposts HTTP/1.1" 200 153
127.0.0.1 - - [13/Nov/2015:14:22:01 -0600] "GET /CapstoneProject/img/pin.png HTTP/1.1" 304 -
127.0.0.1 - - [13/Nov/2015:14:22:44 -0600] "POST /CapstoneProject/post HTTP/1.1" 201 221
127.0.0.1 - - [13/Nov/2015:14:22:44 -0600] "GET /CapstoneProject/posts HTTP/1.1" 200 516
127.0.0.1 - - [13/Nov/2015:14:22:44 -0600] "GET /CapstoneProject/pinposts HTTP/1.1" 200 153
127.0.0.1 - - [13/Nov/2015:14:22:47 -0600] "GET /CapstoneProject/post/11 HTTP/1.1" 200 185
127.0.0.1 - - [13/Nov/2015:14:22:47 -0600] "GET /CapstoneProject/tags/11 HTTP/1.1" 200 25
127.0.0.1 - - [13/Nov/2015:14:22:48 -0600] "GET /CapstoneProject/posts HTTP/1.1" 200 516
127.0.0.1 - - [13/Nov/2015:14:22:48 -0600] "GET /CapstoneProject/pinposts HTTP/1.1" 200 153
127.0.0.1 - - [13/Nov/2015:14:22:49 -0600] "PATCH /CapstoneProject/post/11 HTTP/1.1" 200 -
127.0.0.1 - - [13/Nov/2015:14:22:49 -0600] "GET /CapstoneProject/pinposts HTTP/1.1" 200 153
127.0.0.1 - - [13/Nov/2015:14:22:49 -0600] "GET /CapstoneProject/posts HTTP/1.1" 200 516
127.0.0.1 - - [13/Nov/2015:14:22:51 -0600] "GET /CapstoneProject/home HTTP/1.1" 200 5250
127.0.0.1 - - [13/Nov/2015:14:22:51 -0600] "GET /CapstoneProject/pinposts HTTP/1.1" 200 153
127.0.0.1 - - [13/Nov/2015:14:22:51 -0600] "GET /CapstoneProject/activetags HTTP/1.1" 200 182
127.0.0.1 - - [13/Nov/2015:14:22:51 -0600] "GET /CapstoneProject/pinposts HTTP/1.1" 200 153
127.0.0.1 - - [13/Nov/2015:14:22:51 -0600] "GET /CapstoneProject/activepins HTTP/1.1" 200 153
127.0.0.1 - - [13/Nov/2015:14:22:51 -0600] "GET /CapstoneProject/activeposts HTTP/1.1" 200 516
127.0.0.1 - - [13/Nov/2015:14:22:51 -0600] "GET /CapstoneProject/posts HTTP/1.1" 200 516
127.0.0.1 - - [13/Nov/2015:14:22:56 -0600] "GET /CapstoneProject/tag/falcons HTTP/1.1" 200 178
127.0.0.1 - - [13/Nov/2015:14:22:57 -0600] "GET /CapstoneProject/tag/beach HTTP/1.1" 200 174
127.0.0.1 - - [13/Nov/2015:14:22:59 -0600] "GET /CapstoneProject/tag/tampa HTTP/1.1" 200 174
127.0.0.1 - - [13/Nov/2015:14:22:59 -0600] "GET /CapstoneProject/tag/eagles HTTP/1.1" 200 187
127.0.0.1 - - [13/Nov/2015:14:23:01 -0600] "GET /CapstoneProject/tag/no%20names HTTP/1.1" 200 187
127.0.0.1 - - [13/Nov/2015:14:23:02 -0600] "GET /CapstoneProject/tag/vikings HTTP/1.1" 200 354
127.0.0.1 - - [13/Nov/2015:14:23:10 -0600] "GET /CapstoneProject/posts HTTP/1.1" 200 516
127.0.0.1 - - [13/Nov/2015:14:23:10 -0600] "GET /CapstoneProject/pinposts HTTP/1.1" 200 153
127.0.0.1 - - [13/Nov/2015:15:01:53 -0600] "HEAD /netbeans-tomcat-status-test HTTP/1.1" 404 -
127.0.0.1 - - [13/Nov/2015:15:01:53 -0600] "HEAD /netbeans-tomcat-status-test HTTP/1.1" 404 -
127.0.0.1 - - [13/Nov/2015:15:01:53 -0600] "HEAD /netbeans-tomcat-status-test HTTP/1.1" 404 -
127.0.0.1 - apprentice [13/Nov/2015:15:01:53 -0600] "GET /manager/text/list HTTP/1.1" 200 1325
127.0.0.1 - - [13/Nov/2015:15:01:53 -0600] "HEAD /netbeans-tomcat-status-test HTTP/1.1" 404 -
127.0.0.1 - - [13/Nov/2015:15:02:02 -0600] "HEAD /netbeans-tomcat-status-test HTTP/1.1" 404 -
127.0.0.1 - - [13/Nov/2015:15:02:02 -0600] "HEAD /netbeans-tomcat-status-test HTTP/1.1" 404 -
127.0.0.1 - - [13/Nov/2015:15:02:02 -0600] "HEAD /netbeans-tomcat-status-test HTTP/1.1" 404 -
127.0.0.1 - apprentice [13/Nov/2015:15:02:02 -0600] "GET /manager/text/list HTTP/1.1" 200 1325
127.0.0.1 - - [13/Nov/2015:15:02:02 -0600] "HEAD /netbeans-tomcat-status-test HTTP/1.1" 404 -
127.0.0.1 - - [13/Nov/2015:15:02:11 -0600] "HEAD /netbeans-tomcat-status-test HTTP/1.1" 404 -
127.0.0.1 - - [13/Nov/2015:15:02:11 -0600] "HEAD /netbeans-tomcat-status-test HTTP/1.1" 404 -
127.0.0.1 - - [13/Nov/2015:15:02:11 -0600] "HEAD /netbeans-tomcat-status-test HTTP/1.1" 404 -
127.0.0.1 - - [13/Nov/2015:15:02:11 -0600] "HEAD /netbeans-tomcat-status-test HTTP/1.1" 404 -
127.0.0.1 - apprentice [13/Nov/2015:15:02:11 -0600] "GET /manager/text/list HTTP/1.1" 200 1325
127.0.0.1 - apprentice [13/Nov/2015:15:02:11 -0600] "GET /manager/text/list HTTP/1.1" 200 1325
127.0.0.1 - apprentice [13/Nov/2015:15:02:11 -0600] "GET /manager/text/undeploy?path=/CapstoneProject HTTP/1.1" 200 72
127.0.0.1 - apprentice [13/Nov/2015:15:02:13 -0600] "GET /manager/text/deploy?config=file%3A%2Ftmp%2Fcontext4383493748470162477.xml&path=/CapstoneProject HTTP/1.1" 200 70
127.0.0.1 - apprentice [13/Nov/2015:15:02:13 -0600] "GET /manager/text/start?path=/CapstoneProject HTTP/1.1" 200 69
127.0.0.1 - - [13/Nov/2015:15:02:14 -0600] "GET /CapstoneProject HTTP/1.1" 302 -
127.0.0.1 - - [13/Nov/2015:15:02:14 -0600] "GET /CapstoneProject/ HTTP/1.1" 200 5018
127.0.0.1 - - [13/Nov/2015:15:02:14 -0600] "GET /CapstoneProject/js/admin.js HTTP/1.1" 200 26040
127.0.0.1 - - [13/Nov/2015:15:02:15 -0600] "GET /CapstoneProject/activetags HTTP/1.1" 200 182
127.0.0.1 - - [13/Nov/2015:15:02:15 -0600] "GET /CapstoneProject/activeposts HTTP/1.1" 200 516
127.0.0.1 - - [13/Nov/2015:15:02:15 -0600] "GET /CapstoneProject/pinposts HTTP/1.1" 200 153
127.0.0.1 - - [13/Nov/2015:15:02:15 -0600] "GET /CapstoneProject/posts HTTP/1.1" 200 516
127.0.0.1 - - [13/Nov/2015:15:02:15 -0600] "GET /CapstoneProject/pinposts HTTP/1.1" 200 153
127.0.0.1 - - [13/Nov/2015:15:02:15 -0600] "GET /CapstoneProject/activepins HTTP/1.1" 200 153
127.0.0.1 - - [13/Nov/2015:15:02:15 -0600] "GET /CapstoneProject/img/pin.png HTTP/1.1" 304 -
127.0.0.1 - - [13/Nov/2015:17:00:11 -0600] "GET /CapstoneProject/contact HTTP/1.1" 200 2671
127.0.0.1 - - [13/Nov/2015:17:00:11 -0600] "GET /CapstoneProject/img/likeusonfacebook.jpg HTTP/1.1" 200 11199
127.0.0.1 - - [13/Nov/2015:17:00:11 -0600] "GET /CapstoneProject/css/contactStyles.css HTTP/1.1" 304 -
127.0.0.1 - - [13/Nov/2015:17:00:11 -0600] "GET /CapstoneProject/css/pole.jpg HTTP/1.1" 200 396275
127.0.0.1 - - [13/Nov/2015:17:00:25 -0600] "GET /CapstoneProject/about HTTP/1.1" 200 3155
127.0.0.1 - - [13/Nov/2015:17:00:25 -0600] "GET /CapstoneProject/css/aboutStyles.css HTTP/1.1" 200 535
127.0.0.1 - - [13/Nov/2015:17:00:25 -0600] "GET /CapstoneProject/css/train.jpg HTTP/1.1" 200 662142
127.0.0.1 - - [13/Nov/2015:17:00:28 -0600] "GET /CapstoneProject/disclaimer HTTP/1.1" 200 2938
127.0.0.1 - - [13/Nov/2015:17:00:28 -0600] "GET /CapstoneProject/css/disclaimerStyles.css HTTP/1.1" 200 535
127.0.0.1 - - [13/Nov/2015:17:00:28 -0600] "GET /CapstoneProject/css/tower.jpg HTTP/1.1" 200 290781
127.0.0.1 - - [13/Nov/2015:17:00:32 -0600] "GET /CapstoneProject/home HTTP/1.1" 200 5018
127.0.0.1 - - [13/Nov/2015:17:00:32 -0600] "GET /CapstoneProject/js/admin.js HTTP/1.1" 304 -
127.0.0.1 - - [13/Nov/2015:17:00:32 -0600] "GET /CapstoneProject/pinposts HTTP/1.1" 200 153
127.0.0.1 - - [13/Nov/2015:17:00:32 -0600] "GET /CapstoneProject/posts HTTP/1.1" 200 516
127.0.0.1 - - [13/Nov/2015:17:00:32 -0600] "GET /CapstoneProject/activetags HTTP/1.1" 200 182
127.0.0.1 - - [13/Nov/2015:17:00:33 -0600] "GET /CapstoneProject/pinposts HTTP/1.1" 200 153
127.0.0.1 - - [13/Nov/2015:17:00:33 -0600] "GET /CapstoneProject/activeposts HTTP/1.1" 200 516
127.0.0.1 - - [13/Nov/2015:17:00:33 -0600] "GET /CapstoneProject/img/pin.png HTTP/1.1" 304 -
127.0.0.1 - - [13/Nov/2015:17:00:33 -0600] "GET /CapstoneProject/activepins HTTP/1.1" 200 153
127.0.0.1 - - [13/Nov/2015:17:00:42 -0600] "GET /CapstoneProject/11 HTTP/1.1" 404 1703
127.0.0.1 - - [13/Nov/2015:17:00:42 -0600] "GET /CapstoneProject/js/bootstrap.js HTTP/1.1" 304 -
127.0.0.1 - - [13/Nov/2015:17:00:42 -0600] "GET /CapstoneProject/pinposts HTTP/1.1" 200 153
127.0.0.1 - - [13/Nov/2015:17:00:42 -0600] "GET /CapstoneProject/posts HTTP/1.1" 200 516
127.0.0.1 - - [13/Nov/2015:17:00:42 -0600] "GET /CapstoneProject/pinposts HTTP/1.1" 200 153
127.0.0.1 - - [13/Nov/2015:17:00:42 -0600] "GET /CapstoneProject/activetags HTTP/1.1" 200 182
127.0.0.1 - - [13/Nov/2015:17:00:42 -0600] "GET /CapstoneProject/activeposts HTTP/1.1" 200 516
127.0.0.1 - - [13/Nov/2015:17:00:42 -0600] "GET /CapstoneProject/activepins HTTP/1.1" 200 153
