127.0.0.1 - - [19/Nov/2015:08:53:16 -0600] "HEAD /netbeans-tomcat-status-test HTTP/1.1" 404 -
127.0.0.1 - - [19/Nov/2015:08:53:16 -0600] "HEAD /netbeans-tomcat-status-test HTTP/1.1" 404 -
127.0.0.1 - - [19/Nov/2015:08:53:16 -0600] "HEAD /netbeans-tomcat-status-test HTTP/1.1" 404 -
127.0.0.1 - - [19/Nov/2015:08:53:16 -0600] "HEAD /netbeans-tomcat-status-test HTTP/1.1" 404 -
127.0.0.1 - - [19/Nov/2015:08:53:16 -0600] "HEAD /netbeans-tomcat-status-test HTTP/1.1" 404 -
127.0.0.1 - - [19/Nov/2015:08:53:16 -0600] "HEAD /netbeans-tomcat-status-test HTTP/1.1" 404 -
127.0.0.1 - - [19/Nov/2015:08:53:16 -0600] "HEAD /netbeans-tomcat-status-test HTTP/1.1" 404 -
127.0.0.1 - - [19/Nov/2015:08:53:16 -0600] "HEAD /netbeans-tomcat-status-test HTTP/1.1" 404 -
127.0.0.1 - apprentice [19/Nov/2015:08:53:16 -0600] "GET /manager/text/list HTTP/1.1" 200 1442
127.0.0.1 - apprentice [19/Nov/2015:08:53:16 -0600] "GET /manager/text/list HTTP/1.1" 200 1442
127.0.0.1 - apprentice [19/Nov/2015:08:53:17 -0600] "GET /manager/text/undeploy?path=/CapstoneProject HTTP/1.1" 200 72
127.0.0.1 - apprentice [19/Nov/2015:08:53:20 -0600] "GET /manager/text/deploy?config=file%3A%2Ftmp%2Fcontext4729245912702971103.xml&path=/CapstoneProject HTTP/1.1" 200 70
127.0.0.1 - apprentice [19/Nov/2015:08:53:20 -0600] "GET /manager/text/start?path=/CapstoneProject HTTP/1.1" 200 69
127.0.0.1 - - [19/Nov/2015:08:53:21 -0600] "GET /CapstoneProject HTTP/1.1" 302 -
127.0.0.1 - - [19/Nov/2015:08:53:22 -0600] "GET /CapstoneProject/ HTTP/1.1" 200 5019
127.0.0.1 - - [19/Nov/2015:08:53:22 -0600] "GET /CapstoneProject/css/bootstrap.min.css HTTP/1.1" 200 113535
127.0.0.1 - - [19/Nov/2015:08:53:22 -0600] "GET /CapstoneProject/img/profilepic.jpg HTTP/1.1" 200 69567
127.0.0.1 - - [19/Nov/2015:08:53:22 -0600] "GET /CapstoneProject/css/homepage.css HTTP/1.1" 304 -
127.0.0.1 - - [19/Nov/2015:08:53:22 -0600] "GET /CapstoneProject/js/jquery-1.11.1.min.js HTTP/1.1" 304 -
127.0.0.1 - - [19/Nov/2015:08:53:22 -0600] "GET /CapstoneProject/js/bootstrap.min.js HTTP/1.1" 304 -
127.0.0.1 - - [19/Nov/2015:08:53:22 -0600] "GET /CapstoneProject/js/admin.js HTTP/1.1" 200 32534
127.0.0.1 - - [19/Nov/2015:08:53:22 -0600] "GET /CapstoneProject/css/wall.jpg HTTP/1.1" 304 -
127.0.0.1 - - [19/Nov/2015:08:53:22 -0600] "GET /CapstoneProject/css/black.png HTTP/1.1" 200 4388
127.0.0.1 - - [19/Nov/2015:08:53:22 -0600] "GET /CapstoneProject/fonts/Hunt.ttf HTTP/1.1" 200 181128
127.0.0.1 - - [19/Nov/2015:08:53:22 -0600] "GET /CapstoneProject/fonts/DeadheadRough.ttf HTTP/1.1" 200 111476
127.0.0.1 - - [19/Nov/2015:08:53:23 -0600] "GET /CapstoneProject/pinposts HTTP/1.1" 200 153
127.0.0.1 - - [19/Nov/2015:08:53:23 -0600] "GET /CapstoneProject/activeposts HTTP/1.1" 200 516
127.0.0.1 - - [19/Nov/2015:08:53:23 -0600] "GET /CapstoneProject/activetags HTTP/1.1" 200 182
127.0.0.1 - - [19/Nov/2015:08:53:23 -0600] "GET /CapstoneProject/posts HTTP/1.1" 200 516
127.0.0.1 - - [19/Nov/2015:08:53:23 -0600] "GET /CapstoneProject/users HTTP/1.1" 200 428
127.0.0.1 - - [19/Nov/2015:08:53:23 -0600] "GET /CapstoneProject/pinposts HTTP/1.1" 200 153
127.0.0.1 - - [19/Nov/2015:08:53:23 -0600] "GET /CapstoneProject/img/pin.png HTTP/1.1" 200 978
127.0.0.1 - - [19/Nov/2015:08:53:23 -0600] "GET /CapstoneProject/activepins HTTP/1.1" 200 153
127.0.0.1 - - [19/Nov/2015:10:04:10 -0600] "GET /CapstoneProject/employee HTTP/1.1" 302 -
127.0.0.1 - - [19/Nov/2015:10:04:10 -0600] "GET /CapstoneProject/login HTTP/1.1" 200 1513
127.0.0.1 - - [19/Nov/2015:10:04:19 -0600] "POST /CapstoneProject/j_spring_security_check HTTP/1.1" 302 -
127.0.0.1 - - [19/Nov/2015:10:04:19 -0600] "GET /CapstoneProject/login?login_error=1 HTTP/1.1" 200 1573
127.0.0.1 - - [19/Nov/2015:10:08:36 -0600] "GET /CapstoneProject/activepins HTTP/1.1" 200 153
127.0.0.1 - - [19/Nov/2015:11:10:36 -0600] "GET /CapstoneProject/employee HTTP/1.1" 302 -
127.0.0.1 - - [19/Nov/2015:11:10:36 -0600] "GET /CapstoneProject/login HTTP/1.1" 200 1513
127.0.0.1 - - [19/Nov/2015:11:10:38 -0600] "POST /CapstoneProject/j_spring_security_check HTTP/1.1" 302 -
127.0.0.1 - - [19/Nov/2015:11:10:38 -0600] "GET /CapstoneProject/employee HTTP/1.1" 302 -
127.0.0.1 - - [19/Nov/2015:11:10:38 -0600] "GET /CapstoneProject/admin HTTP/1.1" 200 7620
127.0.0.1 - - [19/Nov/2015:11:10:38 -0600] "GET /CapstoneProject/js/tinymce/tinymce.min.js HTTP/1.1" 304 -
127.0.0.1 - - [19/Nov/2015:11:10:38 -0600] "GET /CapstoneProject/js/admin.js HTTP/1.1" 304 -
127.0.0.1 - - [19/Nov/2015:11:10:38 -0600] "GET /CapstoneProject/css/adminStyles.css HTTP/1.1" 200 751
127.0.0.1 - - [19/Nov/2015:11:10:38 -0600] "GET /CapstoneProject/activetags HTTP/1.1" 200 182
127.0.0.1 - - [19/Nov/2015:11:10:38 -0600] "GET /CapstoneProject/activeposts HTTP/1.1" 200 516
127.0.0.1 - - [19/Nov/2015:11:10:38 -0600] "GET /CapstoneProject/users HTTP/1.1" 200 428
127.0.0.1 - - [19/Nov/2015:11:10:38 -0600] "GET /CapstoneProject/posts HTTP/1.1" 200 516
127.0.0.1 - - [19/Nov/2015:11:10:38 -0600] "GET /CapstoneProject/pinposts HTTP/1.1" 200 153
127.0.0.1 - - [19/Nov/2015:11:10:38 -0600] "GET /CapstoneProject/pinposts HTTP/1.1" 200 153
127.0.0.1 - - [19/Nov/2015:11:10:38 -0600] "GET /CapstoneProject/js/tinymce/themes/modern/theme.min.js HTTP/1.1" 304 -
127.0.0.1 - - [19/Nov/2015:11:10:38 -0600] "GET /CapstoneProject/js/tinymce/plugins/save/plugin.min.js HTTP/1.1" 304 -
127.0.0.1 - - [19/Nov/2015:11:10:38 -0600] "GET /CapstoneProject/js/tinymce/plugins/image/plugin.min.js HTTP/1.1" 304 -
127.0.0.1 - - [19/Nov/2015:11:10:38 -0600] "GET /CapstoneProject/js/tinymce/plugins/preview/plugin.min.js HTTP/1.1" 304 -
127.0.0.1 - - [19/Nov/2015:11:10:38 -0600] "GET /CapstoneProject/activepins HTTP/1.1" 200 153
127.0.0.1 - - [19/Nov/2015:11:10:38 -0600] "GET /CapstoneProject/js/tinymce/skins/lightgray/skin.min.css HTTP/1.1" 304 -
127.0.0.1 - - [19/Nov/2015:11:10:38 -0600] "GET /CapstoneProject/js/tinymce/skins/lightgray/content.min.css HTTP/1.1" 304 -
127.0.0.1 - - [19/Nov/2015:11:10:38 -0600] "GET /CapstoneProject/js/tinymce/skins/lightgray/fonts/tinymce.woff HTTP/1.1" 304 -
127.0.0.1 - - [19/Nov/2015:11:10:45 -0600] "GET /CapstoneProject/post/7 HTTP/1.1" 200 176
127.0.0.1 - - [19/Nov/2015:11:10:45 -0600] "GET /CapstoneProject/tags/7 HTTP/1.1" 200 16
127.0.0.1 - - [19/Nov/2015:11:10:45 -0600] "GET /CapstoneProject/pinposts HTTP/1.1" 200 153
127.0.0.1 - - [19/Nov/2015:11:10:45 -0600] "GET /CapstoneProject/posts HTTP/1.1" 200 516
127.0.0.1 - - [19/Nov/2015:11:12:08 -0600] "PATCH /CapstoneProject/post/7 HTTP/1.1" 200 -
127.0.0.1 - - [19/Nov/2015:11:12:08 -0600] "GET /CapstoneProject/pinposts HTTP/1.1" 200 153
127.0.0.1 - - [19/Nov/2015:11:12:08 -0600] "GET /CapstoneProject/posts HTTP/1.1" 200 657
127.0.0.1 - - [19/Nov/2015:11:12:42 -0600] "GET /CapstoneProject/home HTTP/1.1" 200 5019
127.0.0.1 - - [19/Nov/2015:11:12:42 -0600] "GET /CapstoneProject/css/homepage.css HTTP/1.1" 304 -
127.0.0.1 - - [19/Nov/2015:11:12:43 -0600] "GET /CapstoneProject/pinposts HTTP/1.1" 200 153
127.0.0.1 - - [19/Nov/2015:11:12:43 -0600] "GET /CapstoneProject/activeposts HTTP/1.1" 200 657
127.0.0.1 - - [19/Nov/2015:11:12:43 -0600] "GET /CapstoneProject/posts HTTP/1.1" 200 657
127.0.0.1 - - [19/Nov/2015:11:12:43 -0600] "GET /CapstoneProject/activetags HTTP/1.1" 200 182
127.0.0.1 - - [19/Nov/2015:11:12:43 -0600] "GET /CapstoneProject/pinposts HTTP/1.1" 200 153
127.0.0.1 - - [19/Nov/2015:11:12:43 -0600] "GET /CapstoneProject/users HTTP/1.1" 200 428
127.0.0.1 - - [19/Nov/2015:11:12:43 -0600] "GET /CapstoneProject/activepins HTTP/1.1" 200 153
127.0.0.1 - - [19/Nov/2015:11:13:56 -0600] "GET /CapstoneProject/employee HTTP/1.1" 302 -
127.0.0.1 - - [19/Nov/2015:11:13:56 -0600] "GET /CapstoneProject/admin HTTP/1.1" 200 7620
127.0.0.1 - - [19/Nov/2015:11:13:56 -0600] "GET /CapstoneProject/pinposts HTTP/1.1" 200 153
127.0.0.1 - - [19/Nov/2015:11:13:56 -0600] "GET /CapstoneProject/posts HTTP/1.1" 200 657
127.0.0.1 - - [19/Nov/2015:11:13:56 -0600] "GET /CapstoneProject/activeposts HTTP/1.1" 200 657
127.0.0.1 - - [19/Nov/2015:11:13:56 -0600] "GET /CapstoneProject/activetags HTTP/1.1" 200 182
127.0.0.1 - - [19/Nov/2015:11:13:56 -0600] "GET /CapstoneProject/users HTTP/1.1" 200 428
127.0.0.1 - - [19/Nov/2015:11:13:56 -0600] "GET /CapstoneProject/pinposts HTTP/1.1" 200 153
127.0.0.1 - - [19/Nov/2015:11:13:56 -0600] "GET /CapstoneProject/activepins HTTP/1.1" 200 153
127.0.0.1 - - [19/Nov/2015:11:13:59 -0600] "GET /CapstoneProject/post/7 HTTP/1.1" 200 318
127.0.0.1 - - [19/Nov/2015:11:13:59 -0600] "GET /CapstoneProject/tags/7 HTTP/1.1" 200 16
127.0.0.1 - - [19/Nov/2015:11:13:59 -0600] "GET /CapstoneProject/posts HTTP/1.1" 200 657
127.0.0.1 - - [19/Nov/2015:11:13:59 -0600] "GET /CapstoneProject/pinposts HTTP/1.1" 200 153
127.0.0.1 - - [19/Nov/2015:11:14:03 -0600] "PATCH /CapstoneProject/post/7 HTTP/1.1" 200 -
127.0.0.1 - - [19/Nov/2015:11:14:03 -0600] "GET /CapstoneProject/pinposts HTTP/1.1" 200 153
127.0.0.1 - - [19/Nov/2015:11:14:03 -0600] "GET /CapstoneProject/posts HTTP/1.1" 200 516
127.0.0.1 - - [19/Nov/2015:11:14:05 -0600] "GET /CapstoneProject/home HTTP/1.1" 200 5019
127.0.0.1 - - [19/Nov/2015:11:14:05 -0600] "GET /CapstoneProject/pinposts HTTP/1.1" 200 153
127.0.0.1 - - [19/Nov/2015:11:14:05 -0600] "GET /CapstoneProject/posts HTTP/1.1" 200 516
127.0.0.1 - - [19/Nov/2015:11:14:05 -0600] "GET /CapstoneProject/activetags HTTP/1.1" 200 182
127.0.0.1 - - [19/Nov/2015:11:14:05 -0600] "GET /CapstoneProject/pinposts HTTP/1.1" 200 153
127.0.0.1 - - [19/Nov/2015:11:14:05 -0600] "GET /CapstoneProject/activeposts HTTP/1.1" 200 516
127.0.0.1 - - [19/Nov/2015:11:14:05 -0600] "GET /CapstoneProject/users HTTP/1.1" 200 428
127.0.0.1 - - [19/Nov/2015:11:14:05 -0600] "GET /CapstoneProject/activepins HTTP/1.1" 200 153
